{
	"1": {
		"ID": 1,
		"BehavioralDesc": [
			{
				"Step": 1,
				"DescId": 2000,
				"Skill1": 40744,
				"Skill2": 0,
				"Skill3": 0,
				"Skill4": 0,
				"Skill5": 0
			},
			{
				"Step": 2,
				"DescId": 2001,
				"Skill1": 40741,
				"Skill2": 0,
				"Skill3": 0,
				"Skill4": 0,
				"Skill5": 0
			},
			{
				"Step": 3,
				"DescId": 2002,
				"Skill1": 40742,
				"Skill2": 0,
				"Skill3": 0,
				"Skill4": 0,
				"Skill5": 0
			}
		]
	},
	"2": {
		"ID": 2,
		"BehavioralDesc": [
			{
				"Step": 1,
				"DescId": 2003,
				"Skill1": 40745,
				"Skill2": 0,
				"Skill3": 0,
				"Skill4": 0,
				"Skill5": 0
			},
			{
				"Step": 2,
				"DescId": 2004,
				"Skill1": 40741,
				"Skill2": 0,
				"Skill3": 0,
				"Skill4": 0,
				"Skill5": 0
			},
			{
				"Step": 3,
				"DescId": 2005,
				"Skill1": 40743,
				"Skill2": 0,
				"Skill3": 0,
				"Skill4": 0,
				"Skill5": 0
			}
		]
	},
	"3": {
		"ID": 3,
		"BehavioralDesc": [
			{
				"Step": 1,
				"DescId": 2010,
				"Skill1": 40733,
				"Skill2": 0,
				"Skill3": 0,
				"Skill4": 0,
				"Skill5": 0
			},
			{
				"Step": 2,
				"DescId": 2011,
				"Skill1": 40734,
				"Skill2": 0,
				"Skill3": 0,
				"Skill4": 0,
				"Skill5": 0
			},
			{
				"Step": 3,
				"DescId": 2012,
				"Skill1": 40735,
				"Skill2": 0,
				"Skill3": 0,
				"Skill4": 0,
				"Skill5": 0
			}
		]
	},
	"4": {
		"ID": 4,
		"BehavioralDesc": [
			{
				"Step": 1,
				"DescId": 2006,
				"Skill1": 40754,
				"Skill2": 0,
				"Skill3": 0,
				"Skill4": 0,
				"Skill5": 0
			},
			{
				"Step": 2,
				"DescId": 2007,
				"Skill1": 40755,
				"Skill2": 0,
				"Skill3": 0,
				"Skill4": 0,
				"Skill5": 0
			},
			{
				"Step": 3,
				"DescId": 2008,
				"Skill1": 40756,
				"Skill2": 0,
				"Skill3": 0,
				"Skill4": 0,
				"Skill5": 0
			}
		]
	},
	"5": {
		"ID": 5,
		"BehavioralDesc": [
			{
				"Step": 1,
				"DescId": 2009,
				"Skill1": 40758,
				"Skill2": 40759,
				"Skill3": 0,
				"Skill4": 0,
				"Skill5": 0
			}
		]
	},
	"6": {
		"ID": 6,
		"BehavioralDesc": [
			{
				"Step": 1,
				"DescId": 2013,
				"Skill1": 42304,
				"Skill2": 0,
				"Skill3": 0,
				"Skill4": 0,
				"Skill5": 0
			},
			{
				"Step": 2,
				"DescId": 2014,
				"Skill1": 40725,
				"Skill2": 0,
				"Skill3": 0,
				"Skill4": 0,
				"Skill5": 0
			},
			{
				"Step": 3,
				"DescId": 2015,
				"Skill1": 40726,
				"Skill2": 0,
				"Skill3": 0,
				"Skill4": 0,
				"Skill5": 0
			}
		]
	},
	"7": {
		"ID": 7,
		"BehavioralDesc": [
			{
				"Step": 1,
				"DescId": 2016,
				"Skill1": 42304,
				"Skill2": 0,
				"Skill3": 0,
				"Skill4": 0,
				"Skill5": 0
			},
			{
				"Step": 2,
				"DescId": 2017,
				"Skill1": 42304,
				"Skill2": 0,
				"Skill3": 0,
				"Skill4": 0,
				"Skill5": 0
			},
			{
				"Step": 3,
				"DescId": 2018,
				"Skill1": 40730,
				"Skill2": 0,
				"Skill3": 0,
				"Skill4": 0,
				"Skill5": 0
			},
			{
				"Step": 4,
				"DescId": 2019,
				"Skill1": 40731,
				"Skill2": 0,
				"Skill3": 0,
				"Skill4": 0,
				"Skill5": 0
			}
		]
	},
	"8": {
		"ID": 8,
		"BehavioralDesc": [
			{
				"Step": 1,
				"DescId": 2020,
				"Skill1": 40715,
				"Skill2": 0,
				"Skill3": 0,
				"Skill4": 0,
				"Skill5": 0
			},
			{
				"Step": 2,
				"DescId": 2021,
				"Skill1": 40716,
				"Skill2": 0,
				"Skill3": 0,
				"Skill4": 0,
				"Skill5": 0
			},
			{
				"Step": 3,
				"DescId": 2022,
				"Skill1": 42303,
				"Skill2": 0,
				"Skill3": 0,
				"Skill4": 0,
				"Skill5": 0
			}
		]
	},
	"9": {
		"ID": 9,
		"BehavioralDesc": [
			{
				"Step": 1,
				"DescId": 2020,
				"Skill1": 40722,
				"Skill2": 0,
				"Skill3": 0,
				"Skill4": 0,
				"Skill5": 0
			},
			{
				"Step": 2,
				"DescId": 2021,
				"Skill1": 40723,
				"Skill2": 0,
				"Skill3": 0,
				"Skill4": 0,
				"Skill5": 0
			},
			{
				"Step": 3,
				"DescId": 2022,
				"Skill1": 42303,
				"Skill2": 0,
				"Skill3": 0,
				"Skill4": 0,
				"Skill5": 0
			}
		]
	}
}