{
	"1": {
		"ID": 1,
		"Ranking": 1,
		"Points": 300,
		"Name": "Top 1"
	},
	"2": {
		"ID": 2,
		"Ranking": 2,
		"Points": 290,
		"Name": "Top 2"
	},
	"3": {
		"ID": 3,
		"Ranking": 3,
		"Points": 280,
		"Name": "Top 3"
	},
	"4": {
		"ID": 4,
		"Ranking": 4,
		"Points": 270,
		"Name": "Top 4"
	},
	"5": {
		"ID": 5,
		"Ranking": 5,
		"Points": 260,
		"Name": "Rank 5 - Rank 10"
	},
	"6": {
		"ID": 6,
		"Ranking": 11,
		"Points": 250,
		"Name": "Rank 11 - Rank 20"
	},
	"7": {
		"ID": 7,
		"Ranking": 21,
		"Points": 240,
		"Name": "Rank 21 - Rank 30"
	},
	"8": {
		"ID": 8,
		"Ranking": 31,
		"Points": 230,
		"Name": "Rank 31 - Rank 40"
	},
	"9": {
		"ID": 9,
		"Ranking": 41,
		"Points": 220,
		"Name": "Rank 41 - Rank 50"
	},
	"10": {
		"ID": 10,
		"Ranking": 51,
		"Points": 210,
		"Name": "Rank 51 - Rank 60"
	},
	"11": {
		"ID": 11,
		"Ranking": 61,
		"Points": 200,
		"Name": "Rank 61 - Rank 80"
	},
	"12": {
		"ID": 12,
		"Ranking": 81,
		"Points": 190,
		"Name": "Rank 81 - Rank 100"
	},
	"13": {
		"ID": 13,
		"Ranking": 101,
		"Points": 180,
		"Name": "Rank 101 - Rank 150"
	},
	"14": {
		"ID": 14,
		"Ranking": 151,
		"Points": 170,
		"Name": "Rank 151 - Rank 200"
	},
	"15": {
		"ID": 15,
		"Ranking": 201,
		"Points": 160,
		"Name": "Rank 201 - Rank 300"
	},
	"16": {
		"ID": 16,
		"Ranking": 301,
		"Points": 150,
		"Name": "Rank 301 - Rank 400"
	},
	"17": {
		"ID": 17,
		"Ranking": 401,
		"Points": 140,
		"Name": "Rank 401 - Rank 500"
	},
	"18": {
		"ID": 18,
		"Ranking": 501,
		"Points": 130,
		"Name": "Rank 501 - Rank 800"
	},
	"19": {
		"ID": 19,
		"Ranking": 801,
		"Points": 120,
		"Name": "Rank 801 - Rank 1,200"
	},
	"20": {
		"ID": 20,
		"Ranking": 1201,
		"Points": 100,
		"Name": "Rank 1,201 - Rank 1,600"
	},
	"21": {
		"ID": 21,
		"Ranking": 1601,
		"Points": 80,
		"Name": "Rank 1,601 - Rank 2,000"
	},
	"22": {
		"ID": 22,
		"Ranking": 2001,
		"Points": 60,
		"Name": "Rank 2,001 - Rank 3,000"
	},
	"23": {
		"ID": 23,
		"Ranking": 3001,
		"Points": 40,
		"Name": "Rank 3,001 - Rank 5,000"
	},
	"24": {
		"ID": 24,
		"Ranking": 5001,
		"Points": 20,
		"Name": "Rank 5,000 and below"
	}
}