{
	"1": {
		"ID": 1,
		"HeroID": 2000,
		"Gold": 1500,
		"Rarity": 1,
		"IconResource": "4000"
	},
	"2": {
		"ID": 2,
		"HeroID": 2001,
		"Gold": 2250,
		"Rarity": 2,
		"IconResource": "4001"
	},
	"3": {
		"ID": 3,
		"HeroID": 2002,
		"Gold": 4500,
		"Rarity": 3,
		"IconResource": "4002"
	},
	"4": {
		"ID": 4,
		"HeroID": 2003,
		"Gold": 9000,
		"Rarity": 4,
		"IconResource": "4002"
	},
	"5": {
		"ID": 5,
		"HeroID": 2018,
		"Gold": 1600,
		"Rarity": 1,
		"IconResource": "4000"
	},
	"6": {
		"ID": 6,
		"HeroID": 2019,
		"Gold": 2400,
		"Rarity": 2,
		"IconResource": "4001"
	},
	"7": {
		"ID": 7,
		"HeroID": 2020,
		"Gold": 4800,
		"Rarity": 3,
		"IconResource": "4002"
	},
	"8": {
		"ID": 8,
		"HeroID": 2021,
		"Gold": 9600,
		"Rarity": 4,
		"IconResource": "4002"
	},
	"9": {
		"ID": 9,
		"HeroID": 2022,
		"Gold": 1700,
		"Rarity": 1,
		"IconResource": "4000"
	},
	"10": {
		"ID": 10,
		"HeroID": 2023,
		"Gold": 2550,
		"Rarity": 2,
		"IconResource": "4001"
	},
	"11": {
		"ID": 11,
		"HeroID": 2024,
		"Gold": 5100,
		"Rarity": 3,
		"IconResource": "4002"
	},
	"12": {
		"ID": 12,
		"HeroID": 2025,
		"Gold": 10200,
		"Rarity": 4,
		"IconResource": "4002"
	},
	"13": {
		"ID": 13,
		"HeroID": 2026,
		"Gold": 1800,
		"Rarity": 1,
		"IconResource": "4000"
	},
	"14": {
		"ID": 14,
		"HeroID": 2027,
		"Gold": 2700,
		"Rarity": 2,
		"IconResource": "4001"
	},
	"15": {
		"ID": 15,
		"HeroID": 2028,
		"Gold": 5400,
		"Rarity": 3,
		"IconResource": "4002"
	},
	"16": {
		"ID": 16,
		"HeroID": 2029,
		"Gold": 10800,
		"Rarity": 4,
		"IconResource": "4002"
	},
	"17": {
		"ID": 17,
		"HeroID": 2030,
		"Gold": 1900,
		"Rarity": 1,
		"IconResource": "4000"
	},
	"18": {
		"ID": 18,
		"HeroID": 2031,
		"Gold": 2850,
		"Rarity": 2,
		"IconResource": "4001"
	},
	"19": {
		"ID": 19,
		"HeroID": 2032,
		"Gold": 5700,
		"Rarity": 3,
		"IconResource": "4002"
	},
	"20": {
		"ID": 20,
		"HeroID": 2033,
		"Gold": 11400,
		"Rarity": 4,
		"IconResource": "4002"
	},
	"21": {
		"ID": 21,
		"HeroID": 2034,
		"Gold": 2000,
		"Rarity": 1,
		"IconResource": "4000"
	},
	"22": {
		"ID": 22,
		"HeroID": 2035,
		"Gold": 3000,
		"Rarity": 2,
		"IconResource": "4001"
	},
	"23": {
		"ID": 23,
		"HeroID": 2036,
		"Gold": 6000,
		"Rarity": 3,
		"IconResource": "4002"
	},
	"24": {
		"ID": 24,
		"HeroID": 2037,
		"Gold": 12000,
		"Rarity": 4,
		"IconResource": "4002"
	},
	"25": {
		"ID": 25,
		"HeroID": 2038,
		"Gold": 2100,
		"Rarity": 1,
		"IconResource": "4000"
	},
	"26": {
		"ID": 26,
		"HeroID": 2039,
		"Gold": 3150,
		"Rarity": 2,
		"IconResource": "4001"
	},
	"27": {
		"ID": 27,
		"HeroID": 2040,
		"Gold": 6300,
		"Rarity": 3,
		"IconResource": "4002"
	},
	"28": {
		"ID": 28,
		"HeroID": 2041,
		"Gold": 12600,
		"Rarity": 4,
		"IconResource": "4002"
	},
	"29": {
		"ID": 29,
		"HeroID": 2051,
		"Gold": 2300,
		"Rarity": 1,
		"IconResource": "4000"
	},
	"30": {
		"ID": 30,
		"HeroID": 2052,
		"Gold": 3450,
		"Rarity": 2,
		"IconResource": "4001"
	},
	"31": {
		"ID": 31,
		"HeroID": 2053,
		"Gold": 6900,
		"Rarity": 3,
		"IconResource": "4002"
	},
	"32": {
		"ID": 32,
		"HeroID": 2054,
		"Gold": 13800,
		"Rarity": 4,
		"IconResource": "4002"
	},
	"33": {
		"ID": 33,
		"HeroID": 2055,
		"Gold": 2500,
		"Rarity": 1,
		"IconResource": "4000"
	},
	"34": {
		"ID": 34,
		"HeroID": 2056,
		"Gold": 3750,
		"Rarity": 2,
		"IconResource": "4001"
	},
	"35": {
		"ID": 35,
		"HeroID": 2057,
		"Gold": 7500,
		"Rarity": 3,
		"IconResource": "4002"
	},
	"36": {
		"ID": 36,
		"HeroID": 2058,
		"Gold": 15000,
		"Rarity": 4,
		"IconResource": "4002"
	},
	"37": {
		"ID": 37,
		"HeroID": 2975,
		"Gold": 3900,
		"Rarity": 1,
		"IconResource": "4000"
	},
	"38": {
		"ID": 38,
		"HeroID": 2976,
		"Gold": 7800,
		"Rarity": 2,
		"IconResource": "4001"
	},
	"39": {
		"ID": 39,
		"HeroID": 2977,
		"Gold": 15600,
		"Rarity": 3,
		"IconResource": "4002"
	},
	"40": {
		"ID": 40,
		"HeroID": 2978,
		"Gold": 46800,
		"Rarity": 4,
		"IconResource": "4002"
	}
}