{
	"1": {
		"ID": 1,
		"AchievementID": 1
	},
	"2": {
		"ID": 2,
		"AchievementID": 2
	},
	"3": {
		"ID": 3,
		"AchievementID": 3
	},
	"4": {
		"ID": 4,
		"AchievementID": 4
	},
	"5": {
		"ID": 5,
		"AchievementID": 5
	},
	"6": {
		"ID": 6,
		"AchievementID": 10
	},
	"7": {
		"ID": 7,
		"AchievementID": 7
	},
	"8": {
		"ID": 8,
		"AchievementID": 8
	},
	"9": {
		"ID": 9,
		"AchievementID": 9
	},
	"10": {
		"ID": 10,
		"AchievementID": 6
	},
	"11": {
		"ID": 11,
		"AchievementID": 11
	},
	"12": {
		"ID": 12,
		"AchievementID": 6
	},
	"13": {
		"ID": 13,
		"AchievementID": 6
	},
	"14": {
		"ID": 14,
		"AchievementID": 6
	},
	"15": {
		"ID": 15,
		"AchievementID": 6
	},
	"16": {
		"ID": 16,
		"AchievementID": 6
	},
	"17": {
		"ID": 17,
		"AchievementID": 7
	},
	"18": {
		"ID": 18,
		"AchievementID": 7
	},
	"19": {
		"ID": 19,
		"AchievementID": 4
	},
	"20": {
		"ID": 20,
		"AchievementID": 5
	},
	"21": {
		"ID": 21,
		"AchievementID": 6
	},
	"22": {
		"ID": 22,
		"AchievementID": 6
	},
	"23": {
		"ID": 23,
		"AchievementID": 6
	},
	"24": {
		"ID": 24,
		"AchievementID": 6
	},
	"25": {
		"ID": 25,
		"AchievementID": 6
	},
	"26": {
		"ID": 26,
		"AchievementID": 6
	},
	"27": {
		"ID": 27,
		"AchievementID": 6
	},
	"28": {
		"ID": 28,
		"AchievementID": 6
	},
	"29": {
		"ID": 29,
		"AchievementID": 7
	},
	"30": {
		"ID": 30,
		"AchievementID": 7
	},
	"31": {
		"ID": 31,
		"AchievementID": 7
	},
	"32": {
		"ID": 32,
		"AchievementID": 8
	},
	"33": {
		"ID": 33,
		"AchievementID": 9
	},
	"34": {
		"ID": 34,
		"AchievementID": 12
	},
	"35": {
		"ID": 35,
		"AchievementID": 13
	},
	"36": {
		"ID": 36,
		"AchievementID": 14
	},
	"37": {
		"ID": 37,
		"AchievementID": 15
	},
	"38": {
		"ID": 38,
		"AchievementID": 16
	},
	"39": {
		"ID": 39,
		"AchievementID": 17
	},
	"40": {
		"ID": 40,
		"AchievementID": 18
	},
	"41": {
		"ID": 41,
		"AchievementID": 19
	},
	"42": {
		"ID": 42,
		"AchievementID": 20
	},
	"43": {
		"ID": 43,
		"AchievementID": 21
	},
	"44": {
		"ID": 44,
		"AchievementID": 22
	},
	"45": {
		"ID": 45,
		"AchievementID": 23
	},
	"46": {
		"ID": 46,
		"AchievementID": 24
	},
	"47": {
		"ID": 47,
		"AchievementID": 25
	},
	"48": {
		"ID": 48,
		"AchievementID": 26
	},
	"49": {
		"ID": 49,
		"AchievementID": 27
	},
	"50": {
		"ID": 50,
		"AchievementID": 28
	},
	"51": {
		"ID": 51,
		"AchievementID": 29
	},
	"52": {
		"ID": 52,
		"AchievementID": 30
	},
	"53": {
		"ID": 53,
		"AchievementID": 31
	},
	"54": {
		"ID": 54,
		"AchievementID": 32
	},
	"55": {
		"ID": 55,
		"AchievementID": 33
	},
	"56": {
		"ID": 56,
		"AchievementID": 34
	},
	"57": {
		"ID": 57,
		"AchievementID": 35
	},
	"58": {
		"ID": 58,
		"AchievementID": 36
	},
	"59": {
		"ID": 59,
		"AchievementID": 37
	},
	"60": {
		"ID": 60,
		"AchievementID": 38
	},
	"61": {
		"ID": 61,
		"AchievementID": 39
	},
	"62": {
		"ID": 62,
		"AchievementID": 40
	},
	"63": {
		"ID": 63,
		"AchievementID": 41
	},
	"64": {
		"ID": 64,
		"AchievementID": 42
	},
	"65": {
		"ID": 65,
		"AchievementID": 43
	},
	"66": {
		"ID": 66,
		"AchievementID": 44
	},
	"67": {
		"ID": 67,
		"AchievementID": 45
	},
	"68": {
		"ID": 68,
		"AchievementID": 46
	},
	"69": {
		"ID": 69,
		"AchievementID": 47
	},
	"70": {
		"ID": 70,
		"AchievementID": 48
	},
	"71": {
		"ID": 71,
		"AchievementID": 49
	},
	"72": {
		"ID": 72,
		"AchievementID": 50
	},
	"73": {
		"ID": 73,
		"AchievementID": 51
	},
	"74": {
		"ID": 74,
		"AchievementID": 52
	},
	"75": {
		"ID": 75,
		"AchievementID": 53
	},
	"76": {
		"ID": 76,
		"AchievementID": 54
	},
	"77": {
		"ID": 77,
		"AchievementID": 55
	},
	"78": {
		"ID": 78,
		"AchievementID": 56
	},
	"79": {
		"ID": 79,
		"AchievementID": 57
	},
	"501": {
		"ID": 501,
		"AchievementID": 501
	},
	"502": {
		"ID": 502,
		"AchievementID": 502
	},
	"503": {
		"ID": 503,
		"AchievementID": 503
	},
	"504": {
		"ID": 504,
		"AchievementID": 504
	},
	"505": {
		"ID": 505,
		"AchievementID": 505
	},
	"506": {
		"ID": 506,
		"AchievementID": 506
	},
	"601": {
		"ID": 601,
		"AchievementID": 601
	},
	"602": {
		"ID": 602,
		"AchievementID": 602
	},
	"603": {
		"ID": 603,
		"AchievementID": 603
	},
	"604": {
		"ID": 604,
		"AchievementID": 604
	},
	"605": {
		"ID": 605,
		"AchievementID": 605
	},
	"606": {
		"ID": 606,
		"AchievementID": 606
	},
	"701": {
		"ID": 701,
		"AchievementID": 701
	},
	"702": {
		"ID": 702,
		"AchievementID": 702
	},
	"703": {
		"ID": 703,
		"AchievementID": 703
	},
	"704": {
		"ID": 704,
		"AchievementID": 704
	},
	"705": {
		"ID": 705,
		"AchievementID": 705
	},
	"706": {
		"ID": 706,
		"AchievementID": 706
	},
	"801": {
		"ID": 801,
		"AchievementID": 801
	},
	"802": {
		"ID": 802,
		"AchievementID": 802
	},
	"803": {
		"ID": 803,
		"AchievementID": 803
	},
	"804": {
		"ID": 804,
		"AchievementID": 804
	},
	"805": {
		"ID": 805,
		"AchievementID": 805
	},
	"806": {
		"ID": 806,
		"AchievementID": 806
	},
	"901": {
		"ID": 901,
		"AchievementID": 901
	},
	"902": {
		"ID": 902,
		"AchievementID": 902
	},
	"903": {
		"ID": 903,
		"AchievementID": 903
	},
	"904": {
		"ID": 904,
		"AchievementID": 904
	},
	"905": {
		"ID": 905,
		"AchievementID": 905
	},
	"906": {
		"ID": 906,
		"AchievementID": 906
	},
	"1004": {
		"ID": 1004,
		"AchievementID": 1004
	},
	"1005": {
		"ID": 1005,
		"AchievementID": 1005
	},
	"1006": {
		"ID": 1006,
		"AchievementID": 1010
	},
	"1007": {
		"ID": 1007,
		"AchievementID": 1007
	},
	"1008": {
		"ID": 1008,
		"AchievementID": 1008
	},
	"1009": {
		"ID": 1009,
		"AchievementID": 1009
	},
	"1010": {
		"ID": 1010,
		"AchievementID": 1006
	},
	"1011": {
		"ID": 1011,
		"AchievementID": 1011
	},
	"1012": {
		"ID": 1012,
		"AchievementID": 1006
	},
	"1013": {
		"ID": 1013,
		"AchievementID": 1006
	},
	"1014": {
		"ID": 1014,
		"AchievementID": 1006
	},
	"1015": {
		"ID": 1015,
		"AchievementID": 1006
	},
	"1016": {
		"ID": 1016,
		"AchievementID": 1006
	},
	"1017": {
		"ID": 1017,
		"AchievementID": 1007
	},
	"1018": {
		"ID": 1018,
		"AchievementID": 1007
	},
	"1019": {
		"ID": 1019,
		"AchievementID": 1004
	},
	"1020": {
		"ID": 1020,
		"AchievementID": 1005
	},
	"1021": {
		"ID": 1021,
		"AchievementID": 1006
	},
	"1022": {
		"ID": 1022,
		"AchievementID": 1006
	},
	"1023": {
		"ID": 1023,
		"AchievementID": 1006
	},
	"1024": {
		"ID": 1024,
		"AchievementID": 1006
	},
	"1025": {
		"ID": 1025,
		"AchievementID": 1006
	},
	"1026": {
		"ID": 1026,
		"AchievementID": 1006
	},
	"1027": {
		"ID": 1027,
		"AchievementID": 1006
	},
	"1028": {
		"ID": 1028,
		"AchievementID": 1006
	},
	"1029": {
		"ID": 1029,
		"AchievementID": 1007
	},
	"1030": {
		"ID": 1030,
		"AchievementID": 1007
	},
	"1031": {
		"ID": 1031,
		"AchievementID": 1007
	},
	"1032": {
		"ID": 1032,
		"AchievementID": 1008
	},
	"1033": {
		"ID": 1033,
		"AchievementID": 1009
	},
	"1034": {
		"ID": 1034,
		"AchievementID": 1012
	},
	"1035": {
		"ID": 1035,
		"AchievementID": 1013
	},
	"1036": {
		"ID": 1036,
		"AchievementID": 1014
	},
	"1037": {
		"ID": 1037,
		"AchievementID": 1015
	},
	"1038": {
		"ID": 1038,
		"AchievementID": 1016
	},
	"1039": {
		"ID": 1039,
		"AchievementID": 1017
	},
	"1040": {
		"ID": 1040,
		"AchievementID": 1018
	},
	"1041": {
		"ID": 1041,
		"AchievementID": 1019
	},
	"1042": {
		"ID": 1042,
		"AchievementID": 1020
	},
	"1043": {
		"ID": 1043,
		"AchievementID": 1021
	},
	"1044": {
		"ID": 1044,
		"AchievementID": 1022
	},
	"1045": {
		"ID": 1045,
		"AchievementID": 1023
	},
	"1046": {
		"ID": 1046,
		"AchievementID": 1024
	},
	"1047": {
		"ID": 1047,
		"AchievementID": 1025
	},
	"1048": {
		"ID": 1048,
		"AchievementID": 1026
	},
	"1049": {
		"ID": 1049,
		"AchievementID": 1027
	},
	"1050": {
		"ID": 1050,
		"AchievementID": 1028
	},
	"1051": {
		"ID": 1051,
		"AchievementID": 1029
	},
	"1052": {
		"ID": 1052,
		"AchievementID": 1030
	},
	"1053": {
		"ID": 1053,
		"AchievementID": 1031
	},
	"1054": {
		"ID": 1054,
		"AchievementID": 1032
	},
	"1055": {
		"ID": 1055,
		"AchievementID": 1033
	},
	"1056": {
		"ID": 1056,
		"AchievementID": 1034
	},
	"1057": {
		"ID": 1057,
		"AchievementID": 1035
	},
	"1058": {
		"ID": 1058,
		"AchievementID": 1036
	},
	"1059": {
		"ID": 1059,
		"AchievementID": 1037
	},
	"1060": {
		"ID": 1060,
		"AchievementID": 1038
	},
	"1061": {
		"ID": 1061,
		"AchievementID": 1039
	},
	"1062": {
		"ID": 1062,
		"AchievementID": 1040
	},
	"1063": {
		"ID": 1063,
		"AchievementID": 1041
	},
	"1064": {
		"ID": 1064,
		"AchievementID": 1042
	},
	"1065": {
		"ID": 1065,
		"AchievementID": 1043
	},
	"1066": {
		"ID": 1066,
		"AchievementID": 1044
	},
	"1067": {
		"ID": 1067,
		"AchievementID": 1045
	},
	"1068": {
		"ID": 1068,
		"AchievementID": 1046
	},
	"1069": {
		"ID": 1069,
		"AchievementID": 1047
	},
	"1070": {
		"ID": 1070,
		"AchievementID": 1048
	},
	"1071": {
		"ID": 1071,
		"AchievementID": 1049
	},
	"1072": {
		"ID": 1072,
		"AchievementID": 1050
	},
	"1073": {
		"ID": 1073,
		"AchievementID": 1051
	},
	"1074": {
		"ID": 1074,
		"AchievementID": 1052
	},
	"1075": {
		"ID": 1075,
		"AchievementID": 1053
	},
	"1076": {
		"ID": 1076,
		"AchievementID": 1054
	},
	"1077": {
		"ID": 1077,
		"AchievementID": 1055
	},
	"1078": {
		"ID": 1078,
		"AchievementID": 1056
	},
	"1079": {
		"ID": 1079,
		"AchievementID": 1057
	},
	"1100": {
		"ID": 1100,
		"AchievementID": 1100
	},
	"1101": {
		"ID": 1101,
		"AchievementID": 1101
	},
	"1102": {
		"ID": 1102,
		"AchievementID": 1102
	},
	"1103": {
		"ID": 1103,
		"AchievementID": 1103
	},
	"1104": {
		"ID": 1104,
		"AchievementID": 1104
	},
	"1105": {
		"ID": 1105,
		"AchievementID": 1105
	},
	"1106": {
		"ID": 1106,
		"AchievementID": 1106
	},
	"1107": {
		"ID": 1107,
		"AchievementID": 1107
	},
	"1108": {
		"ID": 1108,
		"AchievementID": 1108
	},
	"1109": {
		"ID": 1109,
		"AchievementID": 1109
	},
	"1110": {
		"ID": 1110,
		"AchievementID": 1110
	},
	"1111": {
		"ID": 1111,
		"AchievementID": 1111
	},
	"1112": {
		"ID": 1112,
		"AchievementID": 1112
	},
	"1113": {
		"ID": 1113,
		"AchievementID": 1113
	},
	"1114": {
		"ID": 1114,
		"AchievementID": 1114
	},
	"1115": {
		"ID": 1115,
		"AchievementID": 1115
	},
	"1116": {
		"ID": 1116,
		"AchievementID": 1116
	},
	"1117": {
		"ID": 1117,
		"AchievementID": 1117
	},
	"1118": {
		"ID": 1118,
		"AchievementID": 1118
	},
	"1119": {
		"ID": 1119,
		"AchievementID": 1119
	},
	"1120": {
		"ID": 1120,
		"AchievementID": 1120
	},
	"1121": {
		"ID": 1121,
		"AchievementID": 1121
	},
	"1122": {
		"ID": 1122,
		"AchievementID": 1122
	},
	"1123": {
		"ID": 1123,
		"AchievementID": 1123
	},
	"1124": {
		"ID": 1124,
		"AchievementID": 1124
	},
	"1125": {
		"ID": 1125,
		"AchievementID": 1125
	},
	"1126": {
		"ID": 1126,
		"AchievementID": 1126
	},
	"1127": {
		"ID": 1127,
		"AchievementID": 1127
	},
	"1128": {
		"ID": 1128,
		"AchievementID": 1128
	},
	"1129": {
		"ID": 1129,
		"AchievementID": 1129
	},
	"1130": {
		"ID": 1130,
		"AchievementID": 1130
	},
	"1131": {
		"ID": 1131,
		"AchievementID": 1131
	},
	"1132": {
		"ID": 1132,
		"AchievementID": 1132
	},
	"1133": {
		"ID": 1133,
		"AchievementID": 1133
	},
	"1134": {
		"ID": 1134,
		"AchievementID": 1134
	},
	"1135": {
		"ID": 1135,
		"AchievementID": 1135
	},
	"1136": {
		"ID": 1136,
		"AchievementID": 1136
	},
	"1137": {
		"ID": 1137,
		"AchievementID": 1137
	},
	"1138": {
		"ID": 1138,
		"AchievementID": 1138
	},
	"1139": {
		"ID": 1139,
		"AchievementID": 1139
	},
	"1140": {
		"ID": 1140,
		"AchievementID": 1140
	},
	"1141": {
		"ID": 1141,
		"AchievementID": 1141
	},
	"1142": {
		"ID": 1142,
		"AchievementID": 1142
	},
	"1143": {
		"ID": 1143,
		"AchievementID": 1143
	},
	"1144": {
		"ID": 1144,
		"AchievementID": 1144
	},
	"1145": {
		"ID": 1145,
		"AchievementID": 1145
	},
	"1146": {
		"ID": 1146,
		"AchievementID": 1146
	},
	"1147": {
		"ID": 1147,
		"AchievementID": 1147
	},
	"1148": {
		"ID": 1148,
		"AchievementID": 1148
	},
	"1149": {
		"ID": 1149,
		"AchievementID": 1149
	},
	"1150": {
		"ID": 1150,
		"AchievementID": 1150
	},
	"1151": {
		"ID": 1151,
		"AchievementID": 1151
	},
	"1152": {
		"ID": 1152,
		"AchievementID": 1152
	},
	"1153": {
		"ID": 1153,
		"AchievementID": 1153
	},
	"1154": {
		"ID": 1154,
		"AchievementID": 1154
	},
	"1155": {
		"ID": 1155,
		"AchievementID": 1155
	},
	"1156": {
		"ID": 1156,
		"AchievementID": 1156
	},
	"1157": {
		"ID": 1157,
		"AchievementID": 1157
	},
	"1158": {
		"ID": 1158,
		"AchievementID": 1158
	},
	"1159": {
		"ID": 1159,
		"AchievementID": 1159
	},
	"1160": {
		"ID": 1160,
		"AchievementID": 1160
	},
	"1161": {
		"ID": 1161,
		"AchievementID": 1161
	},
	"1162": {
		"ID": 1162,
		"AchievementID": 1162
	},
	"1163": {
		"ID": 1163,
		"AchievementID": 1163
	},
	"1164": {
		"ID": 1164,
		"AchievementID": 1164
	},
	"1165": {
		"ID": 1165,
		"AchievementID": 1165
	},
	"1166": {
		"ID": 1166,
		"AchievementID": 1166
	},
	"1167": {
		"ID": 1167,
		"AchievementID": 1167
	},
	"1168": {
		"ID": 1168,
		"AchievementID": 1168
	},
	"1169": {
		"ID": 1169,
		"AchievementID": 1169
	},
	"1170": {
		"ID": 1170,
		"AchievementID": 1170
	},
	"1171": {
		"ID": 1171,
		"AchievementID": 1171
	},
	"1172": {
		"ID": 1172,
		"AchievementID": 1172
	},
	"1173": {
		"ID": 1173,
		"AchievementID": 1173
	},
	"1174": {
		"ID": 1174,
		"AchievementID": 1174
	},
	"1175": {
		"ID": 1175,
		"AchievementID": 1175
	},
	"1176": {
		"ID": 1176,
		"AchievementID": 1176
	},
	"1177": {
		"ID": 1177,
		"AchievementID": 1177
	},
	"1178": {
		"ID": 1178,
		"AchievementID": 1178
	},
	"1179": {
		"ID": 1179,
		"AchievementID": 1179
	},
	"1180": {
		"ID": 1180,
		"AchievementID": 1180
	},
	"1181": {
		"ID": 1181,
		"AchievementID": 1181
	},
	"1182": {
		"ID": 1182,
		"AchievementID": 1182
	},
	"1183": {
		"ID": 1183,
		"AchievementID": 1183
	},
	"2100": {
		"ID": 2100,
		"AchievementID": 2100
	},
	"2101": {
		"ID": 2101,
		"AchievementID": 2101
	},
	"2102": {
		"ID": 2102,
		"AchievementID": 2102
	},
	"2103": {
		"ID": 2103,
		"AchievementID": 2103
	},
	"2104": {
		"ID": 2104,
		"AchievementID": 2104
	},
	"2105": {
		"ID": 2105,
		"AchievementID": 2105
	},
	"2106": {
		"ID": 2106,
		"AchievementID": 2106
	},
	"2107": {
		"ID": 2107,
		"AchievementID": 2107
	},
	"2108": {
		"ID": 2108,
		"AchievementID": 2108
	},
	"2109": {
		"ID": 2109,
		"AchievementID": 2109
	},
	"2110": {
		"ID": 2110,
		"AchievementID": 2110
	},
	"2111": {
		"ID": 2111,
		"AchievementID": 2111
	},
	"2112": {
		"ID": 2112,
		"AchievementID": 2112
	},
	"2113": {
		"ID": 2113,
		"AchievementID": 2113
	},
	"2114": {
		"ID": 2114,
		"AchievementID": 2114
	},
	"2115": {
		"ID": 2115,
		"AchievementID": 2115
	},
	"2116": {
		"ID": 2116,
		"AchievementID": 2116
	},
	"2117": {
		"ID": 2117,
		"AchievementID": 2117
	},
	"2118": {
		"ID": 2118,
		"AchievementID": 2118
	},
	"2119": {
		"ID": 2119,
		"AchievementID": 2119
	},
	"2120": {
		"ID": 2120,
		"AchievementID": 2120
	},
	"2121": {
		"ID": 2121,
		"AchievementID": 2121
	},
	"2122": {
		"ID": 2122,
		"AchievementID": 2122
	},
	"2123": {
		"ID": 2123,
		"AchievementID": 2123
	},
	"2124": {
		"ID": 2124,
		"AchievementID": 2124
	},
	"2125": {
		"ID": 2125,
		"AchievementID": 2125
	},
	"2126": {
		"ID": 2126,
		"AchievementID": 2126
	},
	"2127": {
		"ID": 2127,
		"AchievementID": 2127
	},
	"2128": {
		"ID": 2128,
		"AchievementID": 2128
	},
	"2129": {
		"ID": 2129,
		"AchievementID": 2129
	},
	"2130": {
		"ID": 2130,
		"AchievementID": 2130
	},
	"2131": {
		"ID": 2131,
		"AchievementID": 2131
	},
	"2132": {
		"ID": 2132,
		"AchievementID": 2132
	},
	"2133": {
		"ID": 2133,
		"AchievementID": 2133
	},
	"2134": {
		"ID": 2134,
		"AchievementID": 2134
	},
	"2135": {
		"ID": 2135,
		"AchievementID": 2135
	},
	"2136": {
		"ID": 2136,
		"AchievementID": 2136
	},
	"2137": {
		"ID": 2137,
		"AchievementID": 2137
	},
	"2138": {
		"ID": 2138,
		"AchievementID": 2138
	},
	"2139": {
		"ID": 2139,
		"AchievementID": 2139
	},
	"2140": {
		"ID": 2140,
		"AchievementID": 2140
	},
	"2141": {
		"ID": 2141,
		"AchievementID": 2141
	},
	"2142": {
		"ID": 2142,
		"AchievementID": 2142
	},
	"2143": {
		"ID": 2143,
		"AchievementID": 2143
	},
	"2144": {
		"ID": 2144,
		"AchievementID": 2144
	},
	"2145": {
		"ID": 2145,
		"AchievementID": 2145
	},
	"2146": {
		"ID": 2146,
		"AchievementID": 2146
	},
	"2147": {
		"ID": 2147,
		"AchievementID": 2147
	},
	"2148": {
		"ID": 2148,
		"AchievementID": 2148
	},
	"2149": {
		"ID": 2149,
		"AchievementID": 2149
	},
	"2150": {
		"ID": 2150,
		"AchievementID": 2150
	},
	"2151": {
		"ID": 2151,
		"AchievementID": 2151
	},
	"2152": {
		"ID": 2152,
		"AchievementID": 2152
	},
	"2153": {
		"ID": 2153,
		"AchievementID": 2153
	},
	"2154": {
		"ID": 2154,
		"AchievementID": 2154
	},
	"2155": {
		"ID": 2155,
		"AchievementID": 2155
	},
	"2156": {
		"ID": 2156,
		"AchievementID": 2156
	},
	"2157": {
		"ID": 2157,
		"AchievementID": 2157
	},
	"2158": {
		"ID": 2158,
		"AchievementID": 2158
	},
	"2159": {
		"ID": 2159,
		"AchievementID": 2159
	},
	"2160": {
		"ID": 2160,
		"AchievementID": 2160
	},
	"2161": {
		"ID": 2161,
		"AchievementID": 2161
	},
	"2162": {
		"ID": 2162,
		"AchievementID": 2162
	},
	"2163": {
		"ID": 2163,
		"AchievementID": 2163
	},
	"2164": {
		"ID": 2164,
		"AchievementID": 2164
	},
	"2165": {
		"ID": 2165,
		"AchievementID": 2165
	},
	"2166": {
		"ID": 2166,
		"AchievementID": 2166
	},
	"2167": {
		"ID": 2167,
		"AchievementID": 2167
	},
	"2168": {
		"ID": 2168,
		"AchievementID": 2168
	},
	"2169": {
		"ID": 2169,
		"AchievementID": 2169
	},
	"2170": {
		"ID": 2170,
		"AchievementID": 2170
	},
	"2171": {
		"ID": 2171,
		"AchievementID": 2171
	},
	"2172": {
		"ID": 2172,
		"AchievementID": 2172
	},
	"2173": {
		"ID": 2173,
		"AchievementID": 2173
	},
	"2174": {
		"ID": 2174,
		"AchievementID": 2174
	},
	"2180": {
		"ID": 2180,
		"AchievementID": 2180
	},
	"2181": {
		"ID": 2181,
		"AchievementID": 2181
	},
	"2182": {
		"ID": 2182,
		"AchievementID": 2182
	},
	"2183": {
		"ID": 2183,
		"AchievementID": 2183
	},
	"2184": {
		"ID": 2184,
		"AchievementID": 2184
	},
	"2185": {
		"ID": 2185,
		"AchievementID": 2185
	},
	"2190": {
		"ID": 2190,
		"AchievementID": 2190
	},
	"2191": {
		"ID": 2191,
		"AchievementID": 2191
	},
	"2192": {
		"ID": 2192,
		"AchievementID": 2192
	},
	"2193": {
		"ID": 2193,
		"AchievementID": 2193
	},
	"2194": {
		"ID": 2194,
		"AchievementID": 2194
	},
	"2195": {
		"ID": 2195,
		"AchievementID": 2195
	},
	"2196": {
		"ID": 2196,
		"AchievementID": 2196
	},
	"2197": {
		"ID": 2197,
		"AchievementID": 2197
	},
	"2198": {
		"ID": 2198,
		"AchievementID": 2198
	},
	"2199": {
		"ID": 2199,
		"AchievementID": 2199
	},
	"2200": {
		"ID": 2200,
		"AchievementID": 2200
	},
	"2201": {
		"ID": 2201,
		"AchievementID": 2201
	},
	"2202": {
		"ID": 2202,
		"AchievementID": 2202
	},
	"2203": {
		"ID": 2203,
		"AchievementID": 2203
	},
	"2204": {
		"ID": 2204,
		"AchievementID": 2204
	},
	"5000": {
		"ID": 5000,
		"AchievementID": 5000
	},
	"5001": {
		"ID": 5001,
		"AchievementID": 5001
	},
	"5002": {
		"ID": 5002,
		"AchievementID": 5002
	},
	"5003": {
		"ID": 5003,
		"AchievementID": 5003
	},
	"5004": {
		"ID": 5004,
		"AchievementID": 5004
	},
	"5005": {
		"ID": 5005,
		"AchievementID": 5005
	},
	"5006": {
		"ID": 5006,
		"AchievementID": 5006
	},
	"5007": {
		"ID": 5007,
		"AchievementID": 5007
	},
	"5008": {
		"ID": 5008,
		"AchievementID": 5008
	},
	"5009": {
		"ID": 5009,
		"AchievementID": 5009
	},
	"5010": {
		"ID": 5010,
		"AchievementID": 5010
	},
	"5011": {
		"ID": 5011,
		"AchievementID": 5011
	},
	"5012": {
		"ID": 5012,
		"AchievementID": 5012
	},
	"5013": {
		"ID": 5013,
		"AchievementID": 5013
	},
	"5014": {
		"ID": 5014,
		"AchievementID": 5014
	},
	"5015": {
		"ID": 5015,
		"AchievementID": 5015
	},
	"5016": {
		"ID": 5016,
		"AchievementID": 5016
	},
	"5017": {
		"ID": 5017,
		"AchievementID": 5017
	},
	"5018": {
		"ID": 5018,
		"AchievementID": 5018
	},
	"5019": {
		"ID": 5019,
		"AchievementID": 5019
	},
	"5020": {
		"ID": 5020,
		"AchievementID": 5020
	},
	"5021": {
		"ID": 5021,
		"AchievementID": 5021
	},
	"5022": {
		"ID": 5022,
		"AchievementID": 5022
	},
	"5023": {
		"ID": 5023,
		"AchievementID": 5023
	},
	"5024": {
		"ID": 5024,
		"AchievementID": 5024
	},
	"5025": {
		"ID": 5025,
		"AchievementID": 5025
	},
	"5026": {
		"ID": 5026,
		"AchievementID": 5026
	},
	"5027": {
		"ID": 5027,
		"AchievementID": 5027
	},
	"5028": {
		"ID": 5028,
		"AchievementID": 5028
	},
	"5029": {
		"ID": 5029,
		"AchievementID": 5029
	},
	"6000": {
		"ID": 6000,
		"AchievementID": 6000
	},
	"6001": {
		"ID": 6001,
		"AchievementID": 6001
	},
	"6002": {
		"ID": 6002,
		"AchievementID": 6002
	},
	"6003": {
		"ID": 6003,
		"AchievementID": 6000
	},
	"6004": {
		"ID": 6004,
		"AchievementID": 6001
	},
	"6005": {
		"ID": 6005,
		"AchievementID": 6002
	},
	"6006": {
		"ID": 6006,
		"AchievementID": 6003
	},
	"6007": {
		"ID": 6007,
		"AchievementID": 6004
	},
	"6008": {
		"ID": 6008,
		"AchievementID": 6005
	},
	"6009": {
		"ID": 6009,
		"AchievementID": 6006
	},
	"6010": {
		"ID": 6010,
		"AchievementID": 6007
	},
	"6011": {
		"ID": 6011,
		"AchievementID": 6008
	},
	"6012": {
		"ID": 6012,
		"AchievementID": 6006
	},
	"6013": {
		"ID": 6013,
		"AchievementID": 6007
	},
	"6014": {
		"ID": 6014,
		"AchievementID": 6008
	},
	"6015": {
		"ID": 6015,
		"AchievementID": 6006
	},
	"6016": {
		"ID": 6016,
		"AchievementID": 6007
	},
	"6017": {
		"ID": 6017,
		"AchievementID": 6008
	},
	"6018": {
		"ID": 6018,
		"AchievementID": 6006
	},
	"6019": {
		"ID": 6019,
		"AchievementID": 6007
	},
	"6020": {
		"ID": 6020,
		"AchievementID": 6008
	},
	"6021": {
		"ID": 6021,
		"AchievementID": 6009
	},
	"6022": {
		"ID": 6022,
		"AchievementID": 6010
	},
	"6023": {
		"ID": 6023,
		"AchievementID": 6011
	},
	"6024": {
		"ID": 6024,
		"AchievementID": 6009
	},
	"6025": {
		"ID": 6025,
		"AchievementID": 6010
	},
	"6026": {
		"ID": 6026,
		"AchievementID": 6011
	},
	"6027": {
		"ID": 6027,
		"AchievementID": 6012
	},
	"6028": {
		"ID": 6028,
		"AchievementID": 6013
	},
	"6029": {
		"ID": 6029,
		"AchievementID": 6014
	},
	"6030": {
		"ID": 6030,
		"AchievementID": 6015
	},
	"6031": {
		"ID": 6031,
		"AchievementID": 6016
	},
	"6032": {
		"ID": 6032,
		"AchievementID": 6017
	},
	"6033": {
		"ID": 6033,
		"AchievementID": 6015
	},
	"6034": {
		"ID": 6034,
		"AchievementID": 6016
	},
	"6035": {
		"ID": 6035,
		"AchievementID": 6017
	},
	"6036": {
		"ID": 6036,
		"AchievementID": 6015
	},
	"6037": {
		"ID": 6037,
		"AchievementID": 6016
	},
	"6038": {
		"ID": 6038,
		"AchievementID": 6017
	},
	"6039": {
		"ID": 6039,
		"AchievementID": 6015
	},
	"6040": {
		"ID": 6040,
		"AchievementID": 6016
	},
	"6041": {
		"ID": 6041,
		"AchievementID": 6017
	},
	"6050": {
		"ID": 6050,
		"AchievementID": 6050
	},
	"6051": {
		"ID": 6051,
		"AchievementID": 6051
	},
	"6052": {
		"ID": 6052,
		"AchievementID": 6052
	},
	"6053": {
		"ID": 6053,
		"AchievementID": 6053
	},
	"6054": {
		"ID": 6054,
		"AchievementID": 6054
	},
	"6055": {
		"ID": 6055,
		"AchievementID": 6055
	},
	"6056": {
		"ID": 6056,
		"AchievementID": 6056
	},
	"6057": {
		"ID": 6057,
		"AchievementID": 6057
	},
	"6058": {
		"ID": 6058,
		"AchievementID": 6058
	},
	"6059": {
		"ID": 6059,
		"AchievementID": 6059
	},
	"6060": {
		"ID": 6060,
		"AchievementID": 6060
	},
	"6061": {
		"ID": 6061,
		"AchievementID": 6061
	},
	"6080": {
		"ID": 6080,
		"AchievementID": 6080
	},
	"6081": {
		"ID": 6081,
		"AchievementID": 6081
	},
	"6082": {
		"ID": 6082,
		"AchievementID": 6082
	},
	"6083": {
		"ID": 6083,
		"AchievementID": 6083
	},
	"6084": {
		"ID": 6084,
		"AchievementID": 6084
	},
	"6085": {
		"ID": 6085,
		"AchievementID": 6085
	},
	"6086": {
		"ID": 6086,
		"AchievementID": 6086
	},
	"6087": {
		"ID": 6087,
		"AchievementID": 6087
	},
	"6088": {
		"ID": 6088,
		"AchievementID": 6088
	},
	"6089": {
		"ID": 6089,
		"AchievementID": 6089
	},
	"6090": {
		"ID": 6090,
		"AchievementID": 6090
	},
	"6091": {
		"ID": 6091,
		"AchievementID": 6091
	},
	"6092": {
		"ID": 6092,
		"AchievementID": 6092
	},
	"6093": {
		"ID": 6093,
		"AchievementID": 6093
	},
	"6094": {
		"ID": 6094,
		"AchievementID": 6094
	},
	"6095": {
		"ID": 6095,
		"AchievementID": 6095
	},
	"6096": {
		"ID": 6096,
		"AchievementID": 6096
	},
	"6097": {
		"ID": 6097,
		"AchievementID": 6097
	},
	"6098": {
		"ID": 6098,
		"AchievementID": 6098
	},
	"6099": {
		"ID": 6099,
		"AchievementID": 6099
	},
	"6100": {
		"ID": 6100,
		"AchievementID": 6100
	},
	"6101": {
		"ID": 6101,
		"AchievementID": 6101
	},
	"6102": {
		"ID": 6102,
		"AchievementID": 6102
	},
	"6103": {
		"ID": 6103,
		"AchievementID": 6103
	},
	"6104": {
		"ID": 6104,
		"AchievementID": 6104
	},
	"6105": {
		"ID": 6105,
		"AchievementID": 6105
	},
	"6106": {
		"ID": 6106,
		"AchievementID": 6106
	},
	"6107": {
		"ID": 6107,
		"AchievementID": 6107
	},
	"6108": {
		"ID": 6108,
		"AchievementID": 6108
	},
	"6109": {
		"ID": 6109,
		"AchievementID": 6109
	},
	"6110": {
		"ID": 6110,
		"AchievementID": 6110
	},
	"6111": {
		"ID": 6111,
		"AchievementID": 6111
	},
	"6112": {
		"ID": 6112,
		"AchievementID": 6112
	},
	"7000": {
		"ID": 7000,
		"AchievementID": 7000
	},
	"7001": {
		"ID": 7001,
		"AchievementID": 7001
	},
	"7010": {
		"ID": 7010,
		"AchievementID": 7010
	},
	"7011": {
		"ID": 7011,
		"AchievementID": 7011
	},
	"7020": {
		"ID": 7020,
		"AchievementID": 7020
	},
	"7021": {
		"ID": 7021,
		"AchievementID": 7021
	},
	"7030": {
		"ID": 7030,
		"AchievementID": 7030
	},
	"7031": {
		"ID": 7031,
		"AchievementID": 7031
	},
	"7040": {
		"ID": 7040,
		"AchievementID": 7040
	},
	"7041": {
		"ID": 7041,
		"AchievementID": 7041
	},
	"7050": {
		"ID": 7050,
		"AchievementID": 7050
	},
	"7051": {
		"ID": 7051,
		"AchievementID": 7051
	},
	"7060": {
		"ID": 7060,
		"AchievementID": 7060
	},
	"7061": {
		"ID": 7061,
		"AchievementID": 7061
	},
	"7100": {
		"ID": 7100,
		"AchievementID": 7100
	},
	"7101": {
		"ID": 7101,
		"AchievementID": 7101
	},
	"7110": {
		"ID": 7110,
		"AchievementID": 7110
	},
	"7111": {
		"ID": 7111,
		"AchievementID": 7111
	},
	"7120": {
		"ID": 7120,
		"AchievementID": 7120
	},
	"7121": {
		"ID": 7121,
		"AchievementID": 7121
	},
	"7130": {
		"ID": 7130,
		"AchievementID": 7130
	},
	"7131": {
		"ID": 7131,
		"AchievementID": 7131
	},
	"7140": {
		"ID": 7140,
		"AchievementID": 7140
	},
	"7141": {
		"ID": 7141,
		"AchievementID": 7141
	},
	"7150": {
		"ID": 7150,
		"AchievementID": 7150
	},
	"7151": {
		"ID": 7151,
		"AchievementID": 7151
	},
	"7160": {
		"ID": 7160,
		"AchievementID": 7160
	},
	"7161": {
		"ID": 7161,
		"AchievementID": 7161
	},
	"7162": {
		"ID": 7162,
		"AchievementID": 7162
	},
	"7200": {
		"ID": 7200,
		"AchievementID": 7200
	},
	"7201": {
		"ID": 7201,
		"AchievementID": 7201
	},
	"7210": {
		"ID": 7210,
		"AchievementID": 7210
	},
	"7211": {
		"ID": 7211,
		"AchievementID": 7211
	},
	"7220": {
		"ID": 7220,
		"AchievementID": 7220
	},
	"7230": {
		"ID": 7230,
		"AchievementID": 7230
	},
	"7231": {
		"ID": 7231,
		"AchievementID": 7231
	},
	"7240": {
		"ID": 7240,
		"AchievementID": 7240
	},
	"7241": {
		"ID": 7241,
		"AchievementID": 7241
	},
	"7250": {
		"ID": 7250,
		"AchievementID": 7250
	},
	"7251": {
		"ID": 7251,
		"AchievementID": 7251
	},
	"7260": {
		"ID": 7260,
		"AchievementID": 7260
	},
	"7261": {
		"ID": 7261,
		"AchievementID": 7261
	},
	"7300": {
		"ID": 7300,
		"AchievementID": 7300
	},
	"7310": {
		"ID": 7310,
		"AchievementID": 7310
	},
	"7311": {
		"ID": 7311,
		"AchievementID": 7311
	},
	"7320": {
		"ID": 7320,
		"AchievementID": 7320
	},
	"7321": {
		"ID": 7321,
		"AchievementID": 7321
	},
	"7330": {
		"ID": 7330,
		"AchievementID": 7330
	},
	"7331": {
		"ID": 7331,
		"AchievementID": 7331
	},
	"7340": {
		"ID": 7340,
		"AchievementID": 7340
	},
	"7341": {
		"ID": 7341,
		"AchievementID": 7341
	},
	"7400": {
		"ID": 7400,
		"AchievementID": 7400
	},
	"7401": {
		"ID": 7401,
		"AchievementID": 7401
	},
	"7410": {
		"ID": 7410,
		"AchievementID": 7410
	},
	"7411": {
		"ID": 7411,
		"AchievementID": 7411
	},
	"7420": {
		"ID": 7420,
		"AchievementID": 7420
	},
	"7421": {
		"ID": 7421,
		"AchievementID": 7421
	},
	"7430": {
		"ID": 7430,
		"AchievementID": 7430
	},
	"7431": {
		"ID": 7431,
		"AchievementID": 7431
	},
	"7440": {
		"ID": 7440,
		"AchievementID": 7440
	},
	"7441": {
		"ID": 7441,
		"AchievementID": 7441
	},
	"7500": {
		"ID": 7500,
		"AchievementID": 7500
	},
	"7501": {
		"ID": 7501,
		"AchievementID": 7501
	},
	"7510": {
		"ID": 7510,
		"AchievementID": 7510
	},
	"7511": {
		"ID": 7511,
		"AchievementID": 7511
	},
	"7520": {
		"ID": 7520,
		"AchievementID": 7520
	},
	"7521": {
		"ID": 7521,
		"AchievementID": 7521
	},
	"7530": {
		"ID": 7530,
		"AchievementID": 7530
	},
	"7531": {
		"ID": 7531,
		"AchievementID": 7531
	},
	"7540": {
		"ID": 7540,
		"AchievementID": 7540
	},
	"7541": {
		"ID": 7541,
		"AchievementID": 7541
	},
	"7600": {
		"ID": 7600,
		"AchievementID": 7600
	},
	"7601": {
		"ID": 7601,
		"AchievementID": 7601
	},
	"7610": {
		"ID": 7610,
		"AchievementID": 7610
	},
	"7611": {
		"ID": 7611,
		"AchievementID": 7611
	},
	"7620": {
		"ID": 7620,
		"AchievementID": 7620
	},
	"7621": {
		"ID": 7621,
		"AchievementID": 7621
	},
	"7630": {
		"ID": 7630,
		"AchievementID": 7630
	},
	"7631": {
		"ID": 7631,
		"AchievementID": 7631
	},
	"7640": {
		"ID": 7640,
		"AchievementID": 7640
	},
	"7641": {
		"ID": 7641,
		"AchievementID": 7641
	},
	"7642": {
		"ID": 7642,
		"AchievementID": 7642
	},
	"7770": {
		"ID": 7770,
		"AchievementID": 7770
	},
	"7771": {
		"ID": 7771,
		"AchievementID": 7771
	},
	"7772": {
		"ID": 7772,
		"AchievementID": 7772
	},
	"7773": {
		"ID": 7773,
		"AchievementID": 7773
	},
	"7774": {
		"ID": 7774,
		"AchievementID": 7774
	},
	"7775": {
		"ID": 7775,
		"AchievementID": 7775
	},
	"7776": {
		"ID": 7776,
		"AchievementID": 7776
	},
	"7777": {
		"ID": 7777,
		"AchievementID": 7777
	},
	"7778": {
		"ID": 7778,
		"AchievementID": 7778
	},
	"7779": {
		"ID": 7779,
		"AchievementID": 7779
	},
	"7780": {
		"ID": 7780,
		"AchievementID": 7780
	},
	"7781": {
		"ID": 7781,
		"AchievementID": 7781
	},
	"7782": {
		"ID": 7782,
		"AchievementID": 7782
	},
	"7783": {
		"ID": 7783,
		"AchievementID": 7783
	},
	"7800": {
		"ID": 7800,
		"AchievementID": 7800
	},
	"7801": {
		"ID": 7801,
		"AchievementID": 7801
	},
	"7810": {
		"ID": 7810,
		"AchievementID": 7810
	},
	"7811": {
		"ID": 7811,
		"AchievementID": 7811
	},
	"7820": {
		"ID": 7820,
		"AchievementID": 7820
	},
	"7821": {
		"ID": 7821,
		"AchievementID": 7821
	},
	"7830": {
		"ID": 7830,
		"AchievementID": 7830
	},
	"7831": {
		"ID": 7831,
		"AchievementID": 7831
	},
	"7840": {
		"ID": 7840,
		"AchievementID": 7840
	},
	"7841": {
		"ID": 7841,
		"AchievementID": 7841
	},
	"7850": {
		"ID": 7850,
		"AchievementID": 7850
	},
	"7851": {
		"ID": 7851,
		"AchievementID": 7851
	},
	"7852": {
		"ID": 7852,
		"AchievementID": 7852
	},
	"7860": {
		"ID": 7860,
		"AchievementID": 7860
	},
	"7861": {
		"ID": 7861,
		"AchievementID": 7861
	},
	"8000": {
		"ID": 8000,
		"AchievementID": 8000
	},
	"8001": {
		"ID": 8001,
		"AchievementID": 8001
	},
	"8002": {
		"ID": 8002,
		"AchievementID": 8002
	},
	"8003": {
		"ID": 8003,
		"AchievementID": 8003
	},
	"8004": {
		"ID": 8004,
		"AchievementID": 8004
	},
	"8005": {
		"ID": 8005,
		"AchievementID": 8005
	},
	"8006": {
		"ID": 8006,
		"AchievementID": 8006
	},
	"8007": {
		"ID": 8007,
		"AchievementID": 8007
	},
	"8008": {
		"ID": 8008,
		"AchievementID": 8008
	},
	"8009": {
		"ID": 8009,
		"AchievementID": 8009
	},
	"8010": {
		"ID": 8010,
		"AchievementID": 8010
	},
	"8011": {
		"ID": 8011,
		"AchievementID": 8011
	},
	"9000": {
		"ID": 9000,
		"AchievementID": 9000
	},
	"9001": {
		"ID": 9001,
		"AchievementID": 9001
	},
	"9002": {
		"ID": 9002,
		"AchievementID": 9002
	},
	"9003": {
		"ID": 9003,
		"AchievementID": 9001
	},
	"9004": {
		"ID": 9004,
		"AchievementID": 9003
	},
	"9005": {
		"ID": 9005,
		"AchievementID": 9001
	},
	"9006": {
		"ID": 9006,
		"AchievementID": 9004
	},
	"9007": {
		"ID": 9007,
		"AchievementID": 9005
	},
	"9008": {
		"ID": 9008,
		"AchievementID": 9006
	},
	"9009": {
		"ID": 9009,
		"AchievementID": 9001
	},
	"9010": {
		"ID": 9010,
		"AchievementID": 9007
	},
	"9011": {
		"ID": 9011,
		"AchievementID": 9008
	},
	"9012": {
		"ID": 9012,
		"AchievementID": 9009
	},
	"9013": {
		"ID": 9013,
		"AchievementID": 9010
	},
	"9014": {
		"ID": 9014,
		"AchievementID": 9011
	},
	"9015": {
		"ID": 9015,
		"AchievementID": 9012
	},
	"9016": {
		"ID": 9016,
		"AchievementID": 9013
	},
	"9017": {
		"ID": 9017,
		"AchievementID": 9014
	},
	"9018": {
		"ID": 9018,
		"AchievementID": 9015
	},
	"9019": {
		"ID": 9019,
		"AchievementID": 9016
	},
	"9020": {
		"ID": 9020,
		"AchievementID": 9017
	},
	"9021": {
		"ID": 9021,
		"AchievementID": 9018
	},
	"9022": {
		"ID": 9022,
		"AchievementID": 9019
	},
	"9023": {
		"ID": 9023,
		"AchievementID": 9020
	},
	"9024": {
		"ID": 9024,
		"AchievementID": 9021
	},
	"9025": {
		"ID": 9025,
		"AchievementID": 9022
	},
	"9026": {
		"ID": 9026,
		"AchievementID": 9023
	},
	"9027": {
		"ID": 9027,
		"AchievementID": 9022
	},
	"9028": {
		"ID": 9028,
		"AchievementID": 9024
	},
	"9029": {
		"ID": 9029,
		"AchievementID": 9022
	},
	"9030": {
		"ID": 9030,
		"AchievementID": 9024
	},
	"9031": {
		"ID": 9031,
		"AchievementID": 9022
	},
	"9032": {
		"ID": 9032,
		"AchievementID": 9024
	},
	"9033": {
		"ID": 9033,
		"AchievementID": 9025
	},
	"9034": {
		"ID": 9034,
		"AchievementID": 9025
	},
	"9035": {
		"ID": 9035,
		"AchievementID": 9026
	},
	"9036": {
		"ID": 9036,
		"AchievementID": 9025
	},
	"9037": {
		"ID": 9037,
		"AchievementID": 9025
	},
	"9038": {
		"ID": 9038,
		"AchievementID": 9027
	},
	"9039": {
		"ID": 9039,
		"AchievementID": 9028
	},
	"9040": {
		"ID": 9040,
		"AchievementID": 9029
	},
	"9041": {
		"ID": 9041,
		"AchievementID": 9030
	},
	"9042": {
		"ID": 9042,
		"AchievementID": 9031
	},
	"9043": {
		"ID": 9043,
		"AchievementID": 9032
	},
	"9044": {
		"ID": 9044,
		"AchievementID": 9033
	},
	"9045": {
		"ID": 9045,
		"AchievementID": 9034
	},
	"9046": {
		"ID": 9046,
		"AchievementID": 9035
	},
	"9047": {
		"ID": 9047,
		"AchievementID": 9036
	},
	"9048": {
		"ID": 9048,
		"AchievementID": 9037
	},
	"9049": {
		"ID": 9049,
		"AchievementID": 9031
	},
	"9050": {
		"ID": 9050,
		"AchievementID": 9033
	},
	"9051": {
		"ID": 9051,
		"AchievementID": 9034
	},
	"9052": {
		"ID": 9052,
		"AchievementID": 9035
	},
	"9053": {
		"ID": 9053,
		"AchievementID": 9036
	},
	"9054": {
		"ID": 9054,
		"AchievementID": 9038
	},
	"9055": {
		"ID": 9055,
		"AchievementID": 9039
	},
	"9056": {
		"ID": 9056,
		"AchievementID": 9040
	},
	"9057": {
		"ID": 9057,
		"AchievementID": 9041
	},
	"9058": {
		"ID": 9058,
		"AchievementID": 9042
	},
	"9059": {
		"ID": 9059,
		"AchievementID": 9043
	},
	"9060": {
		"ID": 9060,
		"AchievementID": 9044
	},
	"9061": {
		"ID": 9061,
		"AchievementID": 9045
	},
	"9062": {
		"ID": 9062,
		"AchievementID": 9046
	},
	"9063": {
		"ID": 9063,
		"AchievementID": 9047
	},
	"9064": {
		"ID": 9064,
		"AchievementID": 9048
	},
	"9065": {
		"ID": 9065,
		"AchievementID": 9049
	},
	"9066": {
		"ID": 9066,
		"AchievementID": 9050
	},
	"9067": {
		"ID": 9067,
		"AchievementID": 9051
	},
	"9068": {
		"ID": 9068,
		"AchievementID": 9052
	},
	"9069": {
		"ID": 9069,
		"AchievementID": 9053
	},
	"9070": {
		"ID": 9070,
		"AchievementID": 9054
	},
	"9071": {
		"ID": 9071,
		"AchievementID": 9055
	},
	"9072": {
		"ID": 9072,
		"AchievementID": 9056
	},
	"9073": {
		"ID": 9073,
		"AchievementID": 9057
	},
	"9074": {
		"ID": 9074,
		"AchievementID": 9058
	},
	"9075": {
		"ID": 9075,
		"AchievementID": 9059
	},
	"9076": {
		"ID": 9076,
		"AchievementID": 9060
	},
	"9077": {
		"ID": 9077,
		"AchievementID": 9061
	},
	"10771": {
		"ID": 10771,
		"AchievementID": 10771
	},
	"10772": {
		"ID": 10772,
		"AchievementID": 10772
	},
	"10773": {
		"ID": 10773,
		"AchievementID": 10773
	},
	"10774": {
		"ID": 10774,
		"AchievementID": 10774
	},
	"10781": {
		"ID": 10781,
		"AchievementID": 10781
	},
	"10782": {
		"ID": 10782,
		"AchievementID": 10782
	},
	"10783": {
		"ID": 10783,
		"AchievementID": 10783
	},
	"10784": {
		"ID": 10784,
		"AchievementID": 10784
	},
	"10791": {
		"ID": 10791,
		"AchievementID": 10791
	},
	"10792": {
		"ID": 10792,
		"AchievementID": 10792
	},
	"10793": {
		"ID": 10793,
		"AchievementID": 10793
	},
	"10794": {
		"ID": 10794,
		"AchievementID": 10794
	},
	"10801": {
		"ID": 10801,
		"AchievementID": 73010
	},
	"10802": {
		"ID": 10802,
		"AchievementID": 74051
	},
	"10803": {
		"ID": 10803,
		"AchievementID": 1102
	},
	"10811": {
		"ID": 10811,
		"AchievementID": 73010
	},
	"10812": {
		"ID": 10812,
		"AchievementID": 10811
	},
	"10813": {
		"ID": 10813,
		"AchievementID": 74031
	},
	"10821": {
		"ID": 10821,
		"AchievementID": 73010
	},
	"10822": {
		"ID": 10822,
		"AchievementID": 10821
	},
	"10823": {
		"ID": 10823,
		"AchievementID": 74051
	},
	"10831": {
		"ID": 10831,
		"AchievementID": 10831
	},
	"10832": {
		"ID": 10832,
		"AchievementID": 10832
	},
	"10841": {
		"ID": 10841,
		"AchievementID": 10841
	},
	"10842": {
		"ID": 10842,
		"AchievementID": 10842
	},
	"10851": {
		"ID": 10851,
		"AchievementID": 10851
	},
	"10852": {
		"ID": 10852,
		"AchievementID": 10852
	},
	"10881": {
		"ID": 10881,
		"AchievementID": 10881
	},
	"10882": {
		"ID": 10882,
		"AchievementID": 10882
	},
	"10883": {
		"ID": 10883,
		"AchievementID": 10883
	},
	"10891": {
		"ID": 10891,
		"AchievementID": 10891
	},
	"10892": {
		"ID": 10892,
		"AchievementID": 10892
	},
	"10893": {
		"ID": 10893,
		"AchievementID": 10893
	},
	"10901": {
		"ID": 10901,
		"AchievementID": 10901
	},
	"10902": {
		"ID": 10902,
		"AchievementID": 10902
	},
	"10903": {
		"ID": 10903,
		"AchievementID": 10903
	},
	"10911": {
		"ID": 10911,
		"AchievementID": 10911
	},
	"10912": {
		"ID": 10912,
		"AchievementID": 10912
	},
	"10913": {
		"ID": 10913,
		"AchievementID": 10913
	},
	"15801": {
		"ID": 15801,
		"AchievementID": 73010
	},
	"15802": {
		"ID": 15802,
		"AchievementID": 74051
	},
	"15803": {
		"ID": 15803,
		"AchievementID": 1102
	},
	"15811": {
		"ID": 15811,
		"AchievementID": 73010
	},
	"15812": {
		"ID": 15812,
		"AchievementID": 10811
	},
	"15813": {
		"ID": 15813,
		"AchievementID": 74031
	},
	"15821": {
		"ID": 15821,
		"AchievementID": 73010
	},
	"15823": {
		"ID": 15823,
		"AchievementID": 74051
	},
	"15831": {
		"ID": 15831,
		"AchievementID": 15831
	},
	"15832": {
		"ID": 15832,
		"AchievementID": 15832
	},
	"15833": {
		"ID": 15833,
		"AchievementID": 15833
	},
	"15841": {
		"ID": 15841,
		"AchievementID": 15841
	},
	"15842": {
		"ID": 15842,
		"AchievementID": 15842
	},
	"15851": {
		"ID": 15851,
		"AchievementID": 15851
	},
	"15852": {
		"ID": 15852,
		"AchievementID": 15852
	},
	"15881": {
		"ID": 15881,
		"AchievementID": 15881
	},
	"15882": {
		"ID": 15882,
		"AchievementID": 15882
	},
	"15883": {
		"ID": 15883,
		"AchievementID": 15883
	},
	"15891": {
		"ID": 15891,
		"AchievementID": 15891
	},
	"15892": {
		"ID": 15892,
		"AchievementID": 15892
	},
	"15893": {
		"ID": 15893,
		"AchievementID": 15893
	},
	"15901": {
		"ID": 15901,
		"AchievementID": 15901
	},
	"15902": {
		"ID": 15902,
		"AchievementID": 15902
	},
	"15903": {
		"ID": 15903,
		"AchievementID": 15903
	},
	"15911": {
		"ID": 15911,
		"AchievementID": 15911
	},
	"15912": {
		"ID": 15912,
		"AchievementID": 15912
	},
	"15913": {
		"ID": 15913,
		"AchievementID": 15913
	},
	"13000": {
		"ID": 13000,
		"AchievementID": 13000
	},
	"13001": {
		"ID": 13001,
		"AchievementID": 13001
	},
	"13010": {
		"ID": 13010,
		"AchievementID": 13010
	},
	"13011": {
		"ID": 13011,
		"AchievementID": 13011
	},
	"13020": {
		"ID": 13020,
		"AchievementID": 13020
	},
	"13021": {
		"ID": 13021,
		"AchievementID": 13021
	},
	"13030": {
		"ID": 13030,
		"AchievementID": 13030
	},
	"13031": {
		"ID": 13031,
		"AchievementID": 13031
	},
	"13040": {
		"ID": 13040,
		"AchievementID": 13040
	},
	"13041": {
		"ID": 13041,
		"AchievementID": 13041
	},
	"13050": {
		"ID": 13050,
		"AchievementID": 13050
	},
	"13051": {
		"ID": 13051,
		"AchievementID": 13051
	},
	"13052": {
		"ID": 13052,
		"AchievementID": 13052
	},
	"13061": {
		"ID": 13061,
		"AchievementID": 13061
	},
	"13062": {
		"ID": 13062,
		"AchievementID": 13062
	},
	"14000": {
		"ID": 14000,
		"AchievementID": 14000
	},
	"14001": {
		"ID": 14001,
		"AchievementID": 14001
	},
	"14010": {
		"ID": 14010,
		"AchievementID": 14010
	},
	"14011": {
		"ID": 14011,
		"AchievementID": 14011
	},
	"14020": {
		"ID": 14020,
		"AchievementID": 14020
	},
	"14030": {
		"ID": 14030,
		"AchievementID": 14030
	},
	"14031": {
		"ID": 14031,
		"AchievementID": 14031
	},
	"14040": {
		"ID": 14040,
		"AchievementID": 14040
	},
	"14041": {
		"ID": 14041,
		"AchievementID": 14041
	},
	"14050": {
		"ID": 14050,
		"AchievementID": 14050
	},
	"14051": {
		"ID": 14051,
		"AchievementID": 14051
	},
	"14060": {
		"ID": 14060,
		"AchievementID": 14060
	},
	"14061": {
		"ID": 14061,
		"AchievementID": 14061
	},
	"15000": {
		"ID": 15000,
		"AchievementID": 15000
	},
	"15001": {
		"ID": 15001,
		"AchievementID": 15001
	},
	"15010": {
		"ID": 15010,
		"AchievementID": 15010
	},
	"15011": {
		"ID": 15011,
		"AchievementID": 15011
	},
	"15020": {
		"ID": 15020,
		"AchievementID": 15020
	},
	"15030": {
		"ID": 15030,
		"AchievementID": 15030
	},
	"15031": {
		"ID": 15031,
		"AchievementID": 15031
	},
	"15040": {
		"ID": 15040,
		"AchievementID": 15040
	},
	"15041": {
		"ID": 15041,
		"AchievementID": 15041
	},
	"16001": {
		"ID": 16001,
		"AchievementID": 16001
	},
	"16002": {
		"ID": 16002,
		"AchievementID": 16002
	},
	"16003": {
		"ID": 16003,
		"AchievementID": 16003
	},
	"16004": {
		"ID": 16004,
		"AchievementID": 16004
	},
	"16005": {
		"ID": 16005,
		"AchievementID": 16005
	},
	"16006": {
		"ID": 16006,
		"AchievementID": 16006
	},
	"16007": {
		"ID": 16007,
		"AchievementID": 16007
	},
	"16008": {
		"ID": 16008,
		"AchievementID": 16008
	},
	"16009": {
		"ID": 16009,
		"AchievementID": 16009
	},
	"16010": {
		"ID": 16010,
		"AchievementID": 16010
	},
	"16015": {
		"ID": 16015,
		"AchievementID": 16015
	},
	"16016": {
		"ID": 16016,
		"AchievementID": 16016
	},
	"16017": {
		"ID": 16017,
		"AchievementID": 16017
	},
	"16018": {
		"ID": 16018,
		"AchievementID": 16018
	},
	"16019": {
		"ID": 16019,
		"AchievementID": 16019
	},
	"16020": {
		"ID": 16020,
		"AchievementID": 16020
	},
	"16021": {
		"ID": 16021,
		"AchievementID": 16021
	},
	"16022": {
		"ID": 16022,
		"AchievementID": 16022
	},
	"16023": {
		"ID": 16023,
		"AchievementID": 16023
	},
	"16024": {
		"ID": 16024,
		"AchievementID": 16024
	},
	"16025": {
		"ID": 16025,
		"AchievementID": 16025
	},
	"16026": {
		"ID": 16026,
		"AchievementID": 16026
	},
	"16027": {
		"ID": 16027,
		"AchievementID": 16027
	},
	"16028": {
		"ID": 16028,
		"AchievementID": 16028
	},
	"16030": {
		"ID": 16030,
		"AchievementID": 16030
	},
	"16031": {
		"ID": 16031,
		"AchievementID": 16031
	},
	"16032": {
		"ID": 16032,
		"AchievementID": 16032
	},
	"16033": {
		"ID": 16033,
		"AchievementID": 16033
	},
	"16034": {
		"ID": 16034,
		"AchievementID": 16034
	},
	"16035": {
		"ID": 16035,
		"AchievementID": 16035
	},
	"16036": {
		"ID": 16036,
		"AchievementID": 16036
	},
	"16037": {
		"ID": 16037,
		"AchievementID": 16037
	},
	"16038": {
		"ID": 16038,
		"AchievementID": 16038
	},
	"16039": {
		"ID": 16039,
		"AchievementID": 16039
	},
	"16040": {
		"ID": 16040,
		"AchievementID": 16040
	},
	"16041": {
		"ID": 16041,
		"AchievementID": 16041
	},
	"16042": {
		"ID": 16042,
		"AchievementID": 16042
	},
	"16043": {
		"ID": 16043,
		"AchievementID": 16043
	},
	"16045": {
		"ID": 16045,
		"AchievementID": 16045
	},
	"16046": {
		"ID": 16046,
		"AchievementID": 16046
	},
	"16047": {
		"ID": 16047,
		"AchievementID": 16047
	},
	"16048": {
		"ID": 16048,
		"AchievementID": 16048
	},
	"16049": {
		"ID": 16049,
		"AchievementID": 16049
	},
	"16050": {
		"ID": 16050,
		"AchievementID": 16050
	},
	"16051": {
		"ID": 16051,
		"AchievementID": 16051
	},
	"16052": {
		"ID": 16052,
		"AchievementID": 16052
	},
	"16053": {
		"ID": 16053,
		"AchievementID": 16053
	},
	"16054": {
		"ID": 16054,
		"AchievementID": 16054
	},
	"16060": {
		"ID": 16060,
		"AchievementID": 16060
	},
	"16061": {
		"ID": 16061,
		"AchievementID": 16061
	},
	"16062": {
		"ID": 16062,
		"AchievementID": 16062
	},
	"16063": {
		"ID": 16063,
		"AchievementID": 16063
	},
	"16064": {
		"ID": 16064,
		"AchievementID": 16064
	},
	"16065": {
		"ID": 16065,
		"AchievementID": 16065
	},
	"16066": {
		"ID": 16066,
		"AchievementID": 16066
	},
	"16067": {
		"ID": 16067,
		"AchievementID": 16067
	},
	"16068": {
		"ID": 16068,
		"AchievementID": 16068
	},
	"16069": {
		"ID": 16069,
		"AchievementID": 16069
	},
	"16075": {
		"ID": 16075,
		"AchievementID": 16075
	},
	"16076": {
		"ID": 16076,
		"AchievementID": 16076
	},
	"16077": {
		"ID": 16077,
		"AchievementID": 16077
	},
	"16078": {
		"ID": 16078,
		"AchievementID": 16078
	},
	"16079": {
		"ID": 16079,
		"AchievementID": 16079
	},
	"16080": {
		"ID": 16080,
		"AchievementID": 16080
	},
	"16081": {
		"ID": 16081,
		"AchievementID": 16081
	},
	"16082": {
		"ID": 16082,
		"AchievementID": 16082
	},
	"16083": {
		"ID": 16083,
		"AchievementID": 16083
	},
	"16084": {
		"ID": 16084,
		"AchievementID": 16084
	},
	"18010": {
		"ID": 18010,
		"AchievementID": 18010
	},
	"18011": {
		"ID": 18011,
		"AchievementID": 18011
	},
	"18020": {
		"ID": 18020,
		"AchievementID": 18020
	},
	"18021": {
		"ID": 18021,
		"AchievementID": 18021
	},
	"18030": {
		"ID": 18030,
		"AchievementID": 18030
	},
	"18031": {
		"ID": 18031,
		"AchievementID": 18031
	},
	"18040": {
		"ID": 18040,
		"AchievementID": 18040
	},
	"18041": {
		"ID": 18041,
		"AchievementID": 18041
	},
	"18050": {
		"ID": 18050,
		"AchievementID": 18050
	},
	"18051": {
		"ID": 18051,
		"AchievementID": 18051
	},
	"20711": {
		"ID": 20711,
		"AchievementID": 20711
	},
	"20712": {
		"ID": 20712,
		"AchievementID": 20712
	},
	"20731": {
		"ID": 20731,
		"AchievementID": 20731
	},
	"20732": {
		"ID": 20732,
		"AchievementID": 20732
	},
	"20751": {
		"ID": 20751,
		"AchievementID": 20751
	},
	"20752": {
		"ID": 20752,
		"AchievementID": 20752
	},
	"20753": {
		"ID": 20753,
		"AchievementID": 20753
	},
	"20701": {
		"ID": 20701,
		"AchievementID": 20701
	},
	"20702": {
		"ID": 20702,
		"AchievementID": 20702
	},
	"20721": {
		"ID": 20721,
		"AchievementID": 20721
	},
	"20722": {
		"ID": 20722,
		"AchievementID": 20722
	},
	"20741": {
		"ID": 20741,
		"AchievementID": 20741
	},
	"20742": {
		"ID": 20742,
		"AchievementID": 20742
	},
	"27010": {
		"ID": 27010,
		"AchievementID": 27010
	},
	"27011": {
		"ID": 27011,
		"AchievementID": 27011
	},
	"27020": {
		"ID": 27020,
		"AchievementID": 27020
	},
	"27021": {
		"ID": 27021,
		"AchievementID": 27021
	},
	"27030": {
		"ID": 27030,
		"AchievementID": 27030
	},
	"27040": {
		"ID": 27040,
		"AchievementID": 27040
	},
	"27041": {
		"ID": 27041,
		"AchievementID": 27041
	},
	"27050": {
		"ID": 27050,
		"AchievementID": 27050
	},
	"27051": {
		"ID": 27051,
		"AchievementID": 27051
	},
	"27060": {
		"ID": 27060,
		"AchievementID": 27060
	},
	"27061": {
		"ID": 27061,
		"AchievementID": 27061
	},
	"27070": {
		"ID": 27070,
		"AchievementID": 27070
	},
	"27071": {
		"ID": 27071,
		"AchievementID": 27071
	},
	"28010": {
		"ID": 28010,
		"AchievementID": 28010
	},
	"28020": {
		"ID": 28020,
		"AchievementID": 28020
	},
	"28021": {
		"ID": 28021,
		"AchievementID": 28021
	},
	"28030": {
		"ID": 28030,
		"AchievementID": 28030
	},
	"28031": {
		"ID": 28031,
		"AchievementID": 28031
	},
	"28040": {
		"ID": 28040,
		"AchievementID": 28040
	},
	"28041": {
		"ID": 28041,
		"AchievementID": 28041
	},
	"28050": {
		"ID": 28050,
		"AchievementID": 28050
	},
	"28051": {
		"ID": 28051,
		"AchievementID": 28051
	},
	"28052": {
		"ID": 28052,
		"AchievementID": 28052
	},
	"29011": {
		"ID": 29011,
		"AchievementID": 29011
	},
	"29012": {
		"ID": 29012,
		"AchievementID": 29012
	},
	"29013": {
		"ID": 29013,
		"AchievementID": 29013
	},
	"29014": {
		"ID": 29014,
		"AchievementID": 29014
	},
	"29015": {
		"ID": 29015,
		"AchievementID": 29015
	},
	"29016": {
		"ID": 29016,
		"AchievementID": 29016
	},
	"29017": {
		"ID": 29017,
		"AchievementID": 29017
	},
	"29018": {
		"ID": 29018,
		"AchievementID": 29018
	},
	"29019": {
		"ID": 29019,
		"AchievementID": 29019
	},
	"29020": {
		"ID": 29020,
		"AchievementID": 29020
	},
	"32010": {
		"ID": 32010,
		"AchievementID": 32010
	},
	"32011": {
		"ID": 32011,
		"AchievementID": 32011
	},
	"32020": {
		"ID": 32020,
		"AchievementID": 32020
	},
	"32021": {
		"ID": 32021,
		"AchievementID": 32021
	},
	"32030": {
		"ID": 32030,
		"AchievementID": 32030
	},
	"32031": {
		"ID": 32031,
		"AchievementID": 32031
	},
	"32040": {
		"ID": 32040,
		"AchievementID": 32040
	},
	"32041": {
		"ID": 32041,
		"AchievementID": 32041
	},
	"32050": {
		"ID": 32050,
		"AchievementID": 32050
	},
	"32051": {
		"ID": 32051,
		"AchievementID": 32051
	},
	"32052": {
		"ID": 32052,
		"AchievementID": 32052
	},
	"33010": {
		"ID": 33010,
		"AchievementID": 33010
	},
	"33020": {
		"ID": 33020,
		"AchievementID": 33020
	},
	"33021": {
		"ID": 33021,
		"AchievementID": 33021
	},
	"33030": {
		"ID": 33030,
		"AchievementID": 33030
	},
	"33031": {
		"ID": 33031,
		"AchievementID": 33031
	},
	"33040": {
		"ID": 33040,
		"AchievementID": 33040
	},
	"33041": {
		"ID": 33041,
		"AchievementID": 33041
	},
	"33050": {
		"ID": 33050,
		"AchievementID": 33050
	},
	"33051": {
		"ID": 33051,
		"AchievementID": 33051
	},
	"33052": {
		"ID": 33052,
		"AchievementID": 33052
	},
	"37010": {
		"ID": 37010,
		"AchievementID": 37010
	},
	"37011": {
		"ID": 37011,
		"AchievementID": 37011
	},
	"37020": {
		"ID": 37020,
		"AchievementID": 37020
	},
	"37021": {
		"ID": 37021,
		"AchievementID": 37021
	},
	"37030": {
		"ID": 37030,
		"AchievementID": 37030
	},
	"37031": {
		"ID": 37031,
		"AchievementID": 37031
	},
	"37040": {
		"ID": 37040,
		"AchievementID": 37040
	},
	"37050": {
		"ID": 37050,
		"AchievementID": 37050
	},
	"37051": {
		"ID": 37051,
		"AchievementID": 37051
	},
	"39010": {
		"ID": 39010,
		"AchievementID": 39010
	},
	"39011": {
		"ID": 39011,
		"AchievementID": 39011
	},
	"39020": {
		"ID": 39020,
		"AchievementID": 39020
	},
	"39021": {
		"ID": 39021,
		"AchievementID": 39021
	},
	"39030": {
		"ID": 39030,
		"AchievementID": 39030
	},
	"39031": {
		"ID": 39031,
		"AchievementID": 39031
	},
	"39040": {
		"ID": 39040,
		"AchievementID": 39040
	},
	"39041": {
		"ID": 39041,
		"AchievementID": 39041
	},
	"39050": {
		"ID": 39050,
		"AchievementID": 39050
	},
	"39051": {
		"ID": 39051,
		"AchievementID": 39051
	},
	"51010": {
		"ID": 51010,
		"AchievementID": 51010
	},
	"51011": {
		"ID": 51011,
		"AchievementID": 51011
	},
	"51020": {
		"ID": 51020,
		"AchievementID": 51020
	},
	"51021": {
		"ID": 51021,
		"AchievementID": 51021
	},
	"51030": {
		"ID": 51030,
		"AchievementID": 51030
	},
	"51031": {
		"ID": 51031,
		"AchievementID": 51031
	},
	"51040": {
		"ID": 51040,
		"AchievementID": 51040
	},
	"51041": {
		"ID": 51041,
		"AchievementID": 51041
	},
	"51050": {
		"ID": 51050,
		"AchievementID": 51050
	},
	"51051": {
		"ID": 51051,
		"AchievementID": 51051
	},
	"52010": {
		"ID": 52010,
		"AchievementID": 52010
	},
	"52011": {
		"ID": 52011,
		"AchievementID": 52011
	},
	"52020": {
		"ID": 52020,
		"AchievementID": 52020
	},
	"52021": {
		"ID": 52021,
		"AchievementID": 52021
	},
	"52030": {
		"ID": 52030,
		"AchievementID": 52030
	},
	"52031": {
		"ID": 52031,
		"AchievementID": 52031
	},
	"52040": {
		"ID": 52040,
		"AchievementID": 52040
	},
	"52041": {
		"ID": 52041,
		"AchievementID": 52041
	},
	"52050": {
		"ID": 52050,
		"AchievementID": 52050
	},
	"52051": {
		"ID": 52051,
		"AchievementID": 52051
	},
	"54010": {
		"ID": 54010,
		"AchievementID": 54010
	},
	"54011": {
		"ID": 54011,
		"AchievementID": 54011
	},
	"54020": {
		"ID": 54020,
		"AchievementID": 54020
	},
	"54021": {
		"ID": 54021,
		"AchievementID": 54021
	},
	"54030": {
		"ID": 54030,
		"AchievementID": 54030
	},
	"54031": {
		"ID": 54031,
		"AchievementID": 54031
	},
	"54040": {
		"ID": 54040,
		"AchievementID": 54040
	},
	"54041": {
		"ID": 54041,
		"AchievementID": 54041
	},
	"54050": {
		"ID": 54050,
		"AchievementID": 54050
	},
	"54051": {
		"ID": 54051,
		"AchievementID": 54051
	},
	"55010": {
		"ID": 55010,
		"AchievementID": 55010
	},
	"55011": {
		"ID": 55011,
		"AchievementID": 55011
	},
	"55020": {
		"ID": 55020,
		"AchievementID": 55020
	},
	"55021": {
		"ID": 55021,
		"AchievementID": 55021
	},
	"55030": {
		"ID": 55030,
		"AchievementID": 55030
	},
	"55031": {
		"ID": 55031,
		"AchievementID": 55031
	},
	"55040": {
		"ID": 55040,
		"AchievementID": 55040
	},
	"55041": {
		"ID": 55041,
		"AchievementID": 55041
	},
	"55050": {
		"ID": 55050,
		"AchievementID": 55050
	},
	"55051": {
		"ID": 55051,
		"AchievementID": 55051
	},
	"56010": {
		"ID": 56010,
		"AchievementID": 56010
	},
	"56011": {
		"ID": 56011,
		"AchievementID": 56011
	},
	"56020": {
		"ID": 56020,
		"AchievementID": 56020
	},
	"56021": {
		"ID": 56021,
		"AchievementID": 56021
	},
	"56030": {
		"ID": 56030,
		"AchievementID": 56030
	},
	"56031": {
		"ID": 56031,
		"AchievementID": 56031
	},
	"56040": {
		"ID": 56040,
		"AchievementID": 56040
	},
	"56041": {
		"ID": 56041,
		"AchievementID": 56041
	},
	"56050": {
		"ID": 56050,
		"AchievementID": 56050
	},
	"56051": {
		"ID": 56051,
		"AchievementID": 56051
	},
	"58011": {
		"ID": 58011,
		"AchievementID": 58011
	},
	"58012": {
		"ID": 58012,
		"AchievementID": 58012
	},
	"58021": {
		"ID": 58021,
		"AchievementID": 58021
	},
	"58022": {
		"ID": 58022,
		"AchievementID": 58022
	},
	"58031": {
		"ID": 58031,
		"AchievementID": 58031
	},
	"58032": {
		"ID": 58032,
		"AchievementID": 58032
	},
	"58041": {
		"ID": 58041,
		"AchievementID": 58041
	},
	"58042": {
		"ID": 58042,
		"AchievementID": 58042
	},
	"58051": {
		"ID": 58051,
		"AchievementID": 58051
	},
	"58052": {
		"ID": 58052,
		"AchievementID": 58052
	},
	"59010": {
		"ID": 59010,
		"AchievementID": 59010
	},
	"59011": {
		"ID": 59011,
		"AchievementID": 59011
	},
	"59020": {
		"ID": 59020,
		"AchievementID": 59020
	},
	"59021": {
		"ID": 59021,
		"AchievementID": 59021
	},
	"59030": {
		"ID": 59030,
		"AchievementID": 59030
	},
	"59031": {
		"ID": 59031,
		"AchievementID": 59031
	},
	"59040": {
		"ID": 59040,
		"AchievementID": 59040
	},
	"59041": {
		"ID": 59041,
		"AchievementID": 59041
	},
	"59050": {
		"ID": 59050,
		"AchievementID": 59050
	},
	"59051": {
		"ID": 59051,
		"AchievementID": 59051
	},
	"60010": {
		"ID": 60010,
		"AchievementID": 60010
	},
	"60011": {
		"ID": 60011,
		"AchievementID": 60011
	},
	"60020": {
		"ID": 60020,
		"AchievementID": 60020
	},
	"60021": {
		"ID": 60021,
		"AchievementID": 60021
	},
	"60030": {
		"ID": 60030,
		"AchievementID": 60030
	},
	"60031": {
		"ID": 60031,
		"AchievementID": 60031
	},
	"60040": {
		"ID": 60040,
		"AchievementID": 60040
	},
	"60041": {
		"ID": 60041,
		"AchievementID": 60041
	},
	"60050": {
		"ID": 60050,
		"AchievementID": 60050
	},
	"60051": {
		"ID": 60051,
		"AchievementID": 60051
	},
	"61010": {
		"ID": 61010,
		"AchievementID": 61010
	},
	"61011": {
		"ID": 61011,
		"AchievementID": 61011
	},
	"61020": {
		"ID": 61020,
		"AchievementID": 61020
	},
	"61021": {
		"ID": 61021,
		"AchievementID": 61021
	},
	"61030": {
		"ID": 61030,
		"AchievementID": 61030
	},
	"61031": {
		"ID": 61031,
		"AchievementID": 61031
	},
	"61040": {
		"ID": 61040,
		"AchievementID": 61040
	},
	"61041": {
		"ID": 61041,
		"AchievementID": 61041
	},
	"61050": {
		"ID": 61050,
		"AchievementID": 61050
	},
	"61051": {
		"ID": 61051,
		"AchievementID": 61051
	},
	"66030": {
		"ID": 66030,
		"AchievementID": 66030
	},
	"66031": {
		"ID": 66031,
		"AchievementID": 66031
	},
	"66040": {
		"ID": 66040,
		"AchievementID": 66040
	},
	"66041": {
		"ID": 66041,
		"AchievementID": 66041
	},
	"66050": {
		"ID": 66050,
		"AchievementID": 66050
	},
	"66051": {
		"ID": 66051,
		"AchievementID": 66051
	},
	"67010": {
		"ID": 67010,
		"AchievementID": 67010
	},
	"67011": {
		"ID": 67011,
		"AchievementID": 67011
	},
	"67020": {
		"ID": 67020,
		"AchievementID": 67020
	},
	"67021": {
		"ID": 67021,
		"AchievementID": 67021
	},
	"67030": {
		"ID": 67030,
		"AchievementID": 67030
	},
	"67031": {
		"ID": 67031,
		"AchievementID": 67031
	},
	"67040": {
		"ID": 67040,
		"AchievementID": 67040
	},
	"67041": {
		"ID": 67041,
		"AchievementID": 67041
	},
	"67050": {
		"ID": 67050,
		"AchievementID": 67050
	},
	"67051": {
		"ID": 67051,
		"AchievementID": 67051
	},
	"69010": {
		"ID": 69010,
		"AchievementID": 69010
	},
	"69011": {
		"ID": 69011,
		"AchievementID": 69011
	},
	"69030": {
		"ID": 69030,
		"AchievementID": 69030
	},
	"69031": {
		"ID": 69031,
		"AchievementID": 69031
	},
	"69050": {
		"ID": 69050,
		"AchievementID": 69050
	},
	"69051": {
		"ID": 69051,
		"AchievementID": 69051
	},
	"70010": {
		"ID": 70010,
		"AchievementID": 70010
	},
	"70011": {
		"ID": 70011,
		"AchievementID": 70011
	},
	"70030": {
		"ID": 70030,
		"AchievementID": 70030
	},
	"70031": {
		"ID": 70031,
		"AchievementID": 70031
	},
	"70050": {
		"ID": 70050,
		"AchievementID": 70050
	},
	"70051": {
		"ID": 70051,
		"AchievementID": 70051
	},
	"71010": {
		"ID": 71010,
		"AchievementID": 71010
	},
	"71011": {
		"ID": 71011,
		"AchievementID": 71011
	},
	"71030": {
		"ID": 71030,
		"AchievementID": 71030
	},
	"71031": {
		"ID": 71031,
		"AchievementID": 71031
	},
	"71050": {
		"ID": 71050,
		"AchievementID": 71050
	},
	"71051": {
		"ID": 71051,
		"AchievementID": 71051
	},
	"72010": {
		"ID": 72010,
		"AchievementID": 72010
	},
	"72011": {
		"ID": 72011,
		"AchievementID": 72011
	},
	"72030": {
		"ID": 72030,
		"AchievementID": 72030
	},
	"72031": {
		"ID": 72031,
		"AchievementID": 72031
	},
	"72050": {
		"ID": 72050,
		"AchievementID": 72050
	},
	"72051": {
		"ID": 72051,
		"AchievementID": 72051
	},
	"73010": {
		"ID": 73010,
		"AchievementID": 73010
	},
	"73011": {
		"ID": 73011,
		"AchievementID": 73011
	},
	"73012": {
		"ID": 73012,
		"AchievementID": 73012
	},
	"73013": {
		"ID": 73013,
		"AchievementID": 73013
	},
	"73014": {
		"ID": 73014,
		"AchievementID": 73014
	},
	"73015": {
		"ID": 73015,
		"AchievementID": 73015
	},
	"74010": {
		"ID": 74010,
		"AchievementID": 74010
	},
	"74011": {
		"ID": 74011,
		"AchievementID": 74011
	},
	"74030": {
		"ID": 74030,
		"AchievementID": 74030
	},
	"74031": {
		"ID": 74031,
		"AchievementID": 74031
	},
	"74050": {
		"ID": 74050,
		"AchievementID": 74050
	},
	"74051": {
		"ID": 74051,
		"AchievementID": 74051
	},
	"80010": {
		"ID": 80010,
		"AchievementID": 80010
	},
	"80011": {
		"ID": 80011,
		"AchievementID": 80011
	},
	"80020": {
		"ID": 80020,
		"AchievementID": 80020
	},
	"80021": {
		"ID": 80021,
		"AchievementID": 80021
	},
	"80030": {
		"ID": 80030,
		"AchievementID": 80030
	},
	"80031": {
		"ID": 80031,
		"AchievementID": 80031
	},
	"80040": {
		"ID": 80040,
		"AchievementID": 80040
	},
	"80041": {
		"ID": 80041,
		"AchievementID": 80041
	},
	"80051": {
		"ID": 80051,
		"AchievementID": 80051
	},
	"80052": {
		"ID": 80052,
		"AchievementID": 80052
	},
	"80061": {
		"ID": 80061,
		"AchievementID": 80061
	},
	"80062": {
		"ID": 80062,
		"AchievementID": 80062
	},
	"80071": {
		"ID": 80071,
		"AchievementID": 80071
	},
	"80072": {
		"ID": 80072,
		"AchievementID": 80072
	},
	"80081": {
		"ID": 80081,
		"AchievementID": 80081
	},
	"80082": {
		"ID": 80082,
		"AchievementID": 80082
	},
	"80091": {
		"ID": 80091,
		"AchievementID": 80091
	},
	"80092": {
		"ID": 80092,
		"AchievementID": 80092
	},
	"80101": {
		"ID": 80101,
		"AchievementID": 80101
	},
	"80102": {
		"ID": 80102,
		"AchievementID": 80102
	},
	"80111": {
		"ID": 80111,
		"AchievementID": 80111
	},
	"80112": {
		"ID": 80112,
		"AchievementID": 80112
	},
	"80121": {
		"ID": 80121,
		"AchievementID": 80121
	},
	"80122": {
		"ID": 80122,
		"AchievementID": 80122
	},
	"80131": {
		"ID": 80131,
		"AchievementID": 80131
	},
	"80132": {
		"ID": 80132,
		"AchievementID": 80132
	},
	"80141": {
		"ID": 80141,
		"AchievementID": 80141
	},
	"80142": {
		"ID": 80142,
		"AchievementID": 80142
	},
	"80151": {
		"ID": 80151,
		"AchievementID": 80151
	},
	"80152": {
		"ID": 80152,
		"AchievementID": 80152
	},
	"80161": {
		"ID": 80161,
		"AchievementID": 80161
	},
	"80162": {
		"ID": 80162,
		"AchievementID": 80162
	},
	"80191": {
		"ID": 80191,
		"AchievementID": 80191
	},
	"80192": {
		"ID": 80192,
		"AchievementID": 80192
	},
	"80171": {
		"ID": 80171,
		"AchievementID": 80171
	},
	"80172": {
		"ID": 80172,
		"AchievementID": 80172
	},
	"80181": {
		"ID": 80181,
		"AchievementID": 80181
	},
	"80182": {
		"ID": 80182,
		"AchievementID": 80182
	},
	"80201": {
		"ID": 80201,
		"AchievementID": 80201
	},
	"80202": {
		"ID": 80202,
		"AchievementID": 80202
	},
	"80211": {
		"ID": 80211,
		"AchievementID": 80211
	},
	"80212": {
		"ID": 80212,
		"AchievementID": 80212
	},
	"80221": {
		"ID": 80221,
		"AchievementID": 80221
	},
	"80222": {
		"ID": 80222,
		"AchievementID": 80222
	},
	"80231": {
		"ID": 80231,
		"AchievementID": 80231
	},
	"80232": {
		"ID": 80232,
		"AchievementID": 80232
	},
	"80241": {
		"ID": 80241,
		"AchievementID": 80241
	},
	"80242": {
		"ID": 80242,
		"AchievementID": 80242
	},
	"80251": {
		"ID": 80251,
		"AchievementID": 80251
	},
	"80252": {
		"ID": 80252,
		"AchievementID": 80252
	},
	"80261": {
		"ID": 80261,
		"AchievementID": 80261
	},
	"80262": {
		"ID": 80262,
		"AchievementID": 80262
	},
	"80271": {
		"ID": 80271,
		"AchievementID": 80271
	},
	"80272": {
		"ID": 80272,
		"AchievementID": 80272
	},
	"80281": {
		"ID": 80281,
		"AchievementID": 80281
	},
	"80282": {
		"ID": 80282,
		"AchievementID": 80282
	},
	"80311": {
		"ID": 80311,
		"AchievementID": 80311
	},
	"80312": {
		"ID": 80312,
		"AchievementID": 80312
	},
	"80331": {
		"ID": 80331,
		"AchievementID": 80331
	},
	"80332": {
		"ID": 80332,
		"AchievementID": 80332
	},
	"80351": {
		"ID": 80351,
		"AchievementID": 80351
	},
	"80352": {
		"ID": 80352,
		"AchievementID": 80352
	},
	"80411": {
		"ID": 80411,
		"AchievementID": 80411
	},
	"80412": {
		"ID": 80412,
		"AchievementID": 80412
	},
	"80431": {
		"ID": 80431,
		"AchievementID": 80431
	},
	"80432": {
		"ID": 80432,
		"AchievementID": 80432
	},
	"80451": {
		"ID": 80451,
		"AchievementID": 80451
	},
	"80452": {
		"ID": 80452,
		"AchievementID": 80452
	},
	"80511": {
		"ID": 80511,
		"AchievementID": 80511
	},
	"80512": {
		"ID": 80512,
		"AchievementID": 80512
	},
	"80521": {
		"ID": 80521,
		"AchievementID": 80521
	},
	"80522": {
		"ID": 80522,
		"AchievementID": 80522
	},
	"80531": {
		"ID": 80531,
		"AchievementID": 80531
	},
	"80532": {
		"ID": 80532,
		"AchievementID": 80532
	},
	"80541": {
		"ID": 80541,
		"AchievementID": 80541
	},
	"80542": {
		"ID": 80542,
		"AchievementID": 80542
	},
	"80551": {
		"ID": 80551,
		"AchievementID": 80551
	},
	"80552": {
		"ID": 80552,
		"AchievementID": 80552
	},
	"88010": {
		"ID": 88010,
		"AchievementID": 88010
	},
	"88011": {
		"ID": 88011,
		"AchievementID": 88011
	},
	"88020": {
		"ID": 88020,
		"AchievementID": 88020
	},
	"88021": {
		"ID": 88021,
		"AchievementID": 88021
	},
	"86010": {
		"ID": 86010,
		"AchievementID": 86010
	},
	"86011": {
		"ID": 86011,
		"AchievementID": 86011
	},
	"86030": {
		"ID": 86030,
		"AchievementID": 86030
	},
	"86031": {
		"ID": 86031,
		"AchievementID": 86031
	},
	"86050": {
		"ID": 86050,
		"AchievementID": 86050
	},
	"86051": {
		"ID": 86051,
		"AchievementID": 86051
	},
	"87010": {
		"ID": 87010,
		"AchievementID": 87010
	},
	"87011": {
		"ID": 87011,
		"AchievementID": 87011
	},
	"87020": {
		"ID": 87020,
		"AchievementID": 87020
	},
	"87021": {
		"ID": 87021,
		"AchievementID": 87021
	},
	"87030": {
		"ID": 87030,
		"AchievementID": 87030
	},
	"87031": {
		"ID": 87031,
		"AchievementID": 87031
	},
	"87040": {
		"ID": 87040,
		"AchievementID": 87040
	},
	"87041": {
		"ID": 87041,
		"AchievementID": 87041
	},
	"87050": {
		"ID": 87050,
		"AchievementID": 87050
	},
	"87051": {
		"ID": 87051,
		"AchievementID": 87051
	},
	"88030": {
		"ID": 88030,
		"AchievementID": 88030
	},
	"88031": {
		"ID": 88031,
		"AchievementID": 88031
	},
	"88040": {
		"ID": 88040,
		"AchievementID": 88040
	},
	"88041": {
		"ID": 88041,
		"AchievementID": 88041
	},
	"88050": {
		"ID": 88050,
		"AchievementID": 88050
	},
	"88051": {
		"ID": 88051,
		"AchievementID": 88051
	},
	"100010": {
		"ID": 100010,
		"AchievementID": 100010
	},
	"100011": {
		"ID": 100011,
		"AchievementID": 100011
	},
	"100030": {
		"ID": 100030,
		"AchievementID": 100030
	},
	"100031": {
		"ID": 100031,
		"AchievementID": 100031
	},
	"100050": {
		"ID": 100050,
		"AchievementID": 100050
	},
	"100051": {
		"ID": 100051,
		"AchievementID": 100051
	},
	"100055": {
		"ID": 100055,
		"AchievementID": 100055
	},
	"100056": {
		"ID": 100056,
		"AchievementID": 100056
	},
	"100057": {
		"ID": 100057,
		"AchievementID": 100057
	},
	"100058": {
		"ID": 100058,
		"AchievementID": 100058
	},
	"100059": {
		"ID": 100059,
		"AchievementID": 100059
	},
	"100060": {
		"ID": 100060,
		"AchievementID": 100060
	},
	"100061": {
		"ID": 100061,
		"AchievementID": 100061
	},
	"100062": {
		"ID": 100062,
		"AchievementID": 100062
	},
	"100063": {
		"ID": 100063,
		"AchievementID": 100063
	},
	"100064": {
		"ID": 100064,
		"AchievementID": 100064
	},
	"100065": {
		"ID": 100065,
		"AchievementID": 100065
	},
	"100066": {
		"ID": 100066,
		"AchievementID": 100066
	},
	"100067": {
		"ID": 100067,
		"AchievementID": 100067
	},
	"100068": {
		"ID": 100068,
		"AchievementID": 100068
	},
	"100069": {
		"ID": 100069,
		"AchievementID": 100069
	},
	"100070": {
		"ID": 100070,
		"AchievementID": 100070
	},
	"100071": {
		"ID": 100071,
		"AchievementID": 100071
	},
	"100072": {
		"ID": 100072,
		"AchievementID": 100072
	},
	"80": {
		"ID": 80,
		"AchievementID": 58
	},
	"3000": {
		"ID": 3000,
		"AchievementID": 3000
	},
	"3001": {
		"ID": 3001,
		"AchievementID": 3001
	},
	"3002": {
		"ID": 3002,
		"AchievementID": 3002
	},
	"3003": {
		"ID": 3003,
		"AchievementID": 3003
	},
	"3004": {
		"ID": 3004,
		"AchievementID": 3004
	},
	"3005": {
		"ID": 3005,
		"AchievementID": 3005
	},
	"3006": {
		"ID": 3006,
		"AchievementID": 3006
	},
	"3007": {
		"ID": 3007,
		"AchievementID": 3007
	},
	"3008": {
		"ID": 3008,
		"AchievementID": 3008
	},
	"3009": {
		"ID": 3009,
		"AchievementID": 3009
	},
	"3010": {
		"ID": 3010,
		"AchievementID": 3010
	},
	"3011": {
		"ID": 3011,
		"AchievementID": 3011
	},
	"3012": {
		"ID": 3012,
		"AchievementID": 3012
	},
	"3013": {
		"ID": 3013,
		"AchievementID": 3013
	},
	"3014": {
		"ID": 3014,
		"AchievementID": 3014
	},
	"3015": {
		"ID": 3015,
		"AchievementID": 3015
	},
	"3016": {
		"ID": 3016,
		"AchievementID": 3016
	},
	"3017": {
		"ID": 3017,
		"AchievementID": 3017
	},
	"3018": {
		"ID": 3018,
		"AchievementID": 3018
	},
	"3019": {
		"ID": 3019,
		"AchievementID": 3019
	},
	"9078": {
		"ID": 9078,
		"AchievementID": 9062
	},
	"9079": {
		"ID": 9079,
		"AchievementID": 9063
	},
	"9080": {
		"ID": 9080,
		"AchievementID": 9064
	},
	"9081": {
		"ID": 9081,
		"AchievementID": 9065
	},
	"9082": {
		"ID": 9082,
		"AchievementID": 9066
	},
	"9083": {
		"ID": 9083,
		"AchievementID": 9067
	},
	"9084": {
		"ID": 9084,
		"AchievementID": 9068
	},
	"9085": {
		"ID": 9085,
		"AchievementID": 9069
	},
	"9086": {
		"ID": 9086,
		"AchievementID": 9070
	},
	"9087": {
		"ID": 9087,
		"AchievementID": 9071
	},
	"9088": {
		"ID": 9088,
		"AchievementID": 9072
	},
	"10971": {
		"ID": 10971,
		"AchievementID": 10971
	},
	"10972": {
		"ID": 10972,
		"AchievementID": 10972
	},
	"11003": {
		"ID": 11003,
		"AchievementID": 11003
	},
	"11004": {
		"ID": 11004,
		"AchievementID": 11004
	},
	"11005": {
		"ID": 11005,
		"AchievementID": 11005
	},
	"11006": {
		"ID": 11006,
		"AchievementID": 11006
	},
	"11007": {
		"ID": 11007,
		"AchievementID": 11007
	},
	"11008": {
		"ID": 11008,
		"AchievementID": 11008
	},
	"11009": {
		"ID": 11009,
		"AchievementID": 11009
	},
	"11010": {
		"ID": 11010,
		"AchievementID": 11010
	},
	"11051": {
		"ID": 11051,
		"AchievementID": 11001
	},
	"11052": {
		"ID": 11052,
		"AchievementID": 11002
	},
	"11053": {
		"ID": 11053,
		"AchievementID": 11001
	},
	"11054": {
		"ID": 11054,
		"AchievementID": 11002
	},
	"11056": {
		"ID": 11056,
		"AchievementID": 11011
	},
	"11057": {
		"ID": 11057,
		"AchievementID": 11012
	},
	"11058": {
		"ID": 11058,
		"AchievementID": 11011
	},
	"11059": {
		"ID": 11059,
		"AchievementID": 11013
	},
	"15971": {
		"ID": 15971,
		"AchievementID": 15971
	},
	"15972": {
		"ID": 15972,
		"AchievementID": 15972
	},
	"15973": {
		"ID": 15973,
		"AchievementID": 15973
	},
	"64010": {
		"ID": 64010,
		"AchievementID": 64010
	},
	"64011": {
		"ID": 64011,
		"AchievementID": 64011
	},
	"64020": {
		"ID": 64020,
		"AchievementID": 64020
	},
	"64021": {
		"ID": 64021,
		"AchievementID": 64021
	},
	"64030": {
		"ID": 64030,
		"AchievementID": 64030
	},
	"64031": {
		"ID": 64031,
		"AchievementID": 64031
	},
	"64040": {
		"ID": 64040,
		"AchievementID": 64040
	},
	"64041": {
		"ID": 64041,
		"AchievementID": 64041
	},
	"64050": {
		"ID": 64050,
		"AchievementID": 64050
	},
	"64051": {
		"ID": 64051,
		"AchievementID": 64051
	},
	"80561": {
		"ID": 80561,
		"AchievementID": 80561
	},
	"80562": {
		"ID": 80562,
		"AchievementID": 80562
	},
	"80571": {
		"ID": 80571,
		"AchievementID": 80571
	},
	"80572": {
		"ID": 80572,
		"AchievementID": 80572
	},
	"80611": {
		"ID": 80611,
		"AchievementID": 80611
	},
	"80612": {
		"ID": 80612,
		"AchievementID": 80612
	},
	"80621": {
		"ID": 80621,
		"AchievementID": 80621
	},
	"80622": {
		"ID": 80622,
		"AchievementID": 80622
	},
	"80631": {
		"ID": 80631,
		"AchievementID": 80631
	},
	"80632": {
		"ID": 80632,
		"AchievementID": 80632
	},
	"80641": {
		"ID": 80641,
		"AchievementID": 80641
	},
	"80642": {
		"ID": 80642,
		"AchievementID": 80642
	},
	"80651": {
		"ID": 80651,
		"AchievementID": 80651
	},
	"80652": {
		"ID": 80652,
		"AchievementID": 80652
	},
	"80661": {
		"ID": 80661,
		"AchievementID": 80661
	},
	"80662": {
		"ID": 80662,
		"AchievementID": 80662
	},
	"80671": {
		"ID": 80671,
		"AchievementID": 80671
	},
	"80672": {
		"ID": 80672,
		"AchievementID": 80672
	},
	"80681": {
		"ID": 80681,
		"AchievementID": 80681
	},
	"80682": {
		"ID": 80682,
		"AchievementID": 80682
	},
	"80691": {
		"ID": 80691,
		"AchievementID": 80691
	},
	"80692": {
		"ID": 80692,
		"AchievementID": 80692
	},
	"90001": {
		"ID": 90001,
		"AchievementID": 90001
	},
	"90002": {
		"ID": 90002,
		"AchievementID": 90002
	},
	"90003": {
		"ID": 90003,
		"AchievementID": 90003
	},
	"90004": {
		"ID": 90004,
		"AchievementID": 90004
	},
	"90005": {
		"ID": 90005,
		"AchievementID": 90005
	},
	"90006": {
		"ID": 90006,
		"AchievementID": 90006
	},
	"90007": {
		"ID": 90007,
		"AchievementID": 90007
	},
	"90008": {
		"ID": 90008,
		"AchievementID": 90008
	},
	"90009": {
		"ID": 90009,
		"AchievementID": 90009
	},
	"90010": {
		"ID": 90010,
		"AchievementID": 90010
	},
	"100073": {
		"ID": 100073,
		"AchievementID": 100073
	},
	"100074": {
		"ID": 100074,
		"AchievementID": 100074
	},
	"100075": {
		"ID": 100075,
		"AchievementID": 100075
	},
	"100076": {
		"ID": 100076,
		"AchievementID": 100076
	},
	"100077": {
		"ID": 100077,
		"AchievementID": 100077
	},
	"100078": {
		"ID": 100078,
		"AchievementID": 100078
	},
	"100079": {
		"ID": 100079,
		"AchievementID": 100079
	},
	"100080": {
		"ID": 100080,
		"AchievementID": 100080
	},
	"100081": {
		"ID": 100081,
		"AchievementID": 100081
	},
	"100082": {
		"ID": 100082,
		"AchievementID": 100082
	},
	"100083": {
		"ID": 100083,
		"AchievementID": 100083
	},
	"100084": {
		"ID": 100084,
		"AchievementID": 100084
	},
	"100085": {
		"ID": 100085,
		"AchievementID": 100085
	},
	"100086": {
		"ID": 100086,
		"AchievementID": 100086
	},
	"100087": {
		"ID": 100087,
		"AchievementID": 100087
	},
	"100088": {
		"ID": 100088,
		"AchievementID": 100088
	},
	"100089": {
		"ID": 100089,
		"AchievementID": 100089
	},
	"100090": {
		"ID": 100090,
		"AchievementID": 100090
	},
	"100091": {
		"ID": 100091,
		"AchievementID": 100091
	},
	"100092": {
		"ID": 100092,
		"AchievementID": 100092
	},
	"100093": {
		"ID": 100093,
		"AchievementID": 100093
	},
	"100094": {
		"ID": 100094,
		"AchievementID": 100094
	},
	"100095": {
		"ID": 100095,
		"AchievementID": 100095
	},
	"100096": {
		"ID": 100096,
		"AchievementID": 100096
	},
	"100097": {
		"ID": 100097,
		"AchievementID": 100097
	},
	"100098": {
		"ID": 100098,
		"AchievementID": 100098
	},
	"100099": {
		"ID": 100099,
		"AchievementID": 100099
	},
	"100100": {
		"ID": 100100,
		"AchievementID": 100100
	},
	"100101": {
		"ID": 100101,
		"AchievementID": 100101
	},
	"100102": {
		"ID": 100102,
		"AchievementID": 100102
	},
	"100103": {
		"ID": 100103,
		"AchievementID": 100103
	},
	"100104": {
		"ID": 100104,
		"AchievementID": 100104
	},
	"100105": {
		"ID": 100105,
		"AchievementID": 100105
	},
	"100106": {
		"ID": 100106,
		"AchievementID": 100106
	},
	"100107": {
		"ID": 100107,
		"AchievementID": 100107
	},
	"100108": {
		"ID": 100108,
		"AchievementID": 100108
	},
	"100109": {
		"ID": 100109,
		"AchievementID": 100109
	},
	"100110": {
		"ID": 100110,
		"AchievementID": 100110
	},
	"100111": {
		"ID": 100111,
		"AchievementID": 100111
	},
	"100112": {
		"ID": 100112,
		"AchievementID": 100112
	},
	"100113": {
		"ID": 100113,
		"AchievementID": 100113
	},
	"100114": {
		"ID": 100114,
		"AchievementID": 100114
	},
	"100115": {
		"ID": 100115,
		"AchievementID": 100115
	},
	"100116": {
		"ID": 100116,
		"AchievementID": 100116
	},
	"100117": {
		"ID": 100117,
		"AchievementID": 100117
	},
	"100118": {
		"ID": 100118,
		"AchievementID": 100118
	},
	"100119": {
		"ID": 100119,
		"AchievementID": 100119
	},
	"100120": {
		"ID": 100120,
		"AchievementID": 100120
	},
	"100121": {
		"ID": 100121,
		"AchievementID": 100121
	},
	"100122": {
		"ID": 100122,
		"AchievementID": 100122
	},
	"100123": {
		"ID": 100123,
		"AchievementID": 100123
	},
	"100124": {
		"ID": 100124,
		"AchievementID": 100124
	},
	"100125": {
		"ID": 100125,
		"AchievementID": 100125
	},
	"100126": {
		"ID": 100126,
		"AchievementID": 100126
	},
	"100127": {
		"ID": 100127,
		"AchievementID": 100127
	},
	"100128": {
		"ID": 100128,
		"AchievementID": 100128
	},
	"100129": {
		"ID": 100129,
		"AchievementID": 100129
	},
	"100130": {
		"ID": 100130,
		"AchievementID": 100130
	},
	"100131": {
		"ID": 100131,
		"AchievementID": 100131
	},
	"100132": {
		"ID": 100132,
		"AchievementID": 100132
	},
	"100133": {
		"ID": 100133,
		"AchievementID": 100133
	},
	"100134": {
		"ID": 100134,
		"AchievementID": 100134
	},
	"100135": {
		"ID": 100135,
		"AchievementID": 100135
	},
	"100136": {
		"ID": 100136,
		"AchievementID": 100136
	},
	"100137": {
		"ID": 100137,
		"AchievementID": 100137
	},
	"100138": {
		"ID": 100138,
		"AchievementID": 100138
	},
	"100139": {
		"ID": 100139,
		"AchievementID": 100139
	},
	"100140": {
		"ID": 100140,
		"AchievementID": 100140
	},
	"100141": {
		"ID": 100141,
		"AchievementID": 100141
	},
	"100142": {
		"ID": 100142,
		"AchievementID": 100142
	},
	"100143": {
		"ID": 100143,
		"AchievementID": 100143
	},
	"100144": {
		"ID": 100144,
		"AchievementID": 100144
	},
	"100145": {
		"ID": 100145,
		"AchievementID": 100145
	},
	"100146": {
		"ID": 100146,
		"AchievementID": 100146
	},
	"100147": {
		"ID": 100147,
		"AchievementID": 100147
	},
	"100148": {
		"ID": 100148,
		"AchievementID": 100148
	}
}