{
	"1": {
		"ID": 1,
		"Name": "Battle for the Presents Lv35-A",
		"TeamName": "Lv35A",
		"DaysBeforeActivate": 0,
		"PlayerLevelRequired": 30,
		"MonsterLevel": 35,
		"BattleID": 6621,
		"PlayerExp": 10,
		"HeroExp": 55,
		"GoldReward": 638,
		"EnergyCostSuccess": 10,
		"EnergyCostFail": 2,
		"EnergyCostTeam": 8,
		"FirstClearDrop": [
			{
				"GoodsType": "GoodsType_Crystal",
				"Id": 0,
				"Count": 10
			},
			{
				"GoodsType": "GoodsType_Item",
				"Id": 3508,
				"Count": 3
			}
		],
		"RandomDrop": 10001,
		"TeamDrop": 0,
		"DropDisplayCount": 2,
		"Score": 0,
		"Strategy": ""
	},
	"2": {
		"ID": 2,
		"Name": "Battle for the Presents Lv35-B",
		"TeamName": "Lv35B",
		"DaysBeforeActivate": 0,
		"PlayerLevelRequired": 30,
		"MonsterLevel": 35,
		"BattleID": 6624,
		"PlayerExp": 10,
		"HeroExp": 55,
		"GoldReward": 638,
		"EnergyCostSuccess": 10,
		"EnergyCostFail": 2,
		"EnergyCostTeam": 8,
		"FirstClearDrop": [
			{
				"GoodsType": "GoodsType_Crystal",
				"Id": 0,
				"Count": 10
			},
			{
				"GoodsType": "GoodsType_Item",
				"Id": 3506,
				"Count": 3
			}
		],
		"RandomDrop": 10002,
		"TeamDrop": 0,
		"DropDisplayCount": 2,
		"Score": 0,
		"Strategy": ""
	},
	"3": {
		"ID": 3,
		"Name": "Battle for the Presents Lv35-C",
		"TeamName": "Lv35C",
		"DaysBeforeActivate": 0,
		"PlayerLevelRequired": 30,
		"MonsterLevel": 35,
		"BattleID": 6627,
		"PlayerExp": 10,
		"HeroExp": 55,
		"GoldReward": 638,
		"EnergyCostSuccess": 10,
		"EnergyCostFail": 2,
		"EnergyCostTeam": 8,
		"FirstClearDrop": [
			{
				"GoodsType": "GoodsType_Crystal",
				"Id": 0,
				"Count": 10
			},
			{
				"GoodsType": "GoodsType_Item",
				"Id": 3507,
				"Count": 3
			}
		],
		"RandomDrop": 10003,
		"TeamDrop": 0,
		"DropDisplayCount": 2,
		"Score": 0,
		"Strategy": ""
	},
	"4": {
		"ID": 4,
		"Name": "Battle for the Presents Lv35-D",
		"TeamName": "Lv35D",
		"DaysBeforeActivate": 0,
		"PlayerLevelRequired": 30,
		"MonsterLevel": 35,
		"BattleID": 6630,
		"PlayerExp": 10,
		"HeroExp": 55,
		"GoldReward": 638,
		"EnergyCostSuccess": 10,
		"EnergyCostFail": 2,
		"EnergyCostTeam": 8,
		"FirstClearDrop": [
			{
				"GoodsType": "GoodsType_Crystal",
				"Id": 0,
				"Count": 10
			},
			{
				"GoodsType": "GoodsType_Item",
				"Id": 3505,
				"Count": 3
			}
		],
		"RandomDrop": 10004,
		"TeamDrop": 0,
		"DropDisplayCount": 2,
		"Score": 0,
		"Strategy": ""
	},
	"5": {
		"ID": 5,
		"Name": "Battle for the Presents Lv45-A",
		"TeamName": "Lv45A",
		"DaysBeforeActivate": 1,
		"PlayerLevelRequired": 40,
		"MonsterLevel": 45,
		"BattleID": 6622,
		"PlayerExp": 10,
		"HeroExp": 65,
		"GoldReward": 875,
		"EnergyCostSuccess": 10,
		"EnergyCostFail": 2,
		"EnergyCostTeam": 8,
		"FirstClearDrop": [
			{
				"GoodsType": "GoodsType_Crystal",
				"Id": 0,
				"Count": 10
			},
			{
				"GoodsType": "GoodsType_Item",
				"Id": 3507,
				"Count": 6
			}
		],
		"RandomDrop": 10005,
		"TeamDrop": 0,
		"DropDisplayCount": 2,
		"Score": 0,
		"Strategy": ""
	},
	"6": {
		"ID": 6,
		"Name": "Battle for the Presents Lv45-B",
		"TeamName": "Lv45B",
		"DaysBeforeActivate": 1,
		"PlayerLevelRequired": 40,
		"MonsterLevel": 45,
		"BattleID": 6625,
		"PlayerExp": 10,
		"HeroExp": 65,
		"GoldReward": 875,
		"EnergyCostSuccess": 10,
		"EnergyCostFail": 2,
		"EnergyCostTeam": 8,
		"FirstClearDrop": [
			{
				"GoodsType": "GoodsType_Crystal",
				"Id": 0,
				"Count": 10
			},
			{
				"GoodsType": "GoodsType_Item",
				"Id": 3505,
				"Count": 6
			}
		],
		"RandomDrop": 10006,
		"TeamDrop": 0,
		"DropDisplayCount": 2,
		"Score": 0,
		"Strategy": ""
	},
	"7": {
		"ID": 7,
		"Name": "Battle for the Presents Lv45-C",
		"TeamName": "Lv45C",
		"DaysBeforeActivate": 1,
		"PlayerLevelRequired": 40,
		"MonsterLevel": 45,
		"BattleID": 6628,
		"PlayerExp": 10,
		"HeroExp": 65,
		"GoldReward": 875,
		"EnergyCostSuccess": 10,
		"EnergyCostFail": 2,
		"EnergyCostTeam": 8,
		"FirstClearDrop": [
			{
				"GoodsType": "GoodsType_Crystal",
				"Id": 0,
				"Count": 10
			},
			{
				"GoodsType": "GoodsType_Item",
				"Id": 3508,
				"Count": 6
			}
		],
		"RandomDrop": 10007,
		"TeamDrop": 0,
		"DropDisplayCount": 2,
		"Score": 0,
		"Strategy": ""
	},
	"8": {
		"ID": 8,
		"Name": "Battle for the Presents Lv45-D",
		"TeamName": "Lv45D",
		"DaysBeforeActivate": 1,
		"PlayerLevelRequired": 40,
		"MonsterLevel": 45,
		"BattleID": 6631,
		"PlayerExp": 10,
		"HeroExp": 65,
		"GoldReward": 875,
		"EnergyCostSuccess": 10,
		"EnergyCostFail": 2,
		"EnergyCostTeam": 8,
		"FirstClearDrop": [
			{
				"GoodsType": "GoodsType_Crystal",
				"Id": 0,
				"Count": 10
			},
			{
				"GoodsType": "GoodsType_Item",
				"Id": 3506,
				"Count": 6
			}
		],
		"RandomDrop": 10008,
		"TeamDrop": 0,
		"DropDisplayCount": 2,
		"Score": 0,
		"Strategy": ""
	},
	"9": {
		"ID": 9,
		"Name": "Battle for the Presents Lv55-A",
		"TeamName": "Lv55A",
		"DaysBeforeActivate": 2,
		"PlayerLevelRequired": 50,
		"MonsterLevel": 55,
		"BattleID": 6623,
		"PlayerExp": 10,
		"HeroExp": 75,
		"GoldReward": 1140,
		"EnergyCostSuccess": 10,
		"EnergyCostFail": 2,
		"EnergyCostTeam": 8,
		"FirstClearDrop": [
			{
				"GoodsType": "GoodsType_Crystal",
				"Id": 0,
				"Count": 10
			},
			{
				"GoodsType": "GoodsType_Item",
				"Id": 3507,
				"Count": 9
			}
		],
		"RandomDrop": 10009,
		"TeamDrop": 0,
		"DropDisplayCount": 2,
		"Score": 0,
		"Strategy": ""
	},
	"10": {
		"ID": 10,
		"Name": "Battle for the Presents Lv55-B",
		"TeamName": "Lv55B",
		"DaysBeforeActivate": 2,
		"PlayerLevelRequired": 50,
		"MonsterLevel": 55,
		"BattleID": 6626,
		"PlayerExp": 10,
		"HeroExp": 75,
		"GoldReward": 1140,
		"EnergyCostSuccess": 10,
		"EnergyCostFail": 2,
		"EnergyCostTeam": 8,
		"FirstClearDrop": [
			{
				"GoodsType": "GoodsType_Crystal",
				"Id": 0,
				"Count": 10
			},
			{
				"GoodsType": "GoodsType_Item",
				"Id": 3505,
				"Count": 9
			}
		],
		"RandomDrop": 10010,
		"TeamDrop": 0,
		"DropDisplayCount": 2,
		"Score": 0,
		"Strategy": ""
	},
	"11": {
		"ID": 11,
		"Name": "Battle for the Presents Lv55-C",
		"TeamName": "Lv55C",
		"DaysBeforeActivate": 2,
		"PlayerLevelRequired": 50,
		"MonsterLevel": 55,
		"BattleID": 6629,
		"PlayerExp": 10,
		"HeroExp": 75,
		"GoldReward": 1140,
		"EnergyCostSuccess": 10,
		"EnergyCostFail": 2,
		"EnergyCostTeam": 8,
		"FirstClearDrop": [
			{
				"GoodsType": "GoodsType_Crystal",
				"Id": 0,
				"Count": 10
			},
			{
				"GoodsType": "GoodsType_Item",
				"Id": 3506,
				"Count": 9
			}
		],
		"RandomDrop": 10011,
		"TeamDrop": 0,
		"DropDisplayCount": 2,
		"Score": 0,
		"Strategy": ""
	},
	"12": {
		"ID": 12,
		"Name": "Battle for the Presents Lv55-D",
		"TeamName": "Lv55D",
		"DaysBeforeActivate": 2,
		"PlayerLevelRequired": 50,
		"MonsterLevel": 55,
		"BattleID": 6632,
		"PlayerExp": 10,
		"HeroExp": 75,
		"GoldReward": 1140,
		"EnergyCostSuccess": 10,
		"EnergyCostFail": 2,
		"EnergyCostTeam": 8,
		"FirstClearDrop": [
			{
				"GoodsType": "GoodsType_Crystal",
				"Id": 0,
				"Count": 10
			},
			{
				"GoodsType": "GoodsType_Item",
				"Id": 3508,
				"Count": 9
			}
		],
		"RandomDrop": 10012,
		"TeamDrop": 0,
		"DropDisplayCount": 2,
		"Score": 0,
		"Strategy": ""
	},
	"13": {
		"ID": 13,
		"Name": "Battle for the Presents Lv55-E",
		"TeamName": "Lv55E",
		"DaysBeforeActivate": 3,
		"PlayerLevelRequired": 50,
		"MonsterLevel": 55,
		"BattleID": 6633,
		"PlayerExp": 10,
		"HeroExp": 75,
		"GoldReward": 1140,
		"EnergyCostSuccess": 10,
		"EnergyCostFail": 2,
		"EnergyCostTeam": 8,
		"FirstClearDrop": [
			{
				"GoodsType": "GoodsType_Crystal",
				"Id": 0,
				"Count": 10
			},
			{
				"GoodsType": "GoodsType_Item",
				"Id": 3506,
				"Count": 8
			},
			{
				"GoodsType": "GoodsType_Item",
				"Id": 3507,
				"Count": 8
			}
		],
		"RandomDrop": 10013,
		"TeamDrop": 0,
		"DropDisplayCount": 3,
		"Score": 0,
		"Strategy": ""
	},
	"14": {
		"ID": 14,
		"Name": "Battle for the Presents Lv55-F",
		"TeamName": "Lv55F",
		"DaysBeforeActivate": 3,
		"PlayerLevelRequired": 50,
		"MonsterLevel": 55,
		"BattleID": 6634,
		"PlayerExp": 10,
		"HeroExp": 75,
		"GoldReward": 1140,
		"EnergyCostSuccess": 10,
		"EnergyCostFail": 2,
		"EnergyCostTeam": 8,
		"FirstClearDrop": [
			{
				"GoodsType": "GoodsType_Crystal",
				"Id": 0,
				"Count": 10
			},
			{
				"GoodsType": "GoodsType_Item",
				"Id": 3505,
				"Count": 8
			},
			{
				"GoodsType": "GoodsType_Item",
				"Id": 3506,
				"Count": 8
			}
		],
		"RandomDrop": 10014,
		"TeamDrop": 0,
		"DropDisplayCount": 3,
		"Score": 0,
		"Strategy": ""
	},
	"15": {
		"ID": 15,
		"Name": "Battle for the Presents Lv55-G",
		"TeamName": "Lv55G",
		"DaysBeforeActivate": 3,
		"PlayerLevelRequired": 50,
		"MonsterLevel": 55,
		"BattleID": 6635,
		"PlayerExp": 10,
		"HeroExp": 75,
		"GoldReward": 1140,
		"EnergyCostSuccess": 10,
		"EnergyCostFail": 2,
		"EnergyCostTeam": 8,
		"FirstClearDrop": [
			{
				"GoodsType": "GoodsType_Crystal",
				"Id": 0,
				"Count": 10
			},
			{
				"GoodsType": "GoodsType_Item",
				"Id": 3507,
				"Count": 8
			},
			{
				"GoodsType": "GoodsType_Item",
				"Id": 3508,
				"Count": 8
			}
		],
		"RandomDrop": 10015,
		"TeamDrop": 0,
		"DropDisplayCount": 3,
		"Score": 0,
		"Strategy": ""
	},
	"16": {
		"ID": 16,
		"Name": "Battle for the Presents Lv55-H",
		"TeamName": "Lv55H",
		"DaysBeforeActivate": 3,
		"PlayerLevelRequired": 50,
		"MonsterLevel": 55,
		"BattleID": 6636,
		"PlayerExp": 10,
		"HeroExp": 75,
		"GoldReward": 1140,
		"EnergyCostSuccess": 10,
		"EnergyCostFail": 2,
		"EnergyCostTeam": 8,
		"FirstClearDrop": [
			{
				"GoodsType": "GoodsType_Crystal",
				"Id": 0,
				"Count": 10
			},
			{
				"GoodsType": "GoodsType_Item",
				"Id": 3508,
				"Count": 8
			},
			{
				"GoodsType": "GoodsType_Item",
				"Id": 3505,
				"Count": 8
			}
		],
		"RandomDrop": 10016,
		"TeamDrop": 0,
		"DropDisplayCount": 3,
		"Score": 0,
		"Strategy": ""
	},
	"101": {
		"ID": 101,
		"Name": "Bracer Mission L35-A",
		"TeamName": "Lv35A",
		"DaysBeforeActivate": 0,
		"PlayerLevelRequired": 30,
		"MonsterLevel": 35,
		"BattleID": 6831,
		"PlayerExp": 10,
		"HeroExp": 55,
		"GoldReward": 638,
		"EnergyCostSuccess": 10,
		"EnergyCostFail": 2,
		"EnergyCostTeam": 8,
		"RandomDrop": 0,
		"TeamDrop": 0,
		"DropDisplayCount": 1,
		"Score": 100,
		"Strategy": ""
	},
	"102": {
		"ID": 102,
		"Name": "Bracer Mission L35-B",
		"TeamName": "Lv35B",
		"DaysBeforeActivate": 1,
		"PlayerLevelRequired": 30,
		"MonsterLevel": 35,
		"BattleID": 6834,
		"PlayerExp": 10,
		"HeroExp": 55,
		"GoldReward": 638,
		"EnergyCostSuccess": 10,
		"EnergyCostFail": 2,
		"EnergyCostTeam": 8,
		"RandomDrop": 0,
		"TeamDrop": 0,
		"DropDisplayCount": 1,
		"Score": 100,
		"Strategy": ""
	},
	"103": {
		"ID": 103,
		"Name": "Bracer Mission L35-C",
		"TeamName": "Lv35C",
		"DaysBeforeActivate": 0,
		"PlayerLevelRequired": 30,
		"MonsterLevel": 35,
		"BattleID": 6837,
		"PlayerExp": 10,
		"HeroExp": 55,
		"GoldReward": 638,
		"EnergyCostSuccess": 10,
		"EnergyCostFail": 2,
		"EnergyCostTeam": 8,
		"RandomDrop": 0,
		"TeamDrop": 0,
		"DropDisplayCount": 1,
		"Score": 100,
		"Strategy": ""
	},
	"104": {
		"ID": 104,
		"Name": "Bracer Mission L45-A",
		"TeamName": "Lv45A",
		"DaysBeforeActivate": 1,
		"PlayerLevelRequired": 40,
		"MonsterLevel": 45,
		"BattleID": 6832,
		"PlayerExp": 10,
		"HeroExp": 65,
		"GoldReward": 875,
		"EnergyCostSuccess": 10,
		"EnergyCostFail": 2,
		"EnergyCostTeam": 8,
		"RandomDrop": 0,
		"TeamDrop": 0,
		"DropDisplayCount": 1,
		"Score": 200,
		"Strategy": ""
	},
	"105": {
		"ID": 105,
		"Name": "Bracer Mission L45-B",
		"TeamName": "Lv45B",
		"DaysBeforeActivate": 1,
		"PlayerLevelRequired": 40,
		"MonsterLevel": 45,
		"BattleID": 6835,
		"PlayerExp": 10,
		"HeroExp": 65,
		"GoldReward": 875,
		"EnergyCostSuccess": 10,
		"EnergyCostFail": 2,
		"EnergyCostTeam": 8,
		"RandomDrop": 0,
		"TeamDrop": 0,
		"DropDisplayCount": 1,
		"Score": 200,
		"Strategy": ""
	},
	"106": {
		"ID": 106,
		"Name": "Bracer Mission L45-C",
		"TeamName": "Lv45C",
		"DaysBeforeActivate": 1,
		"PlayerLevelRequired": 40,
		"MonsterLevel": 45,
		"BattleID": 6838,
		"PlayerExp": 10,
		"HeroExp": 65,
		"GoldReward": 875,
		"EnergyCostSuccess": 10,
		"EnergyCostFail": 2,
		"EnergyCostTeam": 8,
		"RandomDrop": 0,
		"TeamDrop": 0,
		"DropDisplayCount": 1,
		"Score": 200,
		"Strategy": ""
	},
	"107": {
		"ID": 107,
		"Name": "Bracer Mission L55-A",
		"TeamName": "Lv55A",
		"DaysBeforeActivate": 2,
		"PlayerLevelRequired": 50,
		"MonsterLevel": 55,
		"BattleID": 6833,
		"PlayerExp": 10,
		"HeroExp": 75,
		"GoldReward": 1140,
		"EnergyCostSuccess": 10,
		"EnergyCostFail": 2,
		"EnergyCostTeam": 8,
		"RandomDrop": 0,
		"TeamDrop": 0,
		"DropDisplayCount": 1,
		"Score": 300,
		"Strategy": ""
	},
	"108": {
		"ID": 108,
		"Name": "Bracer Mission L55-B",
		"TeamName": "Lv55B",
		"DaysBeforeActivate": 2,
		"PlayerLevelRequired": 50,
		"MonsterLevel": 55,
		"BattleID": 6836,
		"PlayerExp": 10,
		"HeroExp": 75,
		"GoldReward": 1140,
		"EnergyCostSuccess": 10,
		"EnergyCostFail": 2,
		"EnergyCostTeam": 8,
		"RandomDrop": 0,
		"TeamDrop": 0,
		"DropDisplayCount": 1,
		"Score": 300,
		"Strategy": ""
	},
	"109": {
		"ID": 109,
		"Name": "Bracer Mission L55-C",
		"TeamName": "Lv55C",
		"DaysBeforeActivate": 3,
		"PlayerLevelRequired": 50,
		"MonsterLevel": 55,
		"BattleID": 6839,
		"PlayerExp": 10,
		"HeroExp": 75,
		"GoldReward": 1140,
		"EnergyCostSuccess": 10,
		"EnergyCostFail": 2,
		"EnergyCostTeam": 8,
		"RandomDrop": 0,
		"TeamDrop": 0,
		"DropDisplayCount": 1,
		"Score": 300,
		"Strategy": ""
	},
	"201": {
		"ID": 201,
		"Name": "Floating City Mission L35-A",
		"TeamName": "Lv35A",
		"DaysBeforeActivate": 0,
		"PlayerLevelRequired": 30,
		"MonsterLevel": 35,
		"BattleID": 50037,
		"PlayerExp": 10,
		"HeroExp": 55,
		"GoldReward": 638,
		"EnergyCostSuccess": 10,
		"EnergyCostFail": 2,
		"EnergyCostTeam": 8,
		"FirstClearDrop": [
			{
				"GoodsType": "GoodsType_Crystal",
				"Id": 0,
				"Count": 10
			},
			{
				"GoodsType": "GoodsType_Item",
				"Id": 3511,
				"Count": 3
			}
		],
		"RandomDrop": 10017,
		"TeamDrop": 0,
		"DropDisplayCount": 2,
		"Score": 0,
		"Strategy": ""
	},
	"202": {
		"ID": 202,
		"Name": "Floating City Mission L35-B",
		"TeamName": "Lv35B",
		"DaysBeforeActivate": 1,
		"PlayerLevelRequired": 30,
		"MonsterLevel": 35,
		"BattleID": 50034,
		"PlayerExp": 10,
		"HeroExp": 55,
		"GoldReward": 638,
		"EnergyCostSuccess": 10,
		"EnergyCostFail": 2,
		"EnergyCostTeam": 8,
		"FirstClearDrop": [
			{
				"GoodsType": "GoodsType_Crystal",
				"Id": 0,
				"Count": 10
			},
			{
				"GoodsType": "GoodsType_Item",
				"Id": 3512,
				"Count": 3
			}
		],
		"RandomDrop": 10018,
		"TeamDrop": 0,
		"DropDisplayCount": 2,
		"Score": 0,
		"Strategy": ""
	},
	"203": {
		"ID": 203,
		"Name": "Floating City Mission L35-C",
		"TeamName": "Lv35C",
		"DaysBeforeActivate": 0,
		"PlayerLevelRequired": 30,
		"MonsterLevel": 35,
		"BattleID": 50031,
		"PlayerExp": 10,
		"HeroExp": 55,
		"GoldReward": 638,
		"EnergyCostSuccess": 10,
		"EnergyCostFail": 2,
		"EnergyCostTeam": 8,
		"FirstClearDrop": [
			{
				"GoodsType": "GoodsType_Crystal",
				"Id": 0,
				"Count": 10
			},
			{
				"GoodsType": "GoodsType_Item",
				"Id": 3513,
				"Count": 3
			}
		],
		"RandomDrop": 10019,
		"TeamDrop": 0,
		"DropDisplayCount": 2,
		"Score": 0,
		"Strategy": ""
	},
	"204": {
		"ID": 204,
		"Name": "Floating City Mission L45-A",
		"TeamName": "Lv45A",
		"DaysBeforeActivate": 1,
		"PlayerLevelRequired": 40,
		"MonsterLevel": 45,
		"BattleID": 50038,
		"PlayerExp": 10,
		"HeroExp": 65,
		"GoldReward": 875,
		"EnergyCostSuccess": 10,
		"EnergyCostFail": 2,
		"EnergyCostTeam": 8,
		"FirstClearDrop": [
			{
				"GoodsType": "GoodsType_Crystal",
				"Id": 0,
				"Count": 10
			},
			{
				"GoodsType": "GoodsType_Item",
				"Id": 3511,
				"Count": 6
			}
		],
		"RandomDrop": 10020,
		"TeamDrop": 0,
		"DropDisplayCount": 2,
		"Score": 0,
		"Strategy": ""
	},
	"205": {
		"ID": 205,
		"Name": "Floating City Mission L45-B",
		"TeamName": "Lv45B",
		"DaysBeforeActivate": 1,
		"PlayerLevelRequired": 40,
		"MonsterLevel": 45,
		"BattleID": 50035,
		"PlayerExp": 10,
		"HeroExp": 65,
		"GoldReward": 875,
		"EnergyCostSuccess": 10,
		"EnergyCostFail": 2,
		"EnergyCostTeam": 8,
		"FirstClearDrop": [
			{
				"GoodsType": "GoodsType_Crystal",
				"Id": 0,
				"Count": 10
			},
			{
				"GoodsType": "GoodsType_Item",
				"Id": 3512,
				"Count": 6
			}
		],
		"RandomDrop": 10021,
		"TeamDrop": 0,
		"DropDisplayCount": 2,
		"Score": 0,
		"Strategy": ""
	},
	"206": {
		"ID": 206,
		"Name": "Floating City Mission L45-C",
		"TeamName": "Lv45C",
		"DaysBeforeActivate": 2,
		"PlayerLevelRequired": 40,
		"MonsterLevel": 45,
		"BattleID": 50032,
		"PlayerExp": 10,
		"HeroExp": 65,
		"GoldReward": 875,
		"EnergyCostSuccess": 10,
		"EnergyCostFail": 2,
		"EnergyCostTeam": 8,
		"FirstClearDrop": [
			{
				"GoodsType": "GoodsType_Crystal",
				"Id": 0,
				"Count": 10
			},
			{
				"GoodsType": "GoodsType_Item",
				"Id": 3513,
				"Count": 6
			}
		],
		"RandomDrop": 10022,
		"TeamDrop": 0,
		"DropDisplayCount": 2,
		"Score": 0,
		"Strategy": ""
	},
	"207": {
		"ID": 207,
		"Name": "Floating City Mission L55-A",
		"TeamName": "Lv55A",
		"DaysBeforeActivate": 2,
		"PlayerLevelRequired": 50,
		"MonsterLevel": 55,
		"BattleID": 50039,
		"PlayerExp": 10,
		"HeroExp": 75,
		"GoldReward": 1140,
		"EnergyCostSuccess": 10,
		"EnergyCostFail": 2,
		"EnergyCostTeam": 8,
		"FirstClearDrop": [
			{
				"GoodsType": "GoodsType_Crystal",
				"Id": 0,
				"Count": 10
			},
			{
				"GoodsType": "GoodsType_Item",
				"Id": 3511,
				"Count": 9
			}
		],
		"RandomDrop": 10023,
		"TeamDrop": 0,
		"DropDisplayCount": 2,
		"Score": 0,
		"Strategy": ""
	},
	"208": {
		"ID": 208,
		"Name": "Floating City Mission L55-B",
		"TeamName": "Lv55B",
		"DaysBeforeActivate": 3,
		"PlayerLevelRequired": 50,
		"MonsterLevel": 55,
		"BattleID": 50036,
		"PlayerExp": 10,
		"HeroExp": 75,
		"GoldReward": 1140,
		"EnergyCostSuccess": 10,
		"EnergyCostFail": 2,
		"EnergyCostTeam": 8,
		"FirstClearDrop": [
			{
				"GoodsType": "GoodsType_Crystal",
				"Id": 0,
				"Count": 10
			},
			{
				"GoodsType": "GoodsType_Item",
				"Id": 3512,
				"Count": 9
			}
		],
		"RandomDrop": 10024,
		"TeamDrop": 0,
		"DropDisplayCount": 2,
		"Score": 0,
		"Strategy": ""
	},
	"209": {
		"ID": 209,
		"Name": "Floating City Mission L55-C",
		"TeamName": "Lv55C",
		"DaysBeforeActivate": 2,
		"PlayerLevelRequired": 50,
		"MonsterLevel": 55,
		"BattleID": 50033,
		"PlayerExp": 10,
		"HeroExp": 75,
		"GoldReward": 1140,
		"EnergyCostSuccess": 10,
		"EnergyCostFail": 2,
		"EnergyCostTeam": 8,
		"FirstClearDrop": [
			{
				"GoodsType": "GoodsType_Crystal",
				"Id": 0,
				"Count": 10
			},
			{
				"GoodsType": "GoodsType_Item",
				"Id": 3513,
				"Count": 9
			}
		],
		"RandomDrop": 10025,
		"TeamDrop": 0,
		"DropDisplayCount": 2,
		"Score": 0,
		"Strategy": ""
	},
	"301": {
		"ID": 301,
		"Name": "Overlord Line Mission L35-A",
		"TeamName": "Lv35A",
		"DaysBeforeActivate": 0,
		"PlayerLevelRequired": 30,
		"MonsterLevel": 35,
		"BattleID": 50231,
		"PlayerExp": 10,
		"HeroExp": 55,
		"GoldReward": 638,
		"EnergyCostSuccess": 10,
		"EnergyCostFail": 2,
		"EnergyCostTeam": 8,
		"FirstClearDrop": [
			{
				"GoodsType": "GoodsType_Crystal",
				"Id": 0,
				"Count": 10
			},
			{
				"GoodsType": "GoodsType_Item",
				"Id": 3523,
				"Count": 3
			}
		],
		"RandomDrop": 10033,
		"TeamDrop": 0,
		"DropDisplayCount": 2,
		"Score": 0,
		"Strategy": ""
	},
	"302": {
		"ID": 302,
		"Name": "Overlord Line Mission L35-B",
		"TeamName": "Lv35B",
		"DaysBeforeActivate": 1,
		"PlayerLevelRequired": 30,
		"MonsterLevel": 35,
		"BattleID": 50234,
		"PlayerExp": 10,
		"HeroExp": 55,
		"GoldReward": 638,
		"EnergyCostSuccess": 10,
		"EnergyCostFail": 2,
		"EnergyCostTeam": 8,
		"FirstClearDrop": [
			{
				"GoodsType": "GoodsType_Crystal",
				"Id": 0,
				"Count": 10
			},
			{
				"GoodsType": "GoodsType_Item",
				"Id": 3525,
				"Count": 3
			}
		],
		"RandomDrop": 10034,
		"TeamDrop": 0,
		"DropDisplayCount": 2,
		"Score": 0,
		"Strategy": ""
	},
	"303": {
		"ID": 303,
		"Name": "Overlord Line Mission L35-C",
		"TeamName": "Lv35C",
		"DaysBeforeActivate": 2,
		"PlayerLevelRequired": 30,
		"MonsterLevel": 35,
		"BattleID": 50241,
		"PlayerExp": 10,
		"HeroExp": 55,
		"GoldReward": 638,
		"EnergyCostSuccess": 10,
		"EnergyCostFail": 2,
		"EnergyCostTeam": 8,
		"FirstClearDrop": [
			{
				"GoodsType": "GoodsType_Crystal",
				"Id": 0,
				"Count": 10
			},
			{
				"GoodsType": "GoodsType_Item",
				"Id": 3524,
				"Count": 1
			}
		],
		"RandomDrop": 10035,
		"TeamDrop": 0,
		"DropDisplayCount": 2,
		"Score": 0,
		"Strategy": ""
	},
	"304": {
		"ID": 304,
		"Name": "Overlord Line Mission L45-A",
		"TeamName": "Lv45A",
		"DaysBeforeActivate": 3,
		"PlayerLevelRequired": 40,
		"MonsterLevel": 45,
		"BattleID": 50232,
		"PlayerExp": 10,
		"HeroExp": 65,
		"GoldReward": 875,
		"EnergyCostSuccess": 10,
		"EnergyCostFail": 2,
		"EnergyCostTeam": 8,
		"FirstClearDrop": [
			{
				"GoodsType": "GoodsType_Crystal",
				"Id": 0,
				"Count": 10
			},
			{
				"GoodsType": "GoodsType_Item",
				"Id": 3523,
				"Count": 6
			}
		],
		"RandomDrop": 10036,
		"TeamDrop": 0,
		"DropDisplayCount": 2,
		"Score": 0,
		"Strategy": ""
	},
	"305": {
		"ID": 305,
		"Name": "Overlord Line Mission L45-B",
		"TeamName": "Lv45B",
		"DaysBeforeActivate": 4,
		"PlayerLevelRequired": 40,
		"MonsterLevel": 45,
		"BattleID": 50235,
		"PlayerExp": 10,
		"HeroExp": 65,
		"GoldReward": 875,
		"EnergyCostSuccess": 10,
		"EnergyCostFail": 2,
		"EnergyCostTeam": 8,
		"FirstClearDrop": [
			{
				"GoodsType": "GoodsType_Crystal",
				"Id": 0,
				"Count": 10
			},
			{
				"GoodsType": "GoodsType_Item",
				"Id": 3525,
				"Count": 6
			}
		],
		"RandomDrop": 10037,
		"TeamDrop": 0,
		"DropDisplayCount": 2,
		"Score": 0,
		"Strategy": ""
	},
	"306": {
		"ID": 306,
		"Name": "Overlord Line Mission L45-C",
		"TeamName": "Lv45C",
		"DaysBeforeActivate": 5,
		"PlayerLevelRequired": 40,
		"MonsterLevel": 45,
		"BattleID": 50242,
		"PlayerExp": 10,
		"HeroExp": 65,
		"GoldReward": 875,
		"EnergyCostSuccess": 10,
		"EnergyCostFail": 2,
		"EnergyCostTeam": 8,
		"FirstClearDrop": [
			{
				"GoodsType": "GoodsType_Crystal",
				"Id": 0,
				"Count": 10
			},
			{
				"GoodsType": "GoodsType_Item",
				"Id": 3524,
				"Count": 2
			}
		],
		"RandomDrop": 10038,
		"TeamDrop": 0,
		"DropDisplayCount": 2,
		"Score": 0,
		"Strategy": ""
	},
	"307": {
		"ID": 307,
		"Name": "Overlord Line Mission L55-A",
		"TeamName": "Lv55A",
		"DaysBeforeActivate": 6,
		"PlayerLevelRequired": 50,
		"MonsterLevel": 55,
		"BattleID": 50233,
		"PlayerExp": 10,
		"HeroExp": 75,
		"GoldReward": 1140,
		"EnergyCostSuccess": 10,
		"EnergyCostFail": 2,
		"EnergyCostTeam": 8,
		"FirstClearDrop": [
			{
				"GoodsType": "GoodsType_Crystal",
				"Id": 0,
				"Count": 10
			},
			{
				"GoodsType": "GoodsType_Item",
				"Id": 3523,
				"Count": 9
			}
		],
		"RandomDrop": 10039,
		"TeamDrop": 0,
		"DropDisplayCount": 2,
		"Score": 0,
		"Strategy": ""
	},
	"308": {
		"ID": 308,
		"Name": "Overlord Line Mission L55-B",
		"TeamName": "Lv55B",
		"DaysBeforeActivate": 7,
		"PlayerLevelRequired": 50,
		"MonsterLevel": 55,
		"BattleID": 50236,
		"PlayerExp": 10,
		"HeroExp": 75,
		"GoldReward": 1140,
		"EnergyCostSuccess": 10,
		"EnergyCostFail": 2,
		"EnergyCostTeam": 8,
		"FirstClearDrop": [
			{
				"GoodsType": "GoodsType_Crystal",
				"Id": 0,
				"Count": 10
			},
			{
				"GoodsType": "GoodsType_Item",
				"Id": 3525,
				"Count": 9
			}
		],
		"RandomDrop": 10040,
		"TeamDrop": 0,
		"DropDisplayCount": 2,
		"Score": 0,
		"Strategy": ""
	},
	"309": {
		"ID": 309,
		"Name": "Overlord Line Mission L55-C",
		"TeamName": "Lv55C",
		"DaysBeforeActivate": 8,
		"PlayerLevelRequired": 50,
		"MonsterLevel": 55,
		"BattleID": 50243,
		"PlayerExp": 10,
		"HeroExp": 75,
		"GoldReward": 1140,
		"EnergyCostSuccess": 10,
		"EnergyCostFail": 2,
		"EnergyCostTeam": 8,
		"FirstClearDrop": [
			{
				"GoodsType": "GoodsType_Crystal",
				"Id": 0,
				"Count": 10
			},
			{
				"GoodsType": "GoodsType_Item",
				"Id": 3524,
				"Count": 3
			}
		],
		"RandomDrop": 10041,
		"TeamDrop": 0,
		"DropDisplayCount": 2,
		"Score": 0,
		"Strategy": ""
	},
	"401": {
		"ID": 401,
		"Name": "Special Training Quest L35-A",
		"TeamName": "Lv35A",
		"DaysBeforeActivate": 0,
		"PlayerLevelRequired": 30,
		"MonsterLevel": 35,
		"BattleID": 50334,
		"PlayerExp": 10,
		"HeroExp": 55,
		"GoldReward": 638,
		"EnergyCostSuccess": 10,
		"EnergyCostFail": 2,
		"EnergyCostTeam": 8,
		"FirstClearDrop": [
			{
				"GoodsType": "GoodsType_Crystal",
				"Id": 0,
				"Count": 10
			},
			{
				"GoodsType": "GoodsType_Item",
				"Id": 3527,
				"Count": 3
			}
		],
		"RandomDrop": 10042,
		"TeamDrop": 0,
		"DropDisplayCount": 2,
		"Score": 0,
		"Strategy": ""
	},
	"402": {
		"ID": 402,
		"Name": "Special Training Quest L35-B",
		"TeamName": "Lv35B",
		"DaysBeforeActivate": 0,
		"PlayerLevelRequired": 30,
		"MonsterLevel": 35,
		"BattleID": 50331,
		"PlayerExp": 10,
		"HeroExp": 55,
		"GoldReward": 638,
		"EnergyCostSuccess": 10,
		"EnergyCostFail": 2,
		"EnergyCostTeam": 8,
		"FirstClearDrop": [
			{
				"GoodsType": "GoodsType_Crystal",
				"Id": 0,
				"Count": 10
			},
			{
				"GoodsType": "GoodsType_Item",
				"Id": 3528,
				"Count": 3
			}
		],
		"RandomDrop": 10043,
		"TeamDrop": 0,
		"DropDisplayCount": 2,
		"Score": 0,
		"Strategy": ""
	},
	"403": {
		"ID": 403,
		"Name": "Special Training Quest L35-C",
		"TeamName": "Lv35C",
		"DaysBeforeActivate": 0,
		"PlayerLevelRequired": 30,
		"MonsterLevel": 35,
		"BattleID": 50337,
		"PlayerExp": 10,
		"HeroExp": 55,
		"GoldReward": 638,
		"EnergyCostSuccess": 10,
		"EnergyCostFail": 2,
		"EnergyCostTeam": 8,
		"FirstClearDrop": [
			{
				"GoodsType": "GoodsType_Crystal",
				"Id": 0,
				"Count": 10
			},
			{
				"GoodsType": "GoodsType_Item",
				"Id": 3529,
				"Count": 3
			}
		],
		"RandomDrop": 10044,
		"TeamDrop": 0,
		"DropDisplayCount": 2,
		"Score": 0,
		"Strategy": ""
	},
	"404": {
		"ID": 404,
		"Name": "Special Training Quest L35-D",
		"TeamName": "Lv35D",
		"DaysBeforeActivate": 0,
		"PlayerLevelRequired": 30,
		"MonsterLevel": 35,
		"BattleID": 50340,
		"PlayerExp": 10,
		"HeroExp": 55,
		"GoldReward": 638,
		"EnergyCostSuccess": 10,
		"EnergyCostFail": 2,
		"EnergyCostTeam": 8,
		"FirstClearDrop": [
			{
				"GoodsType": "GoodsType_Crystal",
				"Id": 0,
				"Count": 10
			},
			{
				"GoodsType": "GoodsType_Item",
				"Id": 3530,
				"Count": 3
			}
		],
		"RandomDrop": 10045,
		"TeamDrop": 0,
		"DropDisplayCount": 2,
		"Score": 0,
		"Strategy": ""
	},
	"405": {
		"ID": 405,
		"Name": "Special Training Quest L45-A",
		"TeamName": "Lv45A",
		"DaysBeforeActivate": 2,
		"PlayerLevelRequired": 40,
		"MonsterLevel": 45,
		"BattleID": 50335,
		"PlayerExp": 10,
		"HeroExp": 65,
		"GoldReward": 875,
		"EnergyCostSuccess": 10,
		"EnergyCostFail": 2,
		"EnergyCostTeam": 8,
		"FirstClearDrop": [
			{
				"GoodsType": "GoodsType_Crystal",
				"Id": 0,
				"Count": 10
			},
			{
				"GoodsType": "GoodsType_Item",
				"Id": 3527,
				"Count": 6
			}
		],
		"RandomDrop": 10046,
		"TeamDrop": 0,
		"DropDisplayCount": 2,
		"Score": 0,
		"Strategy": ""
	},
	"406": {
		"ID": 406,
		"Name": "Special Training Quest L45-B",
		"TeamName": "Lv45B",
		"DaysBeforeActivate": 2,
		"PlayerLevelRequired": 40,
		"MonsterLevel": 45,
		"BattleID": 50332,
		"PlayerExp": 10,
		"HeroExp": 65,
		"GoldReward": 875,
		"EnergyCostSuccess": 10,
		"EnergyCostFail": 2,
		"EnergyCostTeam": 8,
		"FirstClearDrop": [
			{
				"GoodsType": "GoodsType_Crystal",
				"Id": 0,
				"Count": 10
			},
			{
				"GoodsType": "GoodsType_Item",
				"Id": 3528,
				"Count": 6
			}
		],
		"RandomDrop": 10047,
		"TeamDrop": 0,
		"DropDisplayCount": 2,
		"Score": 0,
		"Strategy": ""
	},
	"407": {
		"ID": 407,
		"Name": "Special Training Quest L45-C",
		"TeamName": "Lv45C",
		"DaysBeforeActivate": 2,
		"PlayerLevelRequired": 40,
		"MonsterLevel": 45,
		"BattleID": 50338,
		"PlayerExp": 10,
		"HeroExp": 65,
		"GoldReward": 875,
		"EnergyCostSuccess": 10,
		"EnergyCostFail": 2,
		"EnergyCostTeam": 8,
		"FirstClearDrop": [
			{
				"GoodsType": "GoodsType_Crystal",
				"Id": 0,
				"Count": 10
			},
			{
				"GoodsType": "GoodsType_Item",
				"Id": 3529,
				"Count": 6
			}
		],
		"RandomDrop": 10048,
		"TeamDrop": 0,
		"DropDisplayCount": 2,
		"Score": 0,
		"Strategy": ""
	},
	"408": {
		"ID": 408,
		"Name": "Special Training Quest L45-D",
		"TeamName": "Lv45D",
		"DaysBeforeActivate": 2,
		"PlayerLevelRequired": 40,
		"MonsterLevel": 45,
		"BattleID": 50341,
		"PlayerExp": 10,
		"HeroExp": 65,
		"GoldReward": 875,
		"EnergyCostSuccess": 10,
		"EnergyCostFail": 2,
		"EnergyCostTeam": 8,
		"FirstClearDrop": [
			{
				"GoodsType": "GoodsType_Crystal",
				"Id": 0,
				"Count": 10
			},
			{
				"GoodsType": "GoodsType_Item",
				"Id": 3530,
				"Count": 6
			}
		],
		"RandomDrop": 10049,
		"TeamDrop": 0,
		"DropDisplayCount": 2,
		"Score": 0,
		"Strategy": ""
	},
	"409": {
		"ID": 409,
		"Name": "Special Training Quest L55-A",
		"TeamName": "Lv55A",
		"DaysBeforeActivate": 4,
		"PlayerLevelRequired": 50,
		"MonsterLevel": 55,
		"BattleID": 50336,
		"PlayerExp": 10,
		"HeroExp": 75,
		"GoldReward": 1140,
		"EnergyCostSuccess": 10,
		"EnergyCostFail": 2,
		"EnergyCostTeam": 8,
		"FirstClearDrop": [
			{
				"GoodsType": "GoodsType_Crystal",
				"Id": 0,
				"Count": 10
			},
			{
				"GoodsType": "GoodsType_Item",
				"Id": 3527,
				"Count": 9
			}
		],
		"RandomDrop": 10050,
		"TeamDrop": 0,
		"DropDisplayCount": 2,
		"Score": 0,
		"Strategy": ""
	},
	"410": {
		"ID": 410,
		"Name": "Special Training Quest L55-B",
		"TeamName": "Lv55B",
		"DaysBeforeActivate": 4,
		"PlayerLevelRequired": 50,
		"MonsterLevel": 55,
		"BattleID": 50333,
		"PlayerExp": 10,
		"HeroExp": 75,
		"GoldReward": 1140,
		"EnergyCostSuccess": 10,
		"EnergyCostFail": 2,
		"EnergyCostTeam": 8,
		"FirstClearDrop": [
			{
				"GoodsType": "GoodsType_Crystal",
				"Id": 0,
				"Count": 10
			},
			{
				"GoodsType": "GoodsType_Item",
				"Id": 3528,
				"Count": 9
			}
		],
		"RandomDrop": 10051,
		"TeamDrop": 0,
		"DropDisplayCount": 2,
		"Score": 0,
		"Strategy": ""
	},
	"411": {
		"ID": 411,
		"Name": "Special Training Quest L55-C",
		"TeamName": "Lv55C",
		"DaysBeforeActivate": 4,
		"PlayerLevelRequired": 50,
		"MonsterLevel": 55,
		"BattleID": 50339,
		"PlayerExp": 10,
		"HeroExp": 75,
		"GoldReward": 1140,
		"EnergyCostSuccess": 10,
		"EnergyCostFail": 2,
		"EnergyCostTeam": 8,
		"FirstClearDrop": [
			{
				"GoodsType": "GoodsType_Crystal",
				"Id": 0,
				"Count": 10
			},
			{
				"GoodsType": "GoodsType_Item",
				"Id": 3529,
				"Count": 9
			}
		],
		"RandomDrop": 10052,
		"TeamDrop": 0,
		"DropDisplayCount": 2,
		"Score": 0,
		"Strategy": ""
	},
	"412": {
		"ID": 412,
		"Name": "Special Training Quest L55-D",
		"TeamName": "Lv55D",
		"DaysBeforeActivate": 4,
		"PlayerLevelRequired": 50,
		"MonsterLevel": 55,
		"BattleID": 50342,
		"PlayerExp": 10,
		"HeroExp": 75,
		"GoldReward": 1140,
		"EnergyCostSuccess": 10,
		"EnergyCostFail": 2,
		"EnergyCostTeam": 8,
		"FirstClearDrop": [
			{
				"GoodsType": "GoodsType_Crystal",
				"Id": 0,
				"Count": 10
			},
			{
				"GoodsType": "GoodsType_Item",
				"Id": 3530,
				"Count": 9
			}
		],
		"RandomDrop": 10053,
		"TeamDrop": 0,
		"DropDisplayCount": 2,
		"Score": 0,
		"Strategy": ""
	},
	"413": {
		"ID": 413,
		"Name": "Special Training Quest L55-E",
		"TeamName": "Lv55E",
		"DaysBeforeActivate": 6,
		"PlayerLevelRequired": 50,
		"MonsterLevel": 55,
		"BattleID": 50343,
		"PlayerExp": 10,
		"HeroExp": 75,
		"GoldReward": 1140,
		"EnergyCostSuccess": 10,
		"EnergyCostFail": 2,
		"EnergyCostTeam": 8,
		"FirstClearDrop": [
			{
				"GoodsType": "GoodsType_Crystal",
				"Id": 0,
				"Count": 10
			},
			{
				"GoodsType": "GoodsType_Item",
				"Id": 3527,
				"Count": 8
			},
			{
				"GoodsType": "GoodsType_Item",
				"Id": 3528,
				"Count": 8
			}
		],
		"RandomDrop": 10054,
		"TeamDrop": 0,
		"DropDisplayCount": 3,
		"Score": 0,
		"Strategy": ""
	},
	"414": {
		"ID": 414,
		"Name": "Special Training Quest L55-F",
		"TeamName": "Lv55F",
		"DaysBeforeActivate": 6,
		"PlayerLevelRequired": 50,
		"MonsterLevel": 55,
		"BattleID": 50344,
		"PlayerExp": 10,
		"HeroExp": 75,
		"GoldReward": 1140,
		"EnergyCostSuccess": 10,
		"EnergyCostFail": 2,
		"EnergyCostTeam": 8,
		"FirstClearDrop": [
			{
				"GoodsType": "GoodsType_Crystal",
				"Id": 0,
				"Count": 10
			},
			{
				"GoodsType": "GoodsType_Item",
				"Id": 3529,
				"Count": 8
			},
			{
				"GoodsType": "GoodsType_Item",
				"Id": 3530,
				"Count": 8
			}
		],
		"RandomDrop": 10055,
		"TeamDrop": 0,
		"DropDisplayCount": 3,
		"Score": 0,
		"Strategy": ""
	},
	"415": {
		"ID": 415,
		"Name": "Special Training Quest L55-G",
		"TeamName": "Lv55G",
		"DaysBeforeActivate": 6,
		"PlayerLevelRequired": 50,
		"MonsterLevel": 55,
		"BattleID": 50345,
		"PlayerExp": 10,
		"HeroExp": 75,
		"GoldReward": 1140,
		"EnergyCostSuccess": 10,
		"EnergyCostFail": 2,
		"EnergyCostTeam": 8,
		"FirstClearDrop": [
			{
				"GoodsType": "GoodsType_Crystal",
				"Id": 0,
				"Count": 10
			},
			{
				"GoodsType": "GoodsType_Item",
				"Id": 3528,
				"Count": 8
			},
			{
				"GoodsType": "GoodsType_Item",
				"Id": 3529,
				"Count": 8
			}
		],
		"RandomDrop": 10056,
		"TeamDrop": 0,
		"DropDisplayCount": 3,
		"Score": 0,
		"Strategy": ""
	},
	"416": {
		"ID": 416,
		"Name": "Special Training Quest L55-H",
		"TeamName": "Lv55H",
		"DaysBeforeActivate": 6,
		"PlayerLevelRequired": 50,
		"MonsterLevel": 55,
		"BattleID": 50346,
		"PlayerExp": 10,
		"HeroExp": 75,
		"GoldReward": 1140,
		"EnergyCostSuccess": 10,
		"EnergyCostFail": 2,
		"EnergyCostTeam": 8,
		"FirstClearDrop": [
			{
				"GoodsType": "GoodsType_Crystal",
				"Id": 0,
				"Count": 10
			},
			{
				"GoodsType": "GoodsType_Item",
				"Id": 3530,
				"Count": 8
			},
			{
				"GoodsType": "GoodsType_Item",
				"Id": 3527,
				"Count": 8
			}
		],
		"RandomDrop": 10057,
		"TeamDrop": 0,
		"DropDisplayCount": 3,
		"Score": 0,
		"Strategy": ""
	},
	"501": {
		"ID": 501,
		"Name": "Concert Mission L35-A",
		"TeamName": "Lv35A",
		"DaysBeforeActivate": 0,
		"PlayerLevelRequired": 30,
		"MonsterLevel": 35,
		"BattleID": 50431,
		"PlayerExp": 10,
		"HeroExp": 55,
		"GoldReward": 638,
		"EnergyCostSuccess": 10,
		"EnergyCostFail": 2,
		"EnergyCostTeam": 8,
		"RandomDrop": 0,
		"TeamDrop": 0,
		"DropDisplayCount": 1,
		"Score": 100,
		"Strategy": ""
	},
	"502": {
		"ID": 502,
		"Name": "Concert Mission L35-B",
		"TeamName": "Lv35B",
		"DaysBeforeActivate": 1,
		"PlayerLevelRequired": 30,
		"MonsterLevel": 35,
		"BattleID": 50434,
		"PlayerExp": 10,
		"HeroExp": 55,
		"GoldReward": 638,
		"EnergyCostSuccess": 10,
		"EnergyCostFail": 2,
		"EnergyCostTeam": 8,
		"RandomDrop": 0,
		"TeamDrop": 0,
		"DropDisplayCount": 1,
		"Score": 100,
		"Strategy": ""
	},
	"503": {
		"ID": 503,
		"Name": "Concert Mission L35-C",
		"TeamName": "Lv35C",
		"DaysBeforeActivate": 2,
		"PlayerLevelRequired": 30,
		"MonsterLevel": 35,
		"BattleID": 50437,
		"PlayerExp": 10,
		"HeroExp": 55,
		"GoldReward": 638,
		"EnergyCostSuccess": 10,
		"EnergyCostFail": 2,
		"EnergyCostTeam": 8,
		"RandomDrop": 0,
		"TeamDrop": 0,
		"DropDisplayCount": 1,
		"Score": 100,
		"Strategy": ""
	},
	"504": {
		"ID": 504,
		"Name": "Concert Mission L45-A",
		"TeamName": "Lv45A",
		"DaysBeforeActivate": 3,
		"PlayerLevelRequired": 40,
		"MonsterLevel": 45,
		"BattleID": 50432,
		"PlayerExp": 10,
		"HeroExp": 65,
		"GoldReward": 875,
		"EnergyCostSuccess": 10,
		"EnergyCostFail": 2,
		"EnergyCostTeam": 8,
		"RandomDrop": 0,
		"TeamDrop": 0,
		"DropDisplayCount": 1,
		"Score": 200,
		"Strategy": ""
	},
	"505": {
		"ID": 505,
		"Name": "Concert Mission L45-B",
		"TeamName": "Lv45B",
		"DaysBeforeActivate": 4,
		"PlayerLevelRequired": 40,
		"MonsterLevel": 45,
		"BattleID": 50435,
		"PlayerExp": 10,
		"HeroExp": 65,
		"GoldReward": 875,
		"EnergyCostSuccess": 10,
		"EnergyCostFail": 2,
		"EnergyCostTeam": 8,
		"RandomDrop": 0,
		"TeamDrop": 0,
		"DropDisplayCount": 1,
		"Score": 200,
		"Strategy": ""
	},
	"506": {
		"ID": 506,
		"Name": "Concert Mission L45-C",
		"TeamName": "Lv45C",
		"DaysBeforeActivate": 5,
		"PlayerLevelRequired": 40,
		"MonsterLevel": 45,
		"BattleID": 50438,
		"PlayerExp": 10,
		"HeroExp": 65,
		"GoldReward": 875,
		"EnergyCostSuccess": 10,
		"EnergyCostFail": 2,
		"EnergyCostTeam": 8,
		"RandomDrop": 0,
		"TeamDrop": 0,
		"DropDisplayCount": 1,
		"Score": 200,
		"Strategy": ""
	},
	"507": {
		"ID": 507,
		"Name": "Concert Mission L55-A",
		"TeamName": "Lv55A",
		"DaysBeforeActivate": 6,
		"PlayerLevelRequired": 50,
		"MonsterLevel": 55,
		"BattleID": 50433,
		"PlayerExp": 10,
		"HeroExp": 75,
		"GoldReward": 1140,
		"EnergyCostSuccess": 10,
		"EnergyCostFail": 2,
		"EnergyCostTeam": 8,
		"RandomDrop": 0,
		"TeamDrop": 0,
		"DropDisplayCount": 1,
		"Score": 300,
		"Strategy": ""
	},
	"508": {
		"ID": 508,
		"Name": "Concert Mission L55-B",
		"TeamName": "Lv55B",
		"DaysBeforeActivate": 7,
		"PlayerLevelRequired": 50,
		"MonsterLevel": 55,
		"BattleID": 50436,
		"PlayerExp": 10,
		"HeroExp": 75,
		"GoldReward": 1140,
		"EnergyCostSuccess": 10,
		"EnergyCostFail": 2,
		"EnergyCostTeam": 8,
		"RandomDrop": 0,
		"TeamDrop": 0,
		"DropDisplayCount": 1,
		"Score": 300,
		"Strategy": ""
	},
	"509": {
		"ID": 509,
		"Name": "Concert Mission L55-C",
		"TeamName": "Lv55C",
		"DaysBeforeActivate": 8,
		"PlayerLevelRequired": 50,
		"MonsterLevel": 55,
		"BattleID": 50439,
		"PlayerExp": 10,
		"HeroExp": 75,
		"GoldReward": 1140,
		"EnergyCostSuccess": 10,
		"EnergyCostFail": 2,
		"EnergyCostTeam": 8,
		"RandomDrop": 0,
		"TeamDrop": 0,
		"DropDisplayCount": 1,
		"Score": 300,
		"Strategy": ""
	},
	"601": {
		"ID": 601,
		"Name": "Fireworks Festival Mission L35-A",
		"TeamName": "Lv35A",
		"DaysBeforeActivate": 0,
		"PlayerLevelRequired": 30,
		"MonsterLevel": 35,
		"BattleID": 50531,
		"PlayerExp": 10,
		"HeroExp": 55,
		"GoldReward": 638,
		"EnergyCostSuccess": 10,
		"EnergyCostFail": 2,
		"EnergyCostTeam": 8,
		"FirstClearDrop": [
			{
				"GoodsType": "GoodsType_Crystal",
				"Id": 0,
				"Count": 10
			},
			{
				"GoodsType": "GoodsType_Item",
				"Id": 3532,
				"Count": 3
			}
		],
		"RandomDrop": 10058,
		"TeamDrop": 0,
		"DropDisplayCount": 2,
		"Score": 0,
		"Strategy": ""
	},
	"602": {
		"ID": 602,
		"Name": "Fireworks Festival Mission L35-B",
		"TeamName": "Lv35B",
		"DaysBeforeActivate": 1,
		"PlayerLevelRequired": 30,
		"MonsterLevel": 35,
		"BattleID": 50534,
		"PlayerExp": 10,
		"HeroExp": 55,
		"GoldReward": 638,
		"EnergyCostSuccess": 10,
		"EnergyCostFail": 2,
		"EnergyCostTeam": 8,
		"FirstClearDrop": [
			{
				"GoodsType": "GoodsType_Crystal",
				"Id": 0,
				"Count": 10
			},
			{
				"GoodsType": "GoodsType_Item",
				"Id": 3533,
				"Count": 3
			}
		],
		"RandomDrop": 10059,
		"TeamDrop": 0,
		"DropDisplayCount": 2,
		"Score": 0,
		"Strategy": ""
	},
	"603": {
		"ID": 603,
		"Name": "Fireworks Festival Mission L35-C",
		"TeamName": "Lv35C",
		"DaysBeforeActivate": 2,
		"PlayerLevelRequired": 30,
		"MonsterLevel": 35,
		"BattleID": 50537,
		"PlayerExp": 10,
		"HeroExp": 55,
		"GoldReward": 638,
		"EnergyCostSuccess": 10,
		"EnergyCostFail": 2,
		"EnergyCostTeam": 8,
		"FirstClearDrop": [
			{
				"GoodsType": "GoodsType_Crystal",
				"Id": 0,
				"Count": 10
			},
			{
				"GoodsType": "GoodsType_Item",
				"Id": 3534,
				"Count": 3
			}
		],
		"RandomDrop": 10060,
		"TeamDrop": 0,
		"DropDisplayCount": 2,
		"Score": 0,
		"Strategy": ""
	},
	"604": {
		"ID": 604,
		"Name": "Fireworks Festival Mission L45-A",
		"TeamName": "Lv45A",
		"DaysBeforeActivate": 3,
		"PlayerLevelRequired": 40,
		"MonsterLevel": 45,
		"BattleID": 50532,
		"PlayerExp": 10,
		"HeroExp": 65,
		"GoldReward": 875,
		"EnergyCostSuccess": 10,
		"EnergyCostFail": 2,
		"EnergyCostTeam": 8,
		"FirstClearDrop": [
			{
				"GoodsType": "GoodsType_Crystal",
				"Id": 0,
				"Count": 10
			},
			{
				"GoodsType": "GoodsType_Item",
				"Id": 3532,
				"Count": 6
			}
		],
		"RandomDrop": 10061,
		"TeamDrop": 0,
		"DropDisplayCount": 2,
		"Score": 0,
		"Strategy": ""
	},
	"605": {
		"ID": 605,
		"Name": "Fireworks Festival Mission L45-B",
		"TeamName": "Lv45B",
		"DaysBeforeActivate": 4,
		"PlayerLevelRequired": 40,
		"MonsterLevel": 45,
		"BattleID": 50535,
		"PlayerExp": 10,
		"HeroExp": 65,
		"GoldReward": 875,
		"EnergyCostSuccess": 10,
		"EnergyCostFail": 2,
		"EnergyCostTeam": 8,
		"FirstClearDrop": [
			{
				"GoodsType": "GoodsType_Crystal",
				"Id": 0,
				"Count": 10
			},
			{
				"GoodsType": "GoodsType_Item",
				"Id": 3533,
				"Count": 6
			}
		],
		"RandomDrop": 10062,
		"TeamDrop": 0,
		"DropDisplayCount": 2,
		"Score": 0,
		"Strategy": ""
	},
	"606": {
		"ID": 606,
		"Name": "Fireworks Festival Mission L45-C",
		"TeamName": "Lv45C",
		"DaysBeforeActivate": 5,
		"PlayerLevelRequired": 40,
		"MonsterLevel": 45,
		"BattleID": 50538,
		"PlayerExp": 10,
		"HeroExp": 65,
		"GoldReward": 875,
		"EnergyCostSuccess": 10,
		"EnergyCostFail": 2,
		"EnergyCostTeam": 8,
		"FirstClearDrop": [
			{
				"GoodsType": "GoodsType_Crystal",
				"Id": 0,
				"Count": 10
			},
			{
				"GoodsType": "GoodsType_Item",
				"Id": 3534,
				"Count": 6
			}
		],
		"RandomDrop": 10063,
		"TeamDrop": 0,
		"DropDisplayCount": 2,
		"Score": 0,
		"Strategy": ""
	},
	"607": {
		"ID": 607,
		"Name": "Fireworks Festival Mission L55-A",
		"TeamName": "Lv55A",
		"DaysBeforeActivate": 6,
		"PlayerLevelRequired": 50,
		"MonsterLevel": 55,
		"BattleID": 50533,
		"PlayerExp": 10,
		"HeroExp": 75,
		"GoldReward": 1140,
		"EnergyCostSuccess": 10,
		"EnergyCostFail": 2,
		"EnergyCostTeam": 8,
		"FirstClearDrop": [
			{
				"GoodsType": "GoodsType_Crystal",
				"Id": 0,
				"Count": 10
			},
			{
				"GoodsType": "GoodsType_Item",
				"Id": 3532,
				"Count": 9
			}
		],
		"RandomDrop": 10064,
		"TeamDrop": 0,
		"DropDisplayCount": 2,
		"Score": 0,
		"Strategy": ""
	},
	"608": {
		"ID": 608,
		"Name": "Fireworks Festival Mission L55-B",
		"TeamName": "Lv55B",
		"DaysBeforeActivate": 7,
		"PlayerLevelRequired": 50,
		"MonsterLevel": 55,
		"BattleID": 50536,
		"PlayerExp": 10,
		"HeroExp": 75,
		"GoldReward": 1140,
		"EnergyCostSuccess": 10,
		"EnergyCostFail": 2,
		"EnergyCostTeam": 8,
		"FirstClearDrop": [
			{
				"GoodsType": "GoodsType_Crystal",
				"Id": 0,
				"Count": 10
			},
			{
				"GoodsType": "GoodsType_Item",
				"Id": 3533,
				"Count": 9
			}
		],
		"RandomDrop": 10065,
		"TeamDrop": 0,
		"DropDisplayCount": 2,
		"Score": 0,
		"Strategy": ""
	},
	"609": {
		"ID": 609,
		"Name": "Fireworks Festival Mission L55-C",
		"TeamName": "Lv55C",
		"DaysBeforeActivate": 8,
		"PlayerLevelRequired": 50,
		"MonsterLevel": 55,
		"BattleID": 50539,
		"PlayerExp": 10,
		"HeroExp": 75,
		"GoldReward": 1140,
		"EnergyCostSuccess": 10,
		"EnergyCostFail": 2,
		"EnergyCostTeam": 8,
		"FirstClearDrop": [
			{
				"GoodsType": "GoodsType_Crystal",
				"Id": 0,
				"Count": 10
			},
			{
				"GoodsType": "GoodsType_Item",
				"Id": 3534,
				"Count": 9
			}
		],
		"RandomDrop": 10066,
		"TeamDrop": 0,
		"DropDisplayCount": 2,
		"Score": 0,
		"Strategy": ""
	},
	"701": {
		"ID": 701,
		"Name": "Mania Mission L35-A",
		"TeamName": "Lv35A",
		"DaysBeforeActivate": 0,
		"PlayerLevelRequired": 30,
		"MonsterLevel": 35,
		"BattleID": 50731,
		"PlayerExp": 10,
		"HeroExp": 55,
		"GoldReward": 638,
		"EnergyCostSuccess": 10,
		"EnergyCostFail": 2,
		"EnergyCostTeam": 8,
		"FirstClearDrop": [
			{
				"GoodsType": "GoodsType_Crystal",
				"Id": 0,
				"Count": 10
			},
			{
				"GoodsType": "GoodsType_Item",
				"Id": 3536,
				"Count": 3
			}
		],
		"RandomDrop": 10067,
		"TeamDrop": 0,
		"DropDisplayCount": 2,
		"Score": 0,
		"Strategy": ""
	},
	"702": {
		"ID": 702,
		"Name": "Mania Mission L35-B",
		"TeamName": "Lv35B",
		"DaysBeforeActivate": 0,
		"PlayerLevelRequired": 30,
		"MonsterLevel": 35,
		"BattleID": 50734,
		"PlayerExp": 10,
		"HeroExp": 55,
		"GoldReward": 638,
		"EnergyCostSuccess": 10,
		"EnergyCostFail": 2,
		"EnergyCostTeam": 8,
		"FirstClearDrop": [
			{
				"GoodsType": "GoodsType_Crystal",
				"Id": 0,
				"Count": 10
			},
			{
				"GoodsType": "GoodsType_Item",
				"Id": 3538,
				"Count": 3
			}
		],
		"RandomDrop": 10068,
		"TeamDrop": 0,
		"DropDisplayCount": 2,
		"Score": 0,
		"Strategy": ""
	},
	"703": {
		"ID": 703,
		"Name": "Mania Mission L35-C",
		"TeamName": "Lv35C",
		"DaysBeforeActivate": 0,
		"PlayerLevelRequired": 30,
		"MonsterLevel": 35,
		"BattleID": 50737,
		"PlayerExp": 10,
		"HeroExp": 55,
		"GoldReward": 638,
		"EnergyCostSuccess": 10,
		"EnergyCostFail": 2,
		"EnergyCostTeam": 8,
		"FirstClearDrop": [
			{
				"GoodsType": "GoodsType_Crystal",
				"Id": 0,
				"Count": 10
			},
			{
				"GoodsType": "GoodsType_Item",
				"Id": 3537,
				"Count": 3
			}
		],
		"RandomDrop": 10069,
		"TeamDrop": 0,
		"DropDisplayCount": 2,
		"Score": 0,
		"Strategy": ""
	},
	"704": {
		"ID": 704,
		"Name": "Mania Mission L35-D",
		"TeamName": "Lv35D",
		"DaysBeforeActivate": 0,
		"PlayerLevelRequired": 30,
		"MonsterLevel": 35,
		"BattleID": 50740,
		"PlayerExp": 10,
		"HeroExp": 55,
		"GoldReward": 638,
		"EnergyCostSuccess": 10,
		"EnergyCostFail": 2,
		"EnergyCostTeam": 8,
		"FirstClearDrop": [
			{
				"GoodsType": "GoodsType_Crystal",
				"Id": 0,
				"Count": 10
			},
			{
				"GoodsType": "GoodsType_Item",
				"Id": 3535,
				"Count": 3
			}
		],
		"RandomDrop": 10070,
		"TeamDrop": 0,
		"DropDisplayCount": 2,
		"Score": 0,
		"Strategy": ""
	},
	"705": {
		"ID": 705,
		"Name": "Mania Mission L45-A",
		"TeamName": "Lv45A",
		"DaysBeforeActivate": 2,
		"PlayerLevelRequired": 40,
		"MonsterLevel": 45,
		"BattleID": 50732,
		"PlayerExp": 10,
		"HeroExp": 65,
		"GoldReward": 875,
		"EnergyCostSuccess": 10,
		"EnergyCostFail": 2,
		"EnergyCostTeam": 8,
		"FirstClearDrop": [
			{
				"GoodsType": "GoodsType_Crystal",
				"Id": 0,
				"Count": 10
			},
			{
				"GoodsType": "GoodsType_Item",
				"Id": 3536,
				"Count": 6
			}
		],
		"RandomDrop": 10071,
		"TeamDrop": 0,
		"DropDisplayCount": 2,
		"Score": 0,
		"Strategy": ""
	},
	"706": {
		"ID": 706,
		"Name": "Mania Mission L45-B",
		"TeamName": "Lv45B",
		"DaysBeforeActivate": 2,
		"PlayerLevelRequired": 40,
		"MonsterLevel": 45,
		"BattleID": 50735,
		"PlayerExp": 10,
		"HeroExp": 65,
		"GoldReward": 875,
		"EnergyCostSuccess": 10,
		"EnergyCostFail": 2,
		"EnergyCostTeam": 8,
		"FirstClearDrop": [
			{
				"GoodsType": "GoodsType_Crystal",
				"Id": 0,
				"Count": 10
			},
			{
				"GoodsType": "GoodsType_Item",
				"Id": 3538,
				"Count": 6
			}
		],
		"RandomDrop": 10072,
		"TeamDrop": 0,
		"DropDisplayCount": 2,
		"Score": 0,
		"Strategy": ""
	},
	"707": {
		"ID": 707,
		"Name": "Mania Mission L45-C",
		"TeamName": "Lv45C",
		"DaysBeforeActivate": 2,
		"PlayerLevelRequired": 40,
		"MonsterLevel": 45,
		"BattleID": 50738,
		"PlayerExp": 10,
		"HeroExp": 65,
		"GoldReward": 875,
		"EnergyCostSuccess": 10,
		"EnergyCostFail": 2,
		"EnergyCostTeam": 8,
		"FirstClearDrop": [
			{
				"GoodsType": "GoodsType_Crystal",
				"Id": 0,
				"Count": 10
			},
			{
				"GoodsType": "GoodsType_Item",
				"Id": 3537,
				"Count": 6
			}
		],
		"RandomDrop": 10073,
		"TeamDrop": 0,
		"DropDisplayCount": 2,
		"Score": 0,
		"Strategy": ""
	},
	"708": {
		"ID": 708,
		"Name": "Mania Mission L45-D",
		"TeamName": "Lv45D",
		"DaysBeforeActivate": 2,
		"PlayerLevelRequired": 40,
		"MonsterLevel": 45,
		"BattleID": 50741,
		"PlayerExp": 10,
		"HeroExp": 65,
		"GoldReward": 875,
		"EnergyCostSuccess": 10,
		"EnergyCostFail": 2,
		"EnergyCostTeam": 8,
		"FirstClearDrop": [
			{
				"GoodsType": "GoodsType_Crystal",
				"Id": 0,
				"Count": 10
			},
			{
				"GoodsType": "GoodsType_Item",
				"Id": 3535,
				"Count": 6
			}
		],
		"RandomDrop": 10074,
		"TeamDrop": 0,
		"DropDisplayCount": 2,
		"Score": 0,
		"Strategy": ""
	},
	"709": {
		"ID": 709,
		"Name": "Mania Mission L55-A",
		"TeamName": "Lv55A",
		"DaysBeforeActivate": 4,
		"PlayerLevelRequired": 50,
		"MonsterLevel": 55,
		"BattleID": 50733,
		"PlayerExp": 10,
		"HeroExp": 75,
		"GoldReward": 1140,
		"EnergyCostSuccess": 10,
		"EnergyCostFail": 2,
		"EnergyCostTeam": 8,
		"FirstClearDrop": [
			{
				"GoodsType": "GoodsType_Crystal",
				"Id": 0,
				"Count": 10
			},
			{
				"GoodsType": "GoodsType_Item",
				"Id": 3536,
				"Count": 9
			}
		],
		"RandomDrop": 10075,
		"TeamDrop": 0,
		"DropDisplayCount": 2,
		"Score": 0,
		"Strategy": ""
	},
	"710": {
		"ID": 710,
		"Name": "Mania Mission L55-B",
		"TeamName": "Lv55B",
		"DaysBeforeActivate": 4,
		"PlayerLevelRequired": 50,
		"MonsterLevel": 55,
		"BattleID": 50736,
		"PlayerExp": 10,
		"HeroExp": 75,
		"GoldReward": 1140,
		"EnergyCostSuccess": 10,
		"EnergyCostFail": 2,
		"EnergyCostTeam": 8,
		"FirstClearDrop": [
			{
				"GoodsType": "GoodsType_Crystal",
				"Id": 0,
				"Count": 10
			},
			{
				"GoodsType": "GoodsType_Item",
				"Id": 3538,
				"Count": 9
			}
		],
		"RandomDrop": 10076,
		"TeamDrop": 0,
		"DropDisplayCount": 2,
		"Score": 0,
		"Strategy": ""
	},
	"711": {
		"ID": 711,
		"Name": "Mania Mission L55-C",
		"TeamName": "Lv55C",
		"DaysBeforeActivate": 4,
		"PlayerLevelRequired": 50,
		"MonsterLevel": 55,
		"BattleID": 50739,
		"PlayerExp": 10,
		"HeroExp": 75,
		"GoldReward": 1140,
		"EnergyCostSuccess": 10,
		"EnergyCostFail": 2,
		"EnergyCostTeam": 8,
		"FirstClearDrop": [
			{
				"GoodsType": "GoodsType_Crystal",
				"Id": 0,
				"Count": 10
			},
			{
				"GoodsType": "GoodsType_Item",
				"Id": 3537,
				"Count": 9
			}
		],
		"RandomDrop": 10077,
		"TeamDrop": 0,
		"DropDisplayCount": 2,
		"Score": 0,
		"Strategy": ""
	},
	"712": {
		"ID": 712,
		"Name": "Mania Mission L55-D",
		"TeamName": "Lv55D",
		"DaysBeforeActivate": 4,
		"PlayerLevelRequired": 50,
		"MonsterLevel": 55,
		"BattleID": 50742,
		"PlayerExp": 10,
		"HeroExp": 75,
		"GoldReward": 1140,
		"EnergyCostSuccess": 10,
		"EnergyCostFail": 2,
		"EnergyCostTeam": 8,
		"FirstClearDrop": [
			{
				"GoodsType": "GoodsType_Crystal",
				"Id": 0,
				"Count": 10
			},
			{
				"GoodsType": "GoodsType_Item",
				"Id": 3535,
				"Count": 9
			}
		],
		"RandomDrop": 10078,
		"TeamDrop": 0,
		"DropDisplayCount": 2,
		"Score": 0,
		"Strategy": ""
	},
	"713": {
		"ID": 713,
		"Name": "Mania Mission L55-E",
		"TeamName": "Lv55E",
		"DaysBeforeActivate": 6,
		"PlayerLevelRequired": 50,
		"MonsterLevel": 55,
		"BattleID": 50743,
		"PlayerExp": 10,
		"HeroExp": 75,
		"GoldReward": 1140,
		"EnergyCostSuccess": 10,
		"EnergyCostFail": 2,
		"EnergyCostTeam": 8,
		"FirstClearDrop": [
			{
				"GoodsType": "GoodsType_Crystal",
				"Id": 0,
				"Count": 10
			},
			{
				"GoodsType": "GoodsType_Item",
				"Id": 3536,
				"Count": 8
			},
			{
				"GoodsType": "GoodsType_Item",
				"Id": 3538,
				"Count": 8
			}
		],
		"RandomDrop": 10079,
		"TeamDrop": 0,
		"DropDisplayCount": 3,
		"Score": 0,
		"Strategy": ""
	},
	"714": {
		"ID": 714,
		"Name": "Mania Mission L55-F",
		"TeamName": "Lv55F",
		"DaysBeforeActivate": 6,
		"PlayerLevelRequired": 50,
		"MonsterLevel": 55,
		"BattleID": 50744,
		"PlayerExp": 10,
		"HeroExp": 75,
		"GoldReward": 1140,
		"EnergyCostSuccess": 10,
		"EnergyCostFail": 2,
		"EnergyCostTeam": 8,
		"FirstClearDrop": [
			{
				"GoodsType": "GoodsType_Crystal",
				"Id": 0,
				"Count": 10
			},
			{
				"GoodsType": "GoodsType_Item",
				"Id": 3537,
				"Count": 8
			},
			{
				"GoodsType": "GoodsType_Item",
				"Id": 3535,
				"Count": 8
			}
		],
		"RandomDrop": 10080,
		"TeamDrop": 0,
		"DropDisplayCount": 3,
		"Score": 0,
		"Strategy": ""
	},
	"715": {
		"ID": 715,
		"Name": "Mania Mission L55-G",
		"TeamName": "Lv55G",
		"DaysBeforeActivate": 6,
		"PlayerLevelRequired": 50,
		"MonsterLevel": 55,
		"BattleID": 50745,
		"PlayerExp": 10,
		"HeroExp": 75,
		"GoldReward": 1140,
		"EnergyCostSuccess": 10,
		"EnergyCostFail": 2,
		"EnergyCostTeam": 8,
		"FirstClearDrop": [
			{
				"GoodsType": "GoodsType_Crystal",
				"Id": 0,
				"Count": 10
			},
			{
				"GoodsType": "GoodsType_Item",
				"Id": 3538,
				"Count": 8
			},
			{
				"GoodsType": "GoodsType_Item",
				"Id": 3537,
				"Count": 8
			}
		],
		"RandomDrop": 10081,
		"TeamDrop": 0,
		"DropDisplayCount": 3,
		"Score": 0,
		"Strategy": ""
	},
	"716": {
		"ID": 716,
		"Name": "Mania Mission L55-H",
		"TeamName": "Lv55H",
		"DaysBeforeActivate": 6,
		"PlayerLevelRequired": 50,
		"MonsterLevel": 55,
		"BattleID": 50746,
		"PlayerExp": 10,
		"HeroExp": 75,
		"GoldReward": 1140,
		"EnergyCostSuccess": 10,
		"EnergyCostFail": 2,
		"EnergyCostTeam": 8,
		"FirstClearDrop": [
			{
				"GoodsType": "GoodsType_Crystal",
				"Id": 0,
				"Count": 10
			},
			{
				"GoodsType": "GoodsType_Item",
				"Id": 3535,
				"Count": 8
			},
			{
				"GoodsType": "GoodsType_Item",
				"Id": 3536,
				"Count": 8
			}
		],
		"RandomDrop": 10082,
		"TeamDrop": 0,
		"DropDisplayCount": 3,
		"Score": 0,
		"Strategy": ""
	},
	"801": {
		"ID": 801,
		"Name": "少女任务L35-A",
		"TeamName": "Lv35A",
		"DaysBeforeActivate": 0,
		"PlayerLevelRequired": 30,
		"MonsterLevel": 35,
		"BattleID": 50831,
		"PlayerExp": 10,
		"HeroExp": 55,
		"GoldReward": 638,
		"EnergyCostSuccess": 10,
		"EnergyCostFail": 2,
		"EnergyCostTeam": 8,
		"RandomDrop": 0,
		"TeamDrop": 0,
		"DropDisplayCount": 1,
		"Score": 100,
		"Strategy": ""
	},
	"802": {
		"ID": 802,
		"Name": "少女任务L35-B",
		"TeamName": "Lv35B",
		"DaysBeforeActivate": 1,
		"PlayerLevelRequired": 30,
		"MonsterLevel": 35,
		"BattleID": 50834,
		"PlayerExp": 10,
		"HeroExp": 55,
		"GoldReward": 638,
		"EnergyCostSuccess": 10,
		"EnergyCostFail": 2,
		"EnergyCostTeam": 8,
		"RandomDrop": 0,
		"TeamDrop": 0,
		"DropDisplayCount": 1,
		"Score": 100,
		"Strategy": ""
	},
	"803": {
		"ID": 803,
		"Name": "少女任务L35-C",
		"TeamName": "Lv35C",
		"DaysBeforeActivate": 2,
		"PlayerLevelRequired": 30,
		"MonsterLevel": 35,
		"BattleID": 50837,
		"PlayerExp": 10,
		"HeroExp": 55,
		"GoldReward": 638,
		"EnergyCostSuccess": 10,
		"EnergyCostFail": 2,
		"EnergyCostTeam": 8,
		"RandomDrop": 0,
		"TeamDrop": 0,
		"DropDisplayCount": 1,
		"Score": 100,
		"Strategy": ""
	},
	"804": {
		"ID": 804,
		"Name": "少女任务L45-A",
		"TeamName": "Lv45A",
		"DaysBeforeActivate": 3,
		"PlayerLevelRequired": 40,
		"MonsterLevel": 45,
		"BattleID": 50832,
		"PlayerExp": 10,
		"HeroExp": 65,
		"GoldReward": 875,
		"EnergyCostSuccess": 10,
		"EnergyCostFail": 2,
		"EnergyCostTeam": 8,
		"RandomDrop": 0,
		"TeamDrop": 0,
		"DropDisplayCount": 1,
		"Score": 200,
		"Strategy": ""
	},
	"805": {
		"ID": 805,
		"Name": "少女任务L45-B",
		"TeamName": "Lv45B",
		"DaysBeforeActivate": 4,
		"PlayerLevelRequired": 40,
		"MonsterLevel": 45,
		"BattleID": 50835,
		"PlayerExp": 10,
		"HeroExp": 65,
		"GoldReward": 875,
		"EnergyCostSuccess": 10,
		"EnergyCostFail": 2,
		"EnergyCostTeam": 8,
		"RandomDrop": 0,
		"TeamDrop": 0,
		"DropDisplayCount": 1,
		"Score": 200,
		"Strategy": ""
	},
	"806": {
		"ID": 806,
		"Name": "少女任务L45-C",
		"TeamName": "Lv45C",
		"DaysBeforeActivate": 5,
		"PlayerLevelRequired": 40,
		"MonsterLevel": 45,
		"BattleID": 50838,
		"PlayerExp": 10,
		"HeroExp": 65,
		"GoldReward": 875,
		"EnergyCostSuccess": 10,
		"EnergyCostFail": 2,
		"EnergyCostTeam": 8,
		"RandomDrop": 0,
		"TeamDrop": 0,
		"DropDisplayCount": 1,
		"Score": 200,
		"Strategy": ""
	},
	"807": {
		"ID": 807,
		"Name": "少女任务L55-A",
		"TeamName": "Lv55A",
		"DaysBeforeActivate": 6,
		"PlayerLevelRequired": 50,
		"MonsterLevel": 55,
		"BattleID": 50833,
		"PlayerExp": 10,
		"HeroExp": 75,
		"GoldReward": 1140,
		"EnergyCostSuccess": 10,
		"EnergyCostFail": 2,
		"EnergyCostTeam": 8,
		"RandomDrop": 0,
		"TeamDrop": 0,
		"DropDisplayCount": 1,
		"Score": 300,
		"Strategy": ""
	},
	"808": {
		"ID": 808,
		"Name": "少女任务L55-B",
		"TeamName": "Lv55B",
		"DaysBeforeActivate": 7,
		"PlayerLevelRequired": 50,
		"MonsterLevel": 55,
		"BattleID": 50836,
		"PlayerExp": 10,
		"HeroExp": 75,
		"GoldReward": 1140,
		"EnergyCostSuccess": 10,
		"EnergyCostFail": 2,
		"EnergyCostTeam": 8,
		"RandomDrop": 0,
		"TeamDrop": 0,
		"DropDisplayCount": 1,
		"Score": 300,
		"Strategy": ""
	},
	"809": {
		"ID": 809,
		"Name": "少女任务L55-C",
		"TeamName": "Lv55C",
		"DaysBeforeActivate": 8,
		"PlayerLevelRequired": 50,
		"MonsterLevel": 55,
		"BattleID": 50839,
		"PlayerExp": 10,
		"HeroExp": 75,
		"GoldReward": 1140,
		"EnergyCostSuccess": 10,
		"EnergyCostFail": 2,
		"EnergyCostTeam": 8,
		"RandomDrop": 0,
		"TeamDrop": 0,
		"DropDisplayCount": 1,
		"Score": 300,
		"Strategy": ""
	},
	"901": {
		"ID": 901,
		"Name": "万灵任务L35-A",
		"TeamName": "Lv35A",
		"DaysBeforeActivate": 0,
		"PlayerLevelRequired": 30,
		"MonsterLevel": 35,
		"BattleID": 51031,
		"PlayerExp": 10,
		"HeroExp": 55,
		"GoldReward": 638,
		"EnergyCostSuccess": 10,
		"EnergyCostFail": 2,
		"EnergyCostTeam": 8,
		"FirstClearDrop": [
			{
				"GoodsType": "GoodsType_Crystal",
				"Id": 0,
				"Count": 10
			},
			{
				"GoodsType": "GoodsType_Item",
				"Id": 3539,
				"Count": 3
			}
		],
		"RandomDrop": 10083,
		"TeamDrop": 0,
		"DropDisplayCount": 2,
		"Score": 0,
		"Strategy": ""
	},
	"902": {
		"ID": 902,
		"Name": "万灵任务L35-B",
		"TeamName": "Lv35B",
		"DaysBeforeActivate": 1,
		"PlayerLevelRequired": 30,
		"MonsterLevel": 35,
		"BattleID": 51034,
		"PlayerExp": 10,
		"HeroExp": 55,
		"GoldReward": 638,
		"EnergyCostSuccess": 10,
		"EnergyCostFail": 2,
		"EnergyCostTeam": 8,
		"FirstClearDrop": [
			{
				"GoodsType": "GoodsType_Crystal",
				"Id": 0,
				"Count": 10
			},
			{
				"GoodsType": "GoodsType_Item",
				"Id": 3540,
				"Count": 3
			}
		],
		"RandomDrop": 10084,
		"TeamDrop": 0,
		"DropDisplayCount": 2,
		"Score": 0,
		"Strategy": ""
	},
	"903": {
		"ID": 903,
		"Name": "万灵任务L35-C",
		"TeamName": "Lv35C",
		"DaysBeforeActivate": 2,
		"PlayerLevelRequired": 30,
		"MonsterLevel": 35,
		"BattleID": 51037,
		"PlayerExp": 10,
		"HeroExp": 55,
		"GoldReward": 638,
		"EnergyCostSuccess": 10,
		"EnergyCostFail": 2,
		"EnergyCostTeam": 8,
		"FirstClearDrop": [
			{
				"GoodsType": "GoodsType_Crystal",
				"Id": 0,
				"Count": 10
			},
			{
				"GoodsType": "GoodsType_Item",
				"Id": 3541,
				"Count": 3
			}
		],
		"RandomDrop": 10085,
		"TeamDrop": 0,
		"DropDisplayCount": 2,
		"Score": 0,
		"Strategy": ""
	},
	"904": {
		"ID": 904,
		"Name": "万灵任务L45-A",
		"TeamName": "Lv45A",
		"DaysBeforeActivate": 3,
		"PlayerLevelRequired": 40,
		"MonsterLevel": 45,
		"BattleID": 51032,
		"PlayerExp": 10,
		"HeroExp": 65,
		"GoldReward": 875,
		"EnergyCostSuccess": 10,
		"EnergyCostFail": 2,
		"EnergyCostTeam": 8,
		"FirstClearDrop": [
			{
				"GoodsType": "GoodsType_Crystal",
				"Id": 0,
				"Count": 10
			},
			{
				"GoodsType": "GoodsType_Item",
				"Id": 3539,
				"Count": 6
			}
		],
		"RandomDrop": 10086,
		"TeamDrop": 0,
		"DropDisplayCount": 2,
		"Score": 0,
		"Strategy": ""
	},
	"905": {
		"ID": 905,
		"Name": "万灵任务L45-B",
		"TeamName": "Lv45B",
		"DaysBeforeActivate": 4,
		"PlayerLevelRequired": 40,
		"MonsterLevel": 45,
		"BattleID": 51035,
		"PlayerExp": 10,
		"HeroExp": 65,
		"GoldReward": 875,
		"EnergyCostSuccess": 10,
		"EnergyCostFail": 2,
		"EnergyCostTeam": 8,
		"FirstClearDrop": [
			{
				"GoodsType": "GoodsType_Crystal",
				"Id": 0,
				"Count": 10
			},
			{
				"GoodsType": "GoodsType_Item",
				"Id": 3540,
				"Count": 6
			}
		],
		"RandomDrop": 10087,
		"TeamDrop": 0,
		"DropDisplayCount": 2,
		"Score": 0,
		"Strategy": ""
	},
	"906": {
		"ID": 906,
		"Name": "万灵任务L45-C",
		"TeamName": "Lv45C",
		"DaysBeforeActivate": 5,
		"PlayerLevelRequired": 40,
		"MonsterLevel": 45,
		"BattleID": 51038,
		"PlayerExp": 10,
		"HeroExp": 65,
		"GoldReward": 875,
		"EnergyCostSuccess": 10,
		"EnergyCostFail": 2,
		"EnergyCostTeam": 8,
		"FirstClearDrop": [
			{
				"GoodsType": "GoodsType_Crystal",
				"Id": 0,
				"Count": 10
			},
			{
				"GoodsType": "GoodsType_Item",
				"Id": 3541,
				"Count": 6
			}
		],
		"RandomDrop": 10088,
		"TeamDrop": 0,
		"DropDisplayCount": 2,
		"Score": 0,
		"Strategy": ""
	},
	"907": {
		"ID": 907,
		"Name": "万灵任务L55-A",
		"TeamName": "Lv55A",
		"DaysBeforeActivate": 6,
		"PlayerLevelRequired": 50,
		"MonsterLevel": 55,
		"BattleID": 51033,
		"PlayerExp": 10,
		"HeroExp": 75,
		"GoldReward": 1140,
		"EnergyCostSuccess": 10,
		"EnergyCostFail": 2,
		"EnergyCostTeam": 8,
		"FirstClearDrop": [
			{
				"GoodsType": "GoodsType_Crystal",
				"Id": 0,
				"Count": 10
			},
			{
				"GoodsType": "GoodsType_Item",
				"Id": 3539,
				"Count": 9
			}
		],
		"RandomDrop": 10089,
		"TeamDrop": 0,
		"DropDisplayCount": 2,
		"Score": 0,
		"Strategy": ""
	},
	"908": {
		"ID": 908,
		"Name": "万灵任务L55-B",
		"TeamName": "Lv55B",
		"DaysBeforeActivate": 7,
		"PlayerLevelRequired": 50,
		"MonsterLevel": 55,
		"BattleID": 51036,
		"PlayerExp": 10,
		"HeroExp": 75,
		"GoldReward": 1140,
		"EnergyCostSuccess": 10,
		"EnergyCostFail": 2,
		"EnergyCostTeam": 8,
		"FirstClearDrop": [
			{
				"GoodsType": "GoodsType_Crystal",
				"Id": 0,
				"Count": 10
			},
			{
				"GoodsType": "GoodsType_Item",
				"Id": 3540,
				"Count": 9
			}
		],
		"RandomDrop": 10090,
		"TeamDrop": 0,
		"DropDisplayCount": 2,
		"Score": 0,
		"Strategy": ""
	},
	"909": {
		"ID": 909,
		"Name": "万灵任务L55-C",
		"TeamName": "Lv55C",
		"DaysBeforeActivate": 8,
		"PlayerLevelRequired": 50,
		"MonsterLevel": 55,
		"BattleID": 51039,
		"PlayerExp": 10,
		"HeroExp": 75,
		"GoldReward": 1140,
		"EnergyCostSuccess": 10,
		"EnergyCostFail": 2,
		"EnergyCostTeam": 8,
		"FirstClearDrop": [
			{
				"GoodsType": "GoodsType_Crystal",
				"Id": 0,
				"Count": 10
			},
			{
				"GoodsType": "GoodsType_Item",
				"Id": 3541,
				"Count": 9
			}
		],
		"RandomDrop": 10091,
		"TeamDrop": 0,
		"DropDisplayCount": 2,
		"Score": 0,
		"Strategy": ""
	},
	"1001": {
		"ID": 1001,
		"Name": "罗德斯岛任务L35-A",
		"TeamName": "Lv35A",
		"DaysBeforeActivate": 0,
		"PlayerLevelRequired": 30,
		"MonsterLevel": 35,
		"BattleID": 52031,
		"PlayerExp": 10,
		"HeroExp": 55,
		"GoldReward": 638,
		"EnergyCostSuccess": 10,
		"EnergyCostFail": 2,
		"EnergyCostTeam": 8,
		"RandomDrop": 0,
		"TeamDrop": 0,
		"DropDisplayCount": 1,
		"Score": 100,
		"Strategy": ""
	},
	"1002": {
		"ID": 1002,
		"Name": "罗德斯岛任务L35-B",
		"TeamName": "Lv35B",
		"DaysBeforeActivate": 1,
		"PlayerLevelRequired": 30,
		"MonsterLevel": 35,
		"BattleID": 52034,
		"PlayerExp": 10,
		"HeroExp": 55,
		"GoldReward": 638,
		"EnergyCostSuccess": 10,
		"EnergyCostFail": 2,
		"EnergyCostTeam": 8,
		"RandomDrop": 0,
		"TeamDrop": 0,
		"DropDisplayCount": 1,
		"Score": 100,
		"Strategy": ""
	},
	"1003": {
		"ID": 1003,
		"Name": "罗德斯岛任务L35-C",
		"TeamName": "Lv35C",
		"DaysBeforeActivate": 2,
		"PlayerLevelRequired": 30,
		"MonsterLevel": 35,
		"BattleID": 52037,
		"PlayerExp": 10,
		"HeroExp": 55,
		"GoldReward": 638,
		"EnergyCostSuccess": 10,
		"EnergyCostFail": 2,
		"EnergyCostTeam": 8,
		"RandomDrop": 0,
		"TeamDrop": 0,
		"DropDisplayCount": 1,
		"Score": 100,
		"Strategy": ""
	},
	"1004": {
		"ID": 1004,
		"Name": "罗德斯岛任务L45-A",
		"TeamName": "Lv45A",
		"DaysBeforeActivate": 3,
		"PlayerLevelRequired": 40,
		"MonsterLevel": 45,
		"BattleID": 52032,
		"PlayerExp": 10,
		"HeroExp": 65,
		"GoldReward": 875,
		"EnergyCostSuccess": 10,
		"EnergyCostFail": 2,
		"EnergyCostTeam": 8,
		"RandomDrop": 0,
		"TeamDrop": 0,
		"DropDisplayCount": 1,
		"Score": 200,
		"Strategy": ""
	},
	"1005": {
		"ID": 1005,
		"Name": "罗德斯岛任务L45-B",
		"TeamName": "Lv45B",
		"DaysBeforeActivate": 4,
		"PlayerLevelRequired": 40,
		"MonsterLevel": 45,
		"BattleID": 52035,
		"PlayerExp": 10,
		"HeroExp": 65,
		"GoldReward": 875,
		"EnergyCostSuccess": 10,
		"EnergyCostFail": 2,
		"EnergyCostTeam": 8,
		"RandomDrop": 0,
		"TeamDrop": 0,
		"DropDisplayCount": 1,
		"Score": 200,
		"Strategy": ""
	},
	"1006": {
		"ID": 1006,
		"Name": "罗德斯岛任务L45-C",
		"TeamName": "Lv45C",
		"DaysBeforeActivate": 5,
		"PlayerLevelRequired": 40,
		"MonsterLevel": 45,
		"BattleID": 52038,
		"PlayerExp": 10,
		"HeroExp": 65,
		"GoldReward": 875,
		"EnergyCostSuccess": 10,
		"EnergyCostFail": 2,
		"EnergyCostTeam": 8,
		"RandomDrop": 0,
		"TeamDrop": 0,
		"DropDisplayCount": 1,
		"Score": 200,
		"Strategy": ""
	},
	"1007": {
		"ID": 1007,
		"Name": "罗德斯岛任务L55-A",
		"TeamName": "Lv55A",
		"DaysBeforeActivate": 6,
		"PlayerLevelRequired": 50,
		"MonsterLevel": 55,
		"BattleID": 52033,
		"PlayerExp": 10,
		"HeroExp": 75,
		"GoldReward": 1140,
		"EnergyCostSuccess": 10,
		"EnergyCostFail": 2,
		"EnergyCostTeam": 8,
		"RandomDrop": 0,
		"TeamDrop": 0,
		"DropDisplayCount": 1,
		"Score": 300,
		"Strategy": ""
	},
	"1008": {
		"ID": 1008,
		"Name": "罗德斯岛任务L55-B",
		"TeamName": "Lv55B",
		"DaysBeforeActivate": 7,
		"PlayerLevelRequired": 50,
		"MonsterLevel": 55,
		"BattleID": 52036,
		"PlayerExp": 10,
		"HeroExp": 75,
		"GoldReward": 1140,
		"EnergyCostSuccess": 10,
		"EnergyCostFail": 2,
		"EnergyCostTeam": 8,
		"RandomDrop": 0,
		"TeamDrop": 0,
		"DropDisplayCount": 1,
		"Score": 300,
		"Strategy": ""
	},
	"1009": {
		"ID": 1009,
		"Name": "罗德斯岛任务L55-C",
		"TeamName": "Lv55C",
		"DaysBeforeActivate": 8,
		"PlayerLevelRequired": 50,
		"MonsterLevel": 55,
		"BattleID": 52039,
		"PlayerExp": 10,
		"HeroExp": 75,
		"GoldReward": 1140,
		"EnergyCostSuccess": 10,
		"EnergyCostFail": 2,
		"EnergyCostTeam": 8,
		"RandomDrop": 0,
		"TeamDrop": 0,
		"DropDisplayCount": 1,
		"Score": 300,
		"Strategy": ""
	}
}