{
	"1": {
		"ID": 1,
		"Name": "Easy",
		"Desc": "Requirements \n<color=red>20</color> guild members reach <color=red>Lv.30</color>.",
		"SuggestedLevel": "30-40",
		"Requirements": [
			{
				"Level": 30,
				"Members": 20
			}
		],
		"StrongholdList": [
			1,
			2,
			3,
			4,
			5
		],
		"RewardsInfo": [
			{
				"Id": 1,
				"Percent": 2000
			},
			{
				"Id": 2,
				"Percent": 4000
			},
			{
				"Id": 3,
				"Percent": 6000
			},
			{
				"Id": 4,
				"Percent": 8000
			},
			{
				"Id": 5,
				"Percent": 10000
			}
		],
		"BonusGuildCoins": 1200,
		"IndividualPointsRewardsGroupID": 1,
		"StrongholdRewardMailTemplateId": 117,
		"IndividualRewardMailTemplateId": 118
	},
	"2": {
		"ID": 2,
		"Name": "Normal",
		"Desc": "Requirements \n<color=red>20</color> guild members reach <color=red>Lv.40</color>.",
		"SuggestedLevel": "35-45",
		"Requirements": [
			{
				"Level": 40,
				"Members": 20
			}
		],
		"StrongholdList": [
			11,
			12,
			13,
			14,
			15
		],
		"RewardsInfo": [
			{
				"Id": 6,
				"Percent": 2000
			},
			{
				"Id": 7,
				"Percent": 4000
			},
			{
				"Id": 8,
				"Percent": 6000
			},
			{
				"Id": 9,
				"Percent": 8000
			},
			{
				"Id": 10,
				"Percent": 10000
			}
		],
		"BonusGuildCoins": 1500,
		"IndividualPointsRewardsGroupID": 2,
		"StrongholdRewardMailTemplateId": 117,
		"IndividualRewardMailTemplateId": 118
	},
	"3": {
		"ID": 3,
		"Name": "Hard",
		"Desc": "Requirements \n<color=red>20</color> guild members reach <color=red>Lv.45</color>.",
		"SuggestedLevel": "40-50",
		"Requirements": [
			{
				"Level": 45,
				"Members": 20
			}
		],
		"StrongholdList": [
			21,
			22,
			23,
			24,
			25
		],
		"RewardsInfo": [
			{
				"Id": 11,
				"Percent": 2000
			},
			{
				"Id": 12,
				"Percent": 4000
			},
			{
				"Id": 13,
				"Percent": 6000
			},
			{
				"Id": 14,
				"Percent": 8000
			},
			{
				"Id": 15,
				"Percent": 10000
			}
		],
		"BonusGuildCoins": 2250,
		"IndividualPointsRewardsGroupID": 3,
		"StrongholdRewardMailTemplateId": 117,
		"IndividualRewardMailTemplateId": 118
	},
	"4": {
		"ID": 4,
		"Name": "Very Hard",
		"Desc": "Requirements \n<color=red>20</color> guild members reach <color=red>Lv.50</color>.",
		"SuggestedLevel": "45-55",
		"Requirements": [
			{
				"Level": 50,
				"Members": 20
			}
		],
		"StrongholdList": [
			31,
			32,
			33,
			34,
			35
		],
		"RewardsInfo": [
			{
				"Id": 16,
				"Percent": 2000
			},
			{
				"Id": 17,
				"Percent": 4000
			},
			{
				"Id": 18,
				"Percent": 6000
			},
			{
				"Id": 19,
				"Percent": 8000
			},
			{
				"Id": 20,
				"Percent": 10000
			}
		],
		"BonusGuildCoins": 3000,
		"IndividualPointsRewardsGroupID": 4,
		"StrongholdRewardMailTemplateId": 117,
		"IndividualRewardMailTemplateId": 118
	},
	"5": {
		"ID": 5,
		"Name": "Nightmare",
		"Desc": "Requirements \n<color=red>20</color> guild members reach <color=red>Lv.55</color>.",
		"SuggestedLevel": "50-60",
		"Requirements": [
			{
				"Level": 55,
				"Members": 20
			}
		],
		"StrongholdList": [
			41,
			42,
			43,
			44,
			45
		],
		"RewardsInfo": [
			{
				"Id": 21,
				"Percent": 2000
			},
			{
				"Id": 22,
				"Percent": 4000
			},
			{
				"Id": 23,
				"Percent": 6000
			},
			{
				"Id": 24,
				"Percent": 8000
			},
			{
				"Id": 25,
				"Percent": 10000
			}
		],
		"BonusGuildCoins": 3750,
		"IndividualPointsRewardsGroupID": 5,
		"StrongholdRewardMailTemplateId": 117,
		"IndividualRewardMailTemplateId": 118
	},
	"6": {
		"ID": 6,
		"Name": "Purgatory",
		"Desc": "Requirements \n<color=red>20</color> guild members reach <color=red>Lv.60</color>.",
		"SuggestedLevel": "55-65",
		"Requirements": [
			{
				"Level": 60,
				"Members": 20
			}
		],
		"StrongholdList": [
			51,
			52,
			53,
			54,
			55
		],
		"RewardsInfo": [
			{
				"Id": 26,
				"Percent": 2000
			},
			{
				"Id": 27,
				"Percent": 4000
			},
			{
				"Id": 28,
				"Percent": 6000
			},
			{
				"Id": 29,
				"Percent": 8000
			},
			{
				"Id": 30,
				"Percent": 10000
			}
		],
		"BonusGuildCoins": 4500,
		"IndividualPointsRewardsGroupID": 6,
		"StrongholdRewardMailTemplateId": 117,
		"IndividualRewardMailTemplateId": 118
	}
}