{
	"1": {
		"ID": 1,
		"ItemList": [
			{
				"GoodsType": "GoodsType_ArenaHonour",
				"Id": 0,
				"Count": 300
			}
		]
	},
	"2": {
		"ID": 2,
		"ItemList": [
			{
				"GoodsType": "GoodsType_Crystal",
				"Id": 0,
				"Count": 100
			}
		]
	},
	"3": {
		"ID": 3,
		"ItemList": [
			{
				"GoodsType": "GoodsType_Gold",
				"Id": 0,
				"Count": 300000
			}
		]
	},
	"4": {
		"ID": 4,
		"ItemList": [
			{
				"GoodsType": "GoodsType_BrillianceMithralStone",
				"Id": 0,
				"Count": 100
			}
		]
	},
	"5": {
		"ID": 5,
		"ItemList": [
			{
				"GoodsType": "GoodsType_Item",
				"Id": 4502,
				"Count": 3
			}
		]
	},
	"6": {
		"ID": 6,
		"ItemList": [
			{
				"GoodsType": "GoodsType_Crystal",
				"Id": 0,
				"Count": 300
			}
		]
	},
	"7": {
		"ID": 7,
		"ItemList": [
			{
				"GoodsType": "GoodsType_Crystal",
				"Id": 0,
				"Count": 600
			}
		]
	},
	"8": {
		"ID": 8,
		"ItemList": [
			{
				"GoodsType": "GoodsType_Crystal",
				"Id": 0,
				"Count": 300
			}
		]
	},
	"9": {
		"ID": 9,
		"ItemList": [
			{
				"GoodsType": "GoodsType_Crystal",
				"Id": 0,
				"Count": 600
			}
		]
	},
	"10": {
		"ID": 10,
		"ItemList": [
			{
				"GoodsType": "GoodsType_Item",
				"Id": 4001,
				"Count": 1
			},
			{
				"GoodsType": "GoodsType_Crystal",
				"Id": 0,
				"Count": 30
			}
		]
	},
	"11": {
		"ID": 11,
		"ItemList": [
			{
				"GoodsType": "GoodsType_Item",
				"Id": 4001,
				"Count": 1
			},
			{
				"GoodsType": "GoodsType_Item",
				"Id": 1013,
				"Count": 30
			}
		]
	},
	"12": {
		"ID": 12,
		"ItemList": [
			{
				"GoodsType": "GoodsType_Item",
				"Id": 4001,
				"Count": 1
			},
			{
				"GoodsType": "GoodsType_Crystal",
				"Id": 0,
				"Count": 60
			}
		]
	},
	"13": {
		"ID": 13,
		"ItemList": [
			{
				"GoodsType": "GoodsType_Item",
				"Id": 4001,
				"Count": 1
			},
			{
				"GoodsType": "GoodsType_Crystal",
				"Id": 0,
				"Count": 60
			}
		]
	},
	"14": {
		"ID": 14,
		"ItemList": [
			{
				"GoodsType": "GoodsType_Item",
				"Id": 4001,
				"Count": 1
			},
			{
				"GoodsType": "GoodsType_Crystal",
				"Id": 0,
				"Count": 60
			}
		]
	},
	"15": {
		"ID": 15,
		"ItemList": [
			{
				"GoodsType": "GoodsType_Item",
				"Id": 4001,
				"Count": 1
			},
			{
				"GoodsType": "GoodsType_Item",
				"Id": 1013,
				"Count": 50
			}
		]
	},
	"16": {
		"ID": 16,
		"ItemList": [
			{
				"GoodsType": "GoodsType_Item",
				"Id": 4001,
				"Count": 1
			},
			{
				"GoodsType": "GoodsType_Crystal",
				"Id": 0,
				"Count": 90
			}
		]
	},
	"17": {
		"ID": 17,
		"ItemList": [
			{
				"GoodsType": "GoodsType_Item",
				"Id": 4001,
				"Count": 1
			},
			{
				"GoodsType": "GoodsType_Crystal",
				"Id": 0,
				"Count": 90
			}
		]
	},
	"18": {
		"ID": 18,
		"ItemList": [
			{
				"GoodsType": "GoodsType_Item",
				"Id": 4001,
				"Count": 1
			},
			{
				"GoodsType": "GoodsType_Crystal",
				"Id": 0,
				"Count": 90
			}
		]
	},
	"19": {
		"ID": 19,
		"ItemList": [
			{
				"GoodsType": "GoodsType_Crystal",
				"Id": 0,
				"Count": 50
			}
		]
	},
	"20": {
		"ID": 20,
		"ItemList": [
			{
				"GoodsType": "GoodsType_Crystal",
				"Id": 0,
				"Count": 50
			},
			{
				"GoodsType": "GoodsType_Equipment",
				"Id": 12,
				"Count": 1
			}
		]
	},
	"21": {
		"ID": 21,
		"ItemList": [
			{
				"GoodsType": "GoodsType_Crystal",
				"Id": 0,
				"Count": 50
			},
			{
				"GoodsType": "GoodsType_Equipment",
				"Id": 117,
				"Count": 1
			}
		]
	},
	"22": {
		"ID": 22,
		"ItemList": [
			{
				"GoodsType": "GoodsType_Crystal",
				"Id": 0,
				"Count": 100
			},
			{
				"GoodsType": "GoodsType_Gold",
				"Id": 0,
				"Count": 50000
			},
			{
				"GoodsType": "GoodsType_Equipment",
				"Id": 302,
				"Count": 1
			}
		]
	},
	"23": {
		"ID": 23,
		"ItemList": [
			{
				"GoodsType": "GoodsType_Crystal",
				"Id": 0,
				"Count": 100
			},
			{
				"GoodsType": "GoodsType_Item",
				"Id": 3500,
				"Count": 1
			},
			{
				"GoodsType": "GoodsType_Item",
				"Id": 3501,
				"Count": 1
			}
		]
	},
	"24": {
		"ID": 24,
		"ItemList": [
			{
				"GoodsType": "GoodsType_Crystal",
				"Id": 0,
				"Count": 150
			},
			{
				"GoodsType": "GoodsType_Equipment",
				"Id": 58,
				"Count": 1
			}
		]
	},
	"25": {
		"ID": 25,
		"ItemList": [
			{
				"GoodsType": "GoodsType_Crystal",
				"Id": 0,
				"Count": 150
			},
			{
				"GoodsType": "GoodsType_Equipment",
				"Id": 14,
				"Count": 1
			},
			{
				"GoodsType": "GoodsType_Equipment",
				"Id": 94,
				"Count": 1
			}
		]
	},
	"26": {
		"ID": 26,
		"ItemList": [
			{
				"GoodsType": "GoodsType_Crystal",
				"Id": 0,
				"Count": 200
			},
			{
				"GoodsType": "GoodsType_Equipment",
				"Id": 114,
				"Count": 1
			},
			{
				"GoodsType": "GoodsType_Item",
				"Id": 3502,
				"Count": 1
			}
		]
	},
	"27": {
		"ID": 27,
		"ItemList": [
			{
				"GoodsType": "GoodsType_Item",
				"Id": 4001,
				"Count": 1
			},
			{
				"GoodsType": "GoodsType_Gold",
				"Id": 0,
				"Count": 10000
			}
		]
	},
	"28": {
		"ID": 28,
		"ItemList": [
			{
				"GoodsType": "GoodsType_Item",
				"Id": 4001,
				"Count": 1
			},
			{
				"GoodsType": "GoodsType_Equipment",
				"Id": 303,
				"Count": 3
			}
		]
	},
	"29": {
		"ID": 29,
		"ItemList": [
			{
				"GoodsType": "GoodsType_Item",
				"Id": 4001,
				"Count": 1
			},
			{
				"GoodsType": "GoodsType_Crystal",
				"Id": 0,
				"Count": 100
			}
		]
	},
	"30": {
		"ID": 30,
		"ItemList": [
			{
				"GoodsType": "GoodsType_Item",
				"Id": 4001,
				"Count": 1
			},
			{
				"GoodsType": "GoodsType_Equipment",
				"Id": 117,
				"Count": 1
			}
		]
	},
	"31": {
		"ID": 31,
		"ItemList": [
			{
				"GoodsType": "GoodsType_Item",
				"Id": 4001,
				"Count": 1
			},
			{
				"GoodsType": "GoodsType_Equipment",
				"Id": 307,
				"Count": 1
			}
		]
	},
	"32": {
		"ID": 32,
		"ItemList": [
			{
				"GoodsType": "GoodsType_Item",
				"Id": 4001,
				"Count": 1
			},
			{
				"GoodsType": "GoodsType_Crystal",
				"Id": 0,
				"Count": 150
			}
		]
	},
	"33": {
		"ID": 33,
		"ItemList": [
			{
				"GoodsType": "GoodsType_Item",
				"Id": 4001,
				"Count": 1
			},
			{
				"GoodsType": "GoodsType_Equipment",
				"Id": 80,
				"Count": 1
			}
		]
	},
	"34": {
		"ID": 34,
		"ItemList": [
			{
				"GoodsType": "GoodsType_Item",
				"Id": 4001,
				"Count": 1
			},
			{
				"GoodsType": "GoodsType_Crystal",
				"Id": 0,
				"Count": 200
			}
		]
	},
	"35": {
		"ID": 35,
		"ItemList": [
			{
				"GoodsType": "GoodsType_Crystal",
				"Id": 0,
				"Count": 50
			}
		]
	},
	"36": {
		"ID": 36,
		"ItemList": [
			{
				"GoodsType": "GoodsType_Crystal",
				"Id": 0,
				"Count": 50
			},
			{
				"GoodsType": "GoodsType_Equipment",
				"Id": 12,
				"Count": 1
			}
		]
	},
	"37": {
		"ID": 37,
		"ItemList": [
			{
				"GoodsType": "GoodsType_Crystal",
				"Id": 0,
				"Count": 50
			},
			{
				"GoodsType": "GoodsType_Equipment",
				"Id": 58,
				"Count": 1
			}
		]
	},
	"38": {
		"ID": 38,
		"ItemList": [
			{
				"GoodsType": "GoodsType_Crystal",
				"Id": 0,
				"Count": 100
			},
			{
				"GoodsType": "GoodsType_Equipment",
				"Id": 85,
				"Count": 1
			}
		]
	},
	"39": {
		"ID": 39,
		"ItemList": [
			{
				"GoodsType": "GoodsType_Crystal",
				"Id": 0,
				"Count": 100
			},
			{
				"GoodsType": "GoodsType_Item",
				"Id": 3501,
				"Count": 1
			}
		]
	},
	"40": {
		"ID": 40,
		"ItemList": [
			{
				"GoodsType": "GoodsType_Crystal",
				"Id": 0,
				"Count": 200
			},
			{
				"GoodsType": "GoodsType_Item",
				"Id": 3009,
				"Count": 1
			}
		]
	},
	"41": {
		"ID": 41,
		"ItemList": [
			{
				"GoodsType": "GoodsType_Crystal",
				"Id": 0,
				"Count": 200
			},
			{
				"GoodsType": "GoodsType_Equipment",
				"Id": 13,
				"Count": 1
			}
		]
	},
	"42": {
		"ID": 42,
		"ItemList": [
			{
				"GoodsType": "GoodsType_Crystal",
				"Id": 0,
				"Count": 300
			},
			{
				"GoodsType": "GoodsType_Equipment",
				"Id": 59,
				"Count": 1
			}
		]
	},
	"43": {
		"ID": 43,
		"ItemList": [
			{
				"GoodsType": "GoodsType_Crystal",
				"Id": 0,
				"Count": 300
			},
			{
				"GoodsType": "GoodsType_Equipment",
				"Id": 99,
				"Count": 1
			}
		]
	},
	"44": {
		"ID": 44,
		"ItemList": [
			{
				"GoodsType": "GoodsType_Gold",
				"Id": 0,
				"Count": 80000
			}
		]
	},
	"45": {
		"ID": 45,
		"ItemList": [
			{
				"GoodsType": "GoodsType_Item",
				"Id": 4012,
				"Count": 1
			}
		]
	},
	"46": {
		"ID": 46,
		"ItemList": [
			{
				"GoodsType": "GoodsType_Item",
				"Id": 4001,
				"Count": 2
			}
		]
	},
	"47": {
		"ID": 47,
		"ItemList": [
			{
				"GoodsType": "GoodsType_Item",
				"Id": 3009,
				"Count": 1
			}
		]
	},
	"48": {
		"ID": 48,
		"ItemList": [
			{
				"GoodsType": "GoodsType_HeadFrame",
				"Id": 4,
				"Count": 1
			},
			{
				"GoodsType": "GoodsType_Item",
				"Id": 4013,
				"Count": 1
			}
		]
	},
	"49": {
		"ID": 49,
		"ItemList": [
			{
				"GoodsType": "GoodsType_HeroSkin",
				"Id": 602,
				"Count": 1
			},
			{
				"GoodsType": "GoodsType_HeroSkin",
				"Id": 1202,
				"Count": 1
			}
		]
	},
	"50": {
		"ID": 50,
		"ItemList": [
			{
				"GoodsType": "GoodsType_Item",
				"Id": 4001,
				"Count": 2
			},
			{
				"GoodsType": "GoodsType_SoldierSkin",
				"Id": 20001,
				"Count": 1
			}
		]
	},
	"51": {
		"ID": 51,
		"ItemList": [
			{
				"GoodsType": "GoodsType_Item",
				"Id": 4001,
				"Count": 2
			},
			{
				"GoodsType": "GoodsType_Item",
				"Id": 4025,
				"Count": 1
			}
		]
	},
	"52": {
		"ID": 52,
		"ItemList": [
			{
				"GoodsType": "GoodsType_Item",
				"Id": 4001,
				"Count": 2
			},
			{
				"GoodsType": "GoodsType_Gold",
				"Id": 0,
				"Count": 50000
			}
		]
	},
	"53": {
		"ID": 53,
		"ItemList": [
			{
				"GoodsType": "GoodsType_Item",
				"Id": 4001,
				"Count": 1
			}
		]
	},
	"54": {
		"ID": 54,
		"ItemList": [
			{
				"GoodsType": "GoodsType_Item",
				"Id": 4001,
				"Count": 1
			}
		]
	},
	"55": {
		"ID": 55,
		"ItemList": [
			{
				"GoodsType": "GoodsType_Item",
				"Id": 4001,
				"Count": 1
			}
		]
	},
	"56": {
		"ID": 56,
		"ItemList": [
			{
				"GoodsType": "GoodsType_Item",
				"Id": 4001,
				"Count": 1
			}
		]
	},
	"57": {
		"ID": 57,
		"ItemList": [
			{
				"GoodsType": "GoodsType_Gold",
				"Id": 0,
				"Count": 80000
			}
		]
	},
	"58": {
		"ID": 58,
		"ItemList": [
			{
				"GoodsType": "GoodsType_Item",
				"Id": 4012,
				"Count": 1
			}
		]
	},
	"59": {
		"ID": 59,
		"ItemList": [
			{
				"GoodsType": "GoodsType_Item",
				"Id": 4001,
				"Count": 2
			}
		]
	},
	"60": {
		"ID": 60,
		"ItemList": [
			{
				"GoodsType": "GoodsType_Item",
				"Id": 3009,
				"Count": 1
			}
		]
	},
	"61": {
		"ID": 61,
		"ItemList": [
			{
				"GoodsType": "GoodsType_HeadFrame",
				"Id": 13,
				"Count": 1
			},
			{
				"GoodsType": "GoodsType_Item",
				"Id": 4013,
				"Count": 1
			}
		]
	},
	"62": {
		"ID": 62,
		"ItemList": [
			{
				"GoodsType": "GoodsType_HeroSkin",
				"Id": 5101,
				"Count": 1
			},
			{
				"GoodsType": "GoodsType_HeroSkin",
				"Id": 5201,
				"Count": 1
			}
		]
	},
	"63": {
		"ID": 63,
		"ItemList": [
			{
				"GoodsType": "GoodsType_Gold",
				"Id": 0,
				"Count": 80000
			}
		]
	},
	"64": {
		"ID": 64,
		"ItemList": [
			{
				"GoodsType": "GoodsType_Item",
				"Id": 4012,
				"Count": 1
			}
		]
	},
	"65": {
		"ID": 65,
		"ItemList": [
			{
				"GoodsType": "GoodsType_Item",
				"Id": 4001,
				"Count": 2
			}
		]
	},
	"66": {
		"ID": 66,
		"ItemList": [
			{
				"GoodsType": "GoodsType_Item",
				"Id": 3009,
				"Count": 1
			}
		]
	},
	"67": {
		"ID": 67,
		"ItemList": [
			{
				"GoodsType": "GoodsType_HeadFrame",
				"Id": 14,
				"Count": 1
			},
			{
				"GoodsType": "GoodsType_Item",
				"Id": 4013,
				"Count": 1
			}
		]
	},
	"68": {
		"ID": 68,
		"ItemList": [
			{
				"GoodsType": "GoodsType_Item",
				"Id": 4513,
				"Count": 1
			}
		]
	},
	"69": {
		"ID": 69,
		"ItemList": [
			{
				"GoodsType": "GoodsType_Gold",
				"Id": 0,
				"Count": 80000
			}
		]
	},
	"70": {
		"ID": 70,
		"ItemList": [
			{
				"GoodsType": "GoodsType_Item",
				"Id": 4012,
				"Count": 1
			}
		]
	},
	"71": {
		"ID": 71,
		"ItemList": [
			{
				"GoodsType": "GoodsType_Item",
				"Id": 4001,
				"Count": 2
			}
		]
	},
	"72": {
		"ID": 72,
		"ItemList": [
			{
				"GoodsType": "GoodsType_Item",
				"Id": 3009,
				"Count": 1
			}
		]
	},
	"73": {
		"ID": 73,
		"ItemList": [
			{
				"GoodsType": "GoodsType_HeadFrame",
				"Id": 15,
				"Count": 1
			},
			{
				"GoodsType": "GoodsType_Item",
				"Id": 4013,
				"Count": 1
			}
		]
	},
	"74": {
		"ID": 74,
		"ItemList": [
			{
				"GoodsType": "GoodsType_Item",
				"Id": 4514,
				"Count": 1
			}
		]
	},
	"75": {
		"ID": 75,
		"ItemList": [
			{
				"GoodsType": "GoodsType_Gold",
				"Id": 0,
				"Count": 80000
			}
		]
	},
	"76": {
		"ID": 76,
		"ItemList": [
			{
				"GoodsType": "GoodsType_Item",
				"Id": 4012,
				"Count": 1
			}
		]
	},
	"77": {
		"ID": 77,
		"ItemList": [
			{
				"GoodsType": "GoodsType_Item",
				"Id": 4001,
				"Count": 2
			}
		]
	},
	"78": {
		"ID": 78,
		"ItemList": [
			{
				"GoodsType": "GoodsType_Item",
				"Id": 3009,
				"Count": 1
			}
		]
	},
	"79": {
		"ID": 79,
		"ItemList": [
			{
				"GoodsType": "GoodsType_HeadFrame",
				"Id": 18,
				"Count": 1
			},
			{
				"GoodsType": "GoodsType_Item",
				"Id": 4013,
				"Count": 1
			}
		]
	},
	"80": {
		"ID": 80,
		"ItemList": [
			{
				"GoodsType": "GoodsType_Item",
				"Id": 4519,
				"Count": 1
			}
		]
	},
	"81": {
		"ID": 81,
		"ItemList": [
			{
				"GoodsType": "GoodsType_Gold",
				"Id": 0,
				"Count": 80000
			}
		]
	},
	"82": {
		"ID": 82,
		"ItemList": [
			{
				"GoodsType": "GoodsType_Item",
				"Id": 4012,
				"Count": 1
			}
		]
	},
	"83": {
		"ID": 83,
		"ItemList": [
			{
				"GoodsType": "GoodsType_Item",
				"Id": 4001,
				"Count": 2
			}
		]
	},
	"84": {
		"ID": 84,
		"ItemList": [
			{
				"GoodsType": "GoodsType_Item",
				"Id": 3009,
				"Count": 1
			}
		]
	},
	"85": {
		"ID": 85,
		"ItemList": [
			{
				"GoodsType": "GoodsType_HeadFrame",
				"Id": 26,
				"Count": 1
			},
			{
				"GoodsType": "GoodsType_Item",
				"Id": 4013,
				"Count": 1
			}
		]
	},
	"86": {
		"ID": 86,
		"ItemList": [
			{
				"GoodsType": "GoodsType_Item",
				"Id": 4520,
				"Count": 1
			}
		]
	},
	"87": {
		"ID": 87,
		"ItemList": [
			{
				"GoodsType": "GoodsType_Gold",
				"Id": 0,
				"Count": 80000
			}
		]
	},
	"88": {
		"ID": 88,
		"ItemList": [
			{
				"GoodsType": "GoodsType_Item",
				"Id": 4012,
				"Count": 1
			}
		]
	},
	"89": {
		"ID": 89,
		"ItemList": [
			{
				"GoodsType": "GoodsType_Item",
				"Id": 4001,
				"Count": 2
			}
		]
	},
	"90": {
		"ID": 90,
		"ItemList": [
			{
				"GoodsType": "GoodsType_Item",
				"Id": 3009,
				"Count": 1
			}
		]
	},
	"91": {
		"ID": 91,
		"ItemList": [
			{
				"GoodsType": "GoodsType_HeadFrame",
				"Id": 30,
				"Count": 1
			},
			{
				"GoodsType": "GoodsType_Item",
				"Id": 4013,
				"Count": 1
			}
		]
	},
	"92": {
		"ID": 92,
		"ItemList": [
			{
				"GoodsType": "GoodsType_Item",
				"Id": 4522,
				"Count": 1
			}
		]
	},
	"93": {
		"ID": 93,
		"ItemList": [
			{
				"GoodsType": "GoodsType_Item",
				"Id": 3203,
				"Count": 4
			}
		]
	},
	"94": {
		"ID": 94,
		"ItemList": [
			{
				"GoodsType": "GoodsType_Item",
				"Id": 4502,
				"Count": 1
			}
		]
	},
	"95": {
		"ID": 95,
		"ItemList": [
			{
				"GoodsType": "GoodsType_Equipment",
				"Id": 308,
				"Count": 1
			}
		]
	},
	"96": {
		"ID": 96,
		"ItemList": [
			{
				"GoodsType": "GoodsType_Item",
				"Id": 4001,
				"Count": 1
			}
		]
	},
	"97": {
		"ID": 97,
		"ItemList": [
			{
				"GoodsType": "GoodsType_Gold",
				"Id": 0,
				"Count": 80000
			}
		]
	},
	"98": {
		"ID": 98,
		"ItemList": [
			{
				"GoodsType": "GoodsType_Equipment",
				"Id": 304,
				"Count": 2
			}
		]
	},
	"99": {
		"ID": 99,
		"ItemList": [
			{
				"GoodsType": "GoodsType_Item",
				"Id": 3510,
				"Count": 20
			}
		]
	},
	"100": {
		"ID": 100,
		"ItemList": [
			{
				"GoodsType": "GoodsType_Item",
				"Id": 3510,
				"Count": 20
			}
		]
	},
	"101": {
		"ID": 101,
		"ItemList": [
			{
				"GoodsType": "GoodsType_Item",
				"Id": 3510,
				"Count": 45
			}
		]
	},
	"102": {
		"ID": 102,
		"ItemList": [
			{
				"GoodsType": "GoodsType_Item",
				"Id": 3510,
				"Count": 12
			}
		]
	},
	"103": {
		"ID": 103,
		"ItemList": [
			{
				"GoodsType": "GoodsType_Item",
				"Id": 3510,
				"Count": 8
			}
		]
	},
	"104": {
		"ID": 104,
		"ItemList": [
			{
				"GoodsType": "GoodsType_Item",
				"Id": 3510,
				"Count": 10
			}
		]
	},
	"105": {
		"ID": 105,
		"ItemList": [
			{
				"GoodsType": "GoodsType_Item",
				"Id": 1012,
				"Count": 50
			},
			{
				"GoodsType": "GoodsType_Item",
				"Id": 3509,
				"Count": 1
			}
		]
	},
	"106": {
		"ID": 106,
		"ItemList": [
			{
				"GoodsType": "GoodsType_Item",
				"Id": 1015,
				"Count": 50
			},
			{
				"GoodsType": "GoodsType_Item",
				"Id": 3509,
				"Count": 1
			}
		]
	},
	"107": {
		"ID": 107,
		"ItemList": [
			{
				"GoodsType": "GoodsType_Item",
				"Id": 1006,
				"Count": 50
			},
			{
				"GoodsType": "GoodsType_Item",
				"Id": 3509,
				"Count": 1
			}
		]
	},
	"108": {
		"ID": 108,
		"ItemList": [
			{
				"GoodsType": "GoodsType_Item",
				"Id": 1008,
				"Count": 50
			},
			{
				"GoodsType": "GoodsType_Item",
				"Id": 3509,
				"Count": 1
			}
		]
	},
	"109": {
		"ID": 109,
		"ItemList": [
			{
				"GoodsType": "GoodsType_Item",
				"Id": 1055,
				"Count": 50
			},
			{
				"GoodsType": "GoodsType_Item",
				"Id": 3509,
				"Count": 1
			}
		]
	},
	"110": {
		"ID": 110,
		"ItemList": [
			{
				"GoodsType": "GoodsType_Item",
				"Id": 1054,
				"Count": 50
			},
			{
				"GoodsType": "GoodsType_Item",
				"Id": 3509,
				"Count": 1
			}
		]
	},
	"111": {
		"ID": 111,
		"ItemList": [
			{
				"GoodsType": "GoodsType_Item",
				"Id": 3509,
				"Count": 1
			}
		]
	},
	"112": {
		"ID": 112,
		"ItemList": [
			{
				"GoodsType": "GoodsType_Item",
				"Id": 3509,
				"Count": 1
			}
		]
	},
	"113": {
		"ID": 113,
		"ItemList": [
			{
				"GoodsType": "GoodsType_Item",
				"Id": 3509,
				"Count": 1
			}
		]
	},
	"114": {
		"ID": 114,
		"ItemList": [
			{
				"GoodsType": "GoodsType_Item",
				"Id": 1015,
				"Count": 60
			}
		]
	},
	"115": {
		"ID": 115,
		"ItemList": [
			{
				"GoodsType": "GoodsType_Item",
				"Id": 1012,
				"Count": 60
			}
		]
	},
	"116": {
		"ID": 116,
		"ItemList": [
			{
				"GoodsType": "GoodsType_Item",
				"Id": 1008,
				"Count": 60
			}
		]
	},
	"117": {
		"ID": 117,
		"ItemList": [
			{
				"GoodsType": "GoodsType_Item",
				"Id": 1006,
				"Count": 60
			}
		]
	},
	"118": {
		"ID": 118,
		"ItemList": [
			{
				"GoodsType": "GoodsType_Item",
				"Id": 1054,
				"Count": 60
			}
		]
	},
	"119": {
		"ID": 119,
		"ItemList": [
			{
				"GoodsType": "GoodsType_Item",
				"Id": 1055,
				"Count": 60
			}
		]
	},
	"120": {
		"ID": 120,
		"ItemList": [
			{
				"GoodsType": "GoodsType_MemoryEssence",
				"Id": 0,
				"Count": 300
			}
		]
	},
	"121": {
		"ID": 121,
		"ItemList": [
			{
				"GoodsType": "GoodsType_BrillianceMithralStone",
				"Id": 0,
				"Count": 30
			}
		]
	},
	"122": {
		"ID": 122,
		"ItemList": [
			{
				"GoodsType": "GoodsType_Gold",
				"Id": 0,
				"Count": 300000
			}
		]
	},
	"123": {
		"ID": 123,
		"ItemList": [
			{
				"GoodsType": "GoodsType_Gold",
				"Id": 0,
				"Count": 80000
			}
		]
	},
	"124": {
		"ID": 124,
		"ItemList": [
			{
				"GoodsType": "GoodsType_Item",
				"Id": 4012,
				"Count": 1
			}
		]
	},
	"125": {
		"ID": 125,
		"ItemList": [
			{
				"GoodsType": "GoodsType_Item",
				"Id": 4001,
				"Count": 2
			}
		]
	},
	"126": {
		"ID": 126,
		"ItemList": [
			{
				"GoodsType": "GoodsType_Item",
				"Id": 3009,
				"Count": 1
			}
		]
	},
	"127": {
		"ID": 127,
		"ItemList": [
			{
				"GoodsType": "GoodsType_HeadFrame",
				"Id": 33,
				"Count": 1
			},
			{
				"GoodsType": "GoodsType_Item",
				"Id": 4013,
				"Count": 1
			}
		]
	},
	"128": {
		"ID": 128,
		"ItemList": [
			{
				"GoodsType": "GoodsType_Item",
				"Id": 4524,
				"Count": 1
			}
		]
	},
	"129": {
		"ID": 129,
		"ItemList": [
			{
				"GoodsType": "GoodsType_Item",
				"Id": 3203,
				"Count": 2
			}
		]
	},
	"130": {
		"ID": 130,
		"ItemList": [
			{
				"GoodsType": "GoodsType_Item",
				"Id": 3009,
				"Count": 1
			}
		]
	},
	"131": {
		"ID": 131,
		"ItemList": [
			{
				"GoodsType": "GoodsType_Item",
				"Id": 4001,
				"Count": 1
			}
		]
	},
	"132": {
		"ID": 132,
		"ItemList": [
			{
				"GoodsType": "GoodsType_Gold",
				"Id": 0,
				"Count": 80000
			}
		]
	},
	"133": {
		"ID": 133,
		"ItemList": [
			{
				"GoodsType": "GoodsType_Equipment",
				"Id": 304,
				"Count": 2
			}
		]
	},
	"134": {
		"ID": 134,
		"ItemList": [
			{
				"GoodsType": "GoodsType_Item",
				"Id": 3523,
				"Count": 6
			}
		]
	},
	"135": {
		"ID": 135,
		"ItemList": [
			{
				"GoodsType": "GoodsType_Item",
				"Id": 3523,
				"Count": 20
			}
		]
	},
	"136": {
		"ID": 136,
		"ItemList": [
			{
				"GoodsType": "GoodsType_Item",
				"Id": 3523,
				"Count": 4
			}
		]
	},
	"137": {
		"ID": 137,
		"ItemList": [
			{
				"GoodsType": "GoodsType_Item",
				"Id": 3523,
				"Count": 2
			}
		]
	},
	"138": {
		"ID": 138,
		"ItemList": [
			{
				"GoodsType": "GoodsType_Item",
				"Id": 3523,
				"Count": 1
			}
		]
	},
	"139": {
		"ID": 139,
		"ItemList": [
			{
				"GoodsType": "GoodsType_Gold",
				"Id": 0,
				"Count": 80000
			}
		]
	},
	"140": {
		"ID": 140,
		"ItemList": [
			{
				"GoodsType": "GoodsType_Item",
				"Id": 4012,
				"Count": 1
			}
		]
	},
	"141": {
		"ID": 141,
		"ItemList": [
			{
				"GoodsType": "GoodsType_Item",
				"Id": 4001,
				"Count": 2
			}
		]
	},
	"142": {
		"ID": 142,
		"ItemList": [
			{
				"GoodsType": "GoodsType_Item",
				"Id": 3009,
				"Count": 1
			}
		]
	},
	"143": {
		"ID": 143,
		"ItemList": [
			{
				"GoodsType": "GoodsType_HeadFrame",
				"Id": 37,
				"Count": 1
			},
			{
				"GoodsType": "GoodsType_Item",
				"Id": 4013,
				"Count": 1
			}
		]
	},
	"144": {
		"ID": 144,
		"ItemList": [
			{
				"GoodsType": "GoodsType_Item",
				"Id": 4526,
				"Count": 1
			}
		]
	},
	"145": {
		"ID": 145,
		"ItemList": [
			{
				"GoodsType": "GoodsType_Gold",
				"Id": 0,
				"Count": 80000
			}
		]
	},
	"146": {
		"ID": 146,
		"ItemList": [
			{
				"GoodsType": "GoodsType_Item",
				"Id": 4012,
				"Count": 1
			}
		]
	},
	"147": {
		"ID": 147,
		"ItemList": [
			{
				"GoodsType": "GoodsType_Item",
				"Id": 4001,
				"Count": 2
			}
		]
	},
	"148": {
		"ID": 148,
		"ItemList": [
			{
				"GoodsType": "GoodsType_Item",
				"Id": 3009,
				"Count": 1
			}
		]
	},
	"149": {
		"ID": 149,
		"ItemList": [
			{
				"GoodsType": "GoodsType_HeadFrame",
				"Id": 38,
				"Count": 1
			},
			{
				"GoodsType": "GoodsType_Item",
				"Id": 4013,
				"Count": 1
			}
		]
	},
	"150": {
		"ID": 150,
		"ItemList": [
			{
				"GoodsType": "GoodsType_Item",
				"Id": 4530,
				"Count": 1
			}
		]
	},
	"151": {
		"ID": 151,
		"ItemList": [
			{
				"GoodsType": "GoodsType_Gold",
				"Id": 0,
				"Count": 80000
			}
		]
	},
	"152": {
		"ID": 152,
		"ItemList": [
			{
				"GoodsType": "GoodsType_Item",
				"Id": 4012,
				"Count": 1
			}
		]
	},
	"153": {
		"ID": 153,
		"ItemList": [
			{
				"GoodsType": "GoodsType_Item",
				"Id": 4001,
				"Count": 2
			}
		]
	},
	"154": {
		"ID": 154,
		"ItemList": [
			{
				"GoodsType": "GoodsType_Item",
				"Id": 3009,
				"Count": 1
			}
		]
	},
	"155": {
		"ID": 155,
		"ItemList": [
			{
				"GoodsType": "GoodsType_HeadFrame",
				"Id": 40,
				"Count": 1
			},
			{
				"GoodsType": "GoodsType_Item",
				"Id": 4013,
				"Count": 1
			}
		]
	},
	"156": {
		"ID": 156,
		"ItemList": [
			{
				"GoodsType": "GoodsType_Item",
				"Id": 4531,
				"Count": 1
			}
		]
	},
	"157": {
		"ID": 157,
		"ItemList": [
			{
				"GoodsType": "GoodsType_Gold",
				"Id": 0,
				"Count": 80000
			}
		]
	},
	"158": {
		"ID": 158,
		"ItemList": [
			{
				"GoodsType": "GoodsType_Item",
				"Id": 4012,
				"Count": 1
			}
		]
	},
	"159": {
		"ID": 159,
		"ItemList": [
			{
				"GoodsType": "GoodsType_Item",
				"Id": 4001,
				"Count": 2
			}
		]
	},
	"160": {
		"ID": 160,
		"ItemList": [
			{
				"GoodsType": "GoodsType_Item",
				"Id": 3009,
				"Count": 1
			}
		]
	},
	"161": {
		"ID": 161,
		"ItemList": [
			{
				"GoodsType": "GoodsType_HeadFrame",
				"Id": 42,
				"Count": 1
			},
			{
				"GoodsType": "GoodsType_Item",
				"Id": 4013,
				"Count": 1
			}
		]
	},
	"162": {
		"ID": 162,
		"ItemList": [
			{
				"GoodsType": "GoodsType_Item",
				"Id": 4533,
				"Count": 1
			}
		]
	},
	"163": {
		"ID": 163,
		"ItemList": [
			{
				"GoodsType": "GoodsType_Gold",
				"Id": 0,
				"Count": 80000
			}
		]
	},
	"164": {
		"ID": 164,
		"ItemList": [
			{
				"GoodsType": "GoodsType_Item",
				"Id": 4012,
				"Count": 1
			}
		]
	},
	"165": {
		"ID": 165,
		"ItemList": [
			{
				"GoodsType": "GoodsType_Item",
				"Id": 4001,
				"Count": 2
			}
		]
	},
	"166": {
		"ID": 166,
		"ItemList": [
			{
				"GoodsType": "GoodsType_Item",
				"Id": 3009,
				"Count": 1
			}
		]
	},
	"167": {
		"ID": 167,
		"ItemList": [
			{
				"GoodsType": "GoodsType_Item",
				"Id": 4013,
				"Count": 1
			}
		]
	},
	"168": {
		"ID": 168,
		"ItemList": [
			{
				"GoodsType": "GoodsType_Item",
				"Id": 4539,
				"Count": 1
			}
		]
	},
	"169": {
		"ID": 169,
		"ItemList": [
			{
				"GoodsType": "GoodsType_Gold",
				"Id": 0,
				"Count": 500000
			}
		]
	},
	"170": {
		"ID": 170,
		"ItemList": [
			{
				"GoodsType": "GoodsType_Item",
				"Id": 4528,
				"Count": 6
			}
		]
	},
	"171": {
		"ID": 171,
		"ItemList": [
			{
				"GoodsType": "GoodsType_Item",
				"Id": 3203,
				"Count": 5
			}
		]
	},
	"172": {
		"ID": 172,
		"ItemList": [
			{
				"GoodsType": "GoodsType_Gold",
				"Id": 0,
				"Count": 500000
			}
		]
	},
	"173": {
		"ID": 173,
		"ItemList": [
			{
				"GoodsType": "GoodsType_Item",
				"Id": 4529,
				"Count": 5
			}
		]
	},
	"174": {
		"ID": 174,
		"ItemList": [
			{
				"GoodsType": "GoodsType_Item",
				"Id": 3203,
				"Count": 5
			}
		]
	},
	"175": {
		"ID": 175,
		"ItemList": [
			{
				"GoodsType": "GoodsType_Gold",
				"Id": 0,
				"Count": 500000
			}
		]
	},
	"176": {
		"ID": 176,
		"ItemList": [
			{
				"GoodsType": "GoodsType_Item",
				"Id": 3246,
				"Count": 3
			}
		]
	},
	"177": {
		"ID": 177,
		"ItemList": [
			{
				"GoodsType": "GoodsType_Item",
				"Id": 3203,
				"Count": 10
			}
		]
	},
	"178": {
		"ID": 178,
		"ItemList": [
			{
				"GoodsType": "GoodsType_Item",
				"Id": 3009,
				"Count": 1
			}
		]
	},
	"179": {
		"ID": 179,
		"ItemList": [
			{
				"GoodsType": "GoodsType_Gold",
				"Id": 0,
				"Count": 80000
			}
		]
	},
	"180": {
		"ID": 180,
		"ItemList": [
			{
				"GoodsType": "GoodsType_Item",
				"Id": 4001,
				"Count": 2
			}
		]
	},
	"181": {
		"ID": 181,
		"ItemList": [
			{
				"GoodsType": "GoodsType_Item",
				"Id": 3203,
				"Count": 10
			}
		]
	},
	"182": {
		"ID": 182,
		"ItemList": [
			{
				"GoodsType": "GoodsType_Item",
				"Id": 3009,
				"Count": 1
			}
		]
	},
	"183": {
		"ID": 183,
		"ItemList": [
			{
				"GoodsType": "GoodsType_HeadFrame",
				"Id": 48,
				"Count": 1
			},
			{
				"GoodsType": "GoodsType_Item",
				"Id": 4013,
				"Count": 1
			}
		]
	},
	"184": {
		"ID": 184,
		"ItemList": [
			{
				"GoodsType": "GoodsType_Item",
				"Id": 4540,
				"Count": 1
			}
		]
	},
	"185": {
		"ID": 185,
		"ItemList": [
			{
				"GoodsType": "GoodsType_HeroSkin",
				"Id": 2804,
				"Count": 1
			}
		]
	},
	"186": {
		"ID": 186,
		"ItemList": [
			{
				"GoodsType": "GoodsType_Gold",
				"Id": 0,
				"Count": 1000000
			}
		]
	},
	"187": {
		"ID": 187,
		"ItemList": [
			{
				"GoodsType": "GoodsType_Item",
				"Id": 4001,
				"Count": 2
			}
		]
	},
	"188": {
		"ID": 188,
		"ItemList": [
			{
				"GoodsType": "GoodsType_Item",
				"Id": 3203,
				"Count": 10
			}
		]
	},
	"189": {
		"ID": 189,
		"ItemList": [
			{
				"GoodsType": "GoodsType_Item",
				"Id": 4001,
				"Count": 3
			}
		]
	},
	"190": {
		"ID": 190,
		"ItemList": [
			{
				"GoodsType": "GoodsType_Item",
				"Id": 3246,
				"Count": 6
			}
		]
	},
	"191": {
		"ID": 191,
		"ItemList": [
			{
				"GoodsType": "GoodsType_Item",
				"Id": 4001,
				"Count": 5
			}
		]
	},
	"192": {
		"ID": 192,
		"ItemList": [
			{
				"GoodsType": "GoodsType_Item",
				"Id": 4001,
				"Count": 3
			},
			{
				"GoodsType": "GoodsType_HeadFrame",
				"Id": 47,
				"Count": 1
			}
		]
	},
	"193": {
		"ID": 193,
		"ItemList": [
			{
				"GoodsType": "GoodsType_Gold",
				"Id": 0,
				"Count": 1000000
			}
		]
	},
	"194": {
		"ID": 194,
		"ItemList": [
			{
				"GoodsType": "GoodsType_Item",
				"Id": 7056,
				"Count": 3
			},
			{
				"GoodsType": "GoodsType_Item",
				"Id": 7005,
				"Count": 3
			},
			{
				"GoodsType": "GoodsType_Item",
				"Id": 7018,
				"Count": 5
			},
			{
				"GoodsType": "GoodsType_Item",
				"Id": 7017,
				"Count": 5
			}
		]
	},
	"195": {
		"ID": 195,
		"ItemList": [
			{
				"GoodsType": "GoodsType_BrillianceMithralStone",
				"Id": 0,
				"Count": 300
			}
		]
	},
	"196": {
		"ID": 196,
		"ItemList": [
			{
				"GoodsType": "GoodsType_GuildMedal",
				"Id": 0,
				"Count": 3000
			}
		]
	},
	"197": {
		"ID": 197,
		"ItemList": [
			{
				"GoodsType": "GoodsType_Item",
				"Id": 4528,
				"Count": 6
			}
		]
	},
	"198": {
		"ID": 198,
		"ItemList": [
			{
				"GoodsType": "GoodsType_Item",
				"Id": 4529,
				"Count": 6
			}
		]
	},
	"199": {
		"ID": 199,
		"ItemList": [
			{
				"GoodsType": "GoodsType_Item",
				"Id": 3246,
				"Count": 6
			}
		]
	},
	"200": {
		"ID": 200,
		"ItemList": [
			{
				"GoodsType": "GoodsType_Gold",
				"Id": 0,
				"Count": 1000000
			}
		]
	},
	"201": {
		"ID": 201,
		"ItemList": [
			{
				"GoodsType": "GoodsType_Item",
				"Id": 4502,
				"Count": 5
			}
		]
	},
	"202": {
		"ID": 202,
		"ItemList": [
			{
				"GoodsType": "GoodsType_SkinTicket",
				"Id": 0,
				"Count": 50
			}
		]
	},
	"203": {
		"ID": 203,
		"ItemList": [
			{
				"GoodsType": "GoodsType_Item",
				"Id": 3203,
				"Count": 30
			},
			{
				"GoodsType": "GoodsType_Item",
				"Id": 3202,
				"Count": 50
			},
			{
				"GoodsType": "GoodsType_Item",
				"Id": 3201,
				"Count": 50
			},
			{
				"GoodsType": "GoodsType_Item",
				"Id": 3200,
				"Count": 50
			}
		]
	},
	"204": {
		"ID": 204,
		"ItemList": [
			{
				"GoodsType": "GoodsType_Item",
				"Id": 4534,
				"Count": 3
			}
		]
	},
	"205": {
		"ID": 205,
		"ItemList": [
			{
				"GoodsType": "GoodsType_Item",
				"Id": 3009,
				"Count": 1
			}
		]
	},
	"218": {
		"ID": 218,
		"ItemList": [
			{
				"GoodsType": "GoodsType_Item",
				"Id": 4001,
				"Count": 1
			},
			{
				"GoodsType": "GoodsType_Item",
				"Id": 7085,
				"Count": 1
			}
		]
	},
	"219": {
		"ID": 219,
		"ItemList": [
			{
				"GoodsType": "GoodsType_Item",
				"Id": 3203,
				"Count": 4
			},
			{
				"GoodsType": "GoodsType_Item",
				"Id": 7085,
				"Count": 1
			}
		]
	},
	"220": {
		"ID": 220,
		"ItemList": [
			{
				"GoodsType": "GoodsType_Gold",
				"Id": 0,
				"Count": 200000
			},
			{
				"GoodsType": "GoodsType_Item",
				"Id": 7085,
				"Count": 1
			}
		]
	},
	"221": {
		"ID": 221,
		"ItemList": [
			{
				"GoodsType": "GoodsType_BrillianceMithralStone",
				"Id": 0,
				"Count": 150
			},
			{
				"GoodsType": "GoodsType_Item",
				"Id": 7085,
				"Count": 1
			}
		]
	},
	"222": {
		"ID": 222,
		"ItemList": [
			{
				"GoodsType": "GoodsType_Item",
				"Id": 4502,
				"Count": 2
			},
			{
				"GoodsType": "GoodsType_Item",
				"Id": 7085,
				"Count": 1
			}
		]
	},
	"223": {
		"ID": 223,
		"ItemList": [
			{
				"GoodsType": "GoodsType_Item",
				"Id": 4001,
				"Count": 1
			},
			{
				"GoodsType": "GoodsType_Item",
				"Id": 7085,
				"Count": 1
			}
		]
	},
	"224": {
		"ID": 224,
		"ItemList": [
			{
				"GoodsType": "GoodsType_HeroSkin",
				"Id": 3101,
				"Count": 1
			},
			{
				"GoodsType": "GoodsType_Item",
				"Id": 7085,
				"Count": 1
			}
		]
	},
	"500": {
		"ID": 500,
		"ItemList": [
			{
				"GoodsType": "GoodsType_Item",
				"Id": 4001,
				"Count": 2
			},
			{
				"GoodsType": "GoodsType_SoldierSkin",
				"Id": 1,
				"Count": 1
			}
		]
	},
	"501": {
		"ID": 501,
		"ItemList": [
			{
				"GoodsType": "GoodsType_Item",
				"Id": 4001,
				"Count": 2
			},
			{
				"GoodsType": "GoodsType_Item",
				"Id": 4025,
				"Count": 1
			}
		]
	},
	"502": {
		"ID": 502,
		"ItemList": [
			{
				"GoodsType": "GoodsType_Item",
				"Id": 4001,
				"Count": 2
			},
			{
				"GoodsType": "GoodsType_Gold",
				"Id": 0,
				"Count": 50000
			}
		]
	},
	"503": {
		"ID": 503,
		"ItemList": [
			{
				"GoodsType": "GoodsType_Item",
				"Id": 4001,
				"Count": 1
			}
		]
	},
	"504": {
		"ID": 504,
		"ItemList": [
			{
				"GoodsType": "GoodsType_Item",
				"Id": 4001,
				"Count": 1
			}
		]
	},
	"505": {
		"ID": 505,
		"ItemList": [
			{
				"GoodsType": "GoodsType_Item",
				"Id": 4001,
				"Count": 1
			}
		]
	},
	"506": {
		"ID": 506,
		"ItemList": [
			{
				"GoodsType": "GoodsType_Item",
				"Id": 4001,
				"Count": 1
			}
		]
	},
	"835": {
		"ID": 835,
		"ItemList": [
			{
				"GoodsType": "GoodsType_Crystal",
				"Id": 0,
				"Count": 200
			}
		]
	},
	"836": {
		"ID": 836,
		"ItemList": [
			{
				"GoodsType": "GoodsType_Crystal",
				"Id": 0,
				"Count": 300
			}
		]
	},
	"837": {
		"ID": 837,
		"ItemList": [
			{
				"GoodsType": "GoodsType_Crystal",
				"Id": 0,
				"Count": 400
			}
		]
	},
	"838": {
		"ID": 838,
		"ItemList": [
			{
				"GoodsType": "GoodsType_Crystal",
				"Id": 0,
				"Count": 500
			}
		]
	},
	"839": {
		"ID": 839,
		"ItemList": [
			{
				"GoodsType": "GoodsType_Crystal",
				"Id": 0,
				"Count": 600
			}
		]
	},
	"840": {
		"ID": 840,
		"ItemList": [
			{
				"GoodsType": "GoodsType_Crystal",
				"Id": 0,
				"Count": 700
			}
		]
	},
	"841": {
		"ID": 841,
		"ItemList": [
			{
				"GoodsType": "GoodsType_Crystal",
				"Id": 0,
				"Count": 800
			}
		]
	},
	"893": {
		"ID": 893,
		"ItemList": [
			{
				"GoodsType": "GoodsType_Item",
				"Id": 3203,
				"Count": 2
			}
		]
	},
	"894": {
		"ID": 894,
		"ItemList": [
			{
				"GoodsType": "GoodsType_Item",
				"Id": 4502,
				"Count": 1
			}
		]
	},
	"895": {
		"ID": 895,
		"ItemList": [
			{
				"GoodsType": "GoodsType_Equipment",
				"Id": 308,
				"Count": 1
			}
		]
	},
	"896": {
		"ID": 896,
		"ItemList": [
			{
				"GoodsType": "GoodsType_Item",
				"Id": 4001,
				"Count": 1
			}
		]
	},
	"897": {
		"ID": 897,
		"ItemList": [
			{
				"GoodsType": "GoodsType_Gold",
				"Id": 0,
				"Count": 80000
			}
		]
	},
	"898": {
		"ID": 898,
		"ItemList": [
			{
				"GoodsType": "GoodsType_Equipment",
				"Id": 304,
				"Count": 2
			}
		]
	},
	"899": {
		"ID": 899,
		"ItemList": [
			{
				"GoodsType": "GoodsType_Item",
				"Id": 60016,
				"Count": 1
			}
		]
	},
	"900": {
		"ID": 900,
		"ItemList": [
			{
				"GoodsType": "GoodsType_Item",
				"Id": 60015,
				"Count": 20
			}
		]
	},
	"901": {
		"ID": 901,
		"ItemList": [
			{
				"GoodsType": "GoodsType_Item",
				"Id": 60015,
				"Count": 30
			}
		]
	},
	"902": {
		"ID": 902,
		"ItemList": [
			{
				"GoodsType": "GoodsType_Item",
				"Id": 60015,
				"Count": 60
			}
		]
	},
	"903": {
		"ID": 903,
		"ItemList": [
			{
				"GoodsType": "GoodsType_Item",
				"Id": 60015,
				"Count": 15
			}
		]
	},
	"904": {
		"ID": 904,
		"ItemList": [
			{
				"GoodsType": "GoodsType_Item",
				"Id": 60015,
				"Count": 15
			}
		]
	},
	"905": {
		"ID": 905,
		"ItemList": [
			{
				"GoodsType": "GoodsType_Item",
				"Id": 60015,
				"Count": 15
			}
		]
	},
	"906": {
		"ID": 906,
		"ItemList": [
			{
				"GoodsType": "GoodsType_Item",
				"Id": 60015,
				"Count": 3
			}
		]
	},
	"206": {
		"ID": 206,
		"ItemList": [
			{
				"GoodsType": "GoodsType_Gold",
				"Id": 0,
				"Count": 80000
			}
		]
	},
	"207": {
		"ID": 207,
		"ItemList": [
			{
				"GoodsType": "GoodsType_Item",
				"Id": 4001,
				"Count": 2
			}
		]
	},
	"208": {
		"ID": 208,
		"ItemList": [
			{
				"GoodsType": "GoodsType_Item",
				"Id": 3203,
				"Count": 10
			}
		]
	},
	"209": {
		"ID": 209,
		"ItemList": [
			{
				"GoodsType": "GoodsType_Item",
				"Id": 3009,
				"Count": 1
			}
		]
	},
	"210": {
		"ID": 210,
		"ItemList": [
			{
				"GoodsType": "GoodsType_HeadFrame",
				"Id": 51,
				"Count": 1
			},
			{
				"GoodsType": "GoodsType_Item",
				"Id": 4013,
				"Count": 1
			}
		]
	},
	"211": {
		"ID": 211,
		"ItemList": [
			{
				"GoodsType": "GoodsType_Item",
				"Id": 4542,
				"Count": 1
			}
		]
	},
	"212": {
		"ID": 212,
		"ItemList": [
			{
				"GoodsType": "GoodsType_Gold",
				"Id": 0,
				"Count": 80000
			}
		]
	},
	"213": {
		"ID": 213,
		"ItemList": [
			{
				"GoodsType": "GoodsType_Item",
				"Id": 4001,
				"Count": 2
			}
		]
	},
	"214": {
		"ID": 214,
		"ItemList": [
			{
				"GoodsType": "GoodsType_Item",
				"Id": 3203,
				"Count": 10
			}
		]
	},
	"215": {
		"ID": 215,
		"ItemList": [
			{
				"GoodsType": "GoodsType_Item",
				"Id": 3009,
				"Count": 1
			}
		]
	},
	"216": {
		"ID": 216,
		"ItemList": [
			{
				"GoodsType": "GoodsType_HeadFrame",
				"Id": 55,
				"Count": 1
			},
			{
				"GoodsType": "GoodsType_Item",
				"Id": 4013,
				"Count": 1
			}
		]
	},
	"217": {
		"ID": 217,
		"ItemList": [
			{
				"GoodsType": "GoodsType_Item",
				"Id": 4544,
				"Count": 1
			}
		]
	},
	"225": {
		"ID": 225,
		"ItemList": [
			{
				"GoodsType": "GoodsType_Gold",
				"Id": 0,
				"Count": 80000
			}
		]
	},
	"226": {
		"ID": 226,
		"ItemList": [
			{
				"GoodsType": "GoodsType_Item",
				"Id": 4001,
				"Count": 2
			}
		]
	},
	"227": {
		"ID": 227,
		"ItemList": [
			{
				"GoodsType": "GoodsType_Item",
				"Id": 3203,
				"Count": 10
			}
		]
	},
	"228": {
		"ID": 228,
		"ItemList": [
			{
				"GoodsType": "GoodsType_Item",
				"Id": 3009,
				"Count": 1
			}
		]
	},
	"229": {
		"ID": 229,
		"ItemList": [
			{
				"GoodsType": "GoodsType_HeadFrame",
				"Id": 56,
				"Count": 1
			},
			{
				"GoodsType": "GoodsType_Item",
				"Id": 4013,
				"Count": 1
			}
		]
	},
	"230": {
		"ID": 230,
		"ItemList": [
			{
				"GoodsType": "GoodsType_Item",
				"Id": 4547,
				"Count": 1
			}
		]
	},
	"231": {
		"ID": 231,
		"ItemList": [
			{
				"GoodsType": "GoodsType_Gold",
				"Id": 0,
				"Count": 80000
			}
		]
	},
	"232": {
		"ID": 232,
		"ItemList": [
			{
				"GoodsType": "GoodsType_Item",
				"Id": 4001,
				"Count": 2
			}
		]
	},
	"233": {
		"ID": 233,
		"ItemList": [
			{
				"GoodsType": "GoodsType_Item",
				"Id": 3203,
				"Count": 10
			}
		]
	},
	"234": {
		"ID": 234,
		"ItemList": [
			{
				"GoodsType": "GoodsType_Item",
				"Id": 3009,
				"Count": 1
			}
		]
	},
	"235": {
		"ID": 235,
		"ItemList": [
			{
				"GoodsType": "GoodsType_HeadFrame",
				"Id": 58,
				"Count": 1
			},
			{
				"GoodsType": "GoodsType_Item",
				"Id": 4013,
				"Count": 1
			}
		]
	},
	"236": {
		"ID": 236,
		"ItemList": [
			{
				"GoodsType": "GoodsType_Item",
				"Id": 4548,
				"Count": 1
			}
		]
	},
	"237": {
		"ID": 237,
		"ItemList": [
			{
				"GoodsType": "GoodsType_Crystal",
				"Id": 0,
				"Count": 50
			}
		]
	},
	"238": {
		"ID": 238,
		"ItemList": [
			{
				"GoodsType": "GoodsType_Item",
				"Id": 1078,
				"Count": 30
			}
		]
	},
	"239": {
		"ID": 239,
		"ItemList": [
			{
				"GoodsType": "GoodsType_Item",
				"Id": 4502,
				"Count": 2
			}
		]
	},
	"240": {
		"ID": 240,
		"ItemList": [
			{
				"GoodsType": "GoodsType_BrillianceMithralStone",
				"Id": 0,
				"Count": 100
			}
		]
	},
	"241": {
		"ID": 241,
		"ItemList": [
			{
				"GoodsType": "GoodsType_Item",
				"Id": 1078,
				"Count": 30
			}
		]
	},
	"242": {
		"ID": 242,
		"ItemList": [
			{
				"GoodsType": "GoodsType_Item",
				"Id": 4001,
				"Count": 2
			},
			{
				"GoodsType": "GoodsType_Item",
				"Id": 4503,
				"Count": 6
			},
			{
				"GoodsType": "GoodsType_Item",
				"Id": 4018,
				"Count": 1
			},
			{
				"GoodsType": "GoodsType_Item",
				"Id": 4020,
				"Count": 1
			}
		]
	},
	"243": {
		"ID": 243,
		"ItemList": [
			{
				"GoodsType": "GoodsType_Item",
				"Id": 4001,
				"Count": 2
			},
			{
				"GoodsType": "GoodsType_Gold",
				"Id": 0,
				"Count": 100000
			},
			{
				"GoodsType": "GoodsType_Item",
				"Id": 4019,
				"Count": 1
			},
			{
				"GoodsType": "GoodsType_Item",
				"Id": 4016,
				"Count": 1
			}
		]
	},
	"244": {
		"ID": 244,
		"ItemList": [
			{
				"GoodsType": "GoodsType_Item",
				"Id": 4001,
				"Count": 2
			},
			{
				"GoodsType": "GoodsType_Item",
				"Id": 4504,
				"Count": 4
			},
			{
				"GoodsType": "GoodsType_Item",
				"Id": 3503,
				"Count": 3
			}
		]
	},
	"245": {
		"ID": 245,
		"ItemList": [
			{
				"GoodsType": "GoodsType_Item",
				"Id": 4001,
				"Count": 1
			}
		]
	},
	"246": {
		"ID": 246,
		"ItemList": [
			{
				"GoodsType": "GoodsType_Item",
				"Id": 4001,
				"Count": 1
			}
		]
	},
	"247": {
		"ID": 247,
		"ItemList": [
			{
				"GoodsType": "GoodsType_Item",
				"Id": 4001,
				"Count": 1
			}
		]
	},
	"248": {
		"ID": 248,
		"ItemList": [
			{
				"GoodsType": "GoodsType_Item",
				"Id": 4001,
				"Count": 1
			}
		]
	}
}