{
	"1": {
		"ID": 1,
		"Exp": 10,
		"Energy": 0,
		"ArenaBuffID": 200,
		"PVPBuffID": 200
	},
	"2": {
		"ID": 2,
		"Exp": 15,
		"Energy": 0,
		"ArenaBuffID": 200,
		"PVPBuffID": 200
	},
	"3": {
		"ID": 3,
		"Exp": 20,
		"Energy": 0,
		"ArenaBuffID": 200,
		"PVPBuffID": 200
	},
	"4": {
		"ID": 4,
		"Exp": 25,
		"Energy": 10,
		"ArenaBuffID": 200,
		"PVPBuffID": 200
	},
	"5": {
		"ID": 5,
		"Exp": 30,
		"Energy": 10,
		"ArenaBuffID": 200,
		"PVPBuffID": 200
	},
	"6": {
		"ID": 6,
		"Exp": 40,
		"Energy": 10,
		"ArenaBuffID": 200,
		"PVPBuffID": 200
	},
	"7": {
		"ID": 7,
		"Exp": 50,
		"Energy": 15,
		"ArenaBuffID": 200,
		"PVPBuffID": 200
	},
	"8": {
		"ID": 8,
		"Exp": 60,
		"Energy": 15,
		"ArenaBuffID": 200,
		"PVPBuffID": 200
	},
	"9": {
		"ID": 9,
		"Exp": 70,
		"Energy": 15,
		"ArenaBuffID": 200,
		"PVPBuffID": 200
	},
	"10": {
		"ID": 10,
		"Exp": 80,
		"Energy": 20,
		"ArenaBuffID": 200,
		"PVPBuffID": 200
	},
	"11": {
		"ID": 11,
		"Exp": 90,
		"Energy": 20,
		"ArenaBuffID": 200,
		"PVPBuffID": 200
	},
	"12": {
		"ID": 12,
		"Exp": 100,
		"Energy": 25,
		"ArenaBuffID": 200,
		"PVPBuffID": 200
	},
	"13": {
		"ID": 13,
		"Exp": 120,
		"Energy": 25,
		"ArenaBuffID": 200,
		"PVPBuffID": 200
	},
	"14": {
		"ID": 14,
		"Exp": 140,
		"Energy": 30,
		"ArenaBuffID": 200,
		"PVPBuffID": 200
	},
	"15": {
		"ID": 15,
		"Exp": 160,
		"Energy": 30,
		"ArenaBuffID": 200,
		"PVPBuffID": 200
	},
	"16": {
		"ID": 16,
		"Exp": 180,
		"Energy": 40,
		"ArenaBuffID": 200,
		"PVPBuffID": 200
	},
	"17": {
		"ID": 17,
		"Exp": 210,
		"Energy": 40,
		"ArenaBuffID": 200,
		"PVPBuffID": 200
	},
	"18": {
		"ID": 18,
		"Exp": 240,
		"Energy": 50,
		"ArenaBuffID": 200,
		"PVPBuffID": 200
	},
	"19": {
		"ID": 19,
		"Exp": 280,
		"Energy": 50,
		"ArenaBuffID": 200,
		"PVPBuffID": 200
	},
	"20": {
		"ID": 20,
		"Exp": 320,
		"Energy": 60,
		"ArenaBuffID": 200,
		"PVPBuffID": 200
	},
	"21": {
		"ID": 21,
		"Exp": 380,
		"Energy": 70,
		"ArenaBuffID": 200,
		"PVPBuffID": 200
	},
	"22": {
		"ID": 22,
		"Exp": 440,
		"Energy": 80,
		"ArenaBuffID": 200,
		"PVPBuffID": 200
	},
	"23": {
		"ID": 23,
		"Exp": 500,
		"Energy": 90,
		"ArenaBuffID": 200,
		"PVPBuffID": 200
	},
	"24": {
		"ID": 24,
		"Exp": 580,
		"Energy": 100,
		"ArenaBuffID": 200,
		"PVPBuffID": 200
	},
	"25": {
		"ID": 25,
		"Exp": 700,
		"Energy": 100,
		"ArenaBuffID": 200,
		"PVPBuffID": 200
	},
	"26": {
		"ID": 26,
		"Exp": 800,
		"Energy": 100,
		"ArenaBuffID": 215,
		"PVPBuffID": 215
	},
	"27": {
		"ID": 27,
		"Exp": 900,
		"Energy": 100,
		"ArenaBuffID": 215,
		"PVPBuffID": 215
	},
	"28": {
		"ID": 28,
		"Exp": 900,
		"Energy": 100,
		"ArenaBuffID": 215,
		"PVPBuffID": 215
	},
	"29": {
		"ID": 29,
		"Exp": 1000,
		"Energy": 100,
		"ArenaBuffID": 215,
		"PVPBuffID": 215
	},
	"30": {
		"ID": 30,
		"Exp": 1100,
		"Energy": 100,
		"ArenaBuffID": 215,
		"PVPBuffID": 215
	},
	"31": {
		"ID": 31,
		"Exp": 1100,
		"Energy": 100,
		"ArenaBuffID": 215,
		"PVPBuffID": 215
	},
	"32": {
		"ID": 32,
		"Exp": 1200,
		"Energy": 100,
		"ArenaBuffID": 215,
		"PVPBuffID": 215
	},
	"33": {
		"ID": 33,
		"Exp": 1300,
		"Energy": 100,
		"ArenaBuffID": 215,
		"PVPBuffID": 215
	},
	"34": {
		"ID": 34,
		"Exp": 1400,
		"Energy": 100,
		"ArenaBuffID": 215,
		"PVPBuffID": 215
	},
	"35": {
		"ID": 35,
		"Exp": 1400,
		"Energy": 100,
		"ArenaBuffID": 215,
		"PVPBuffID": 215
	},
	"36": {
		"ID": 36,
		"Exp": 1500,
		"Energy": 100,
		"ArenaBuffID": 215,
		"PVPBuffID": 215
	},
	"37": {
		"ID": 37,
		"Exp": 1600,
		"Energy": 100,
		"ArenaBuffID": 215,
		"PVPBuffID": 215
	},
	"38": {
		"ID": 38,
		"Exp": 1700,
		"Energy": 100,
		"ArenaBuffID": 215,
		"PVPBuffID": 215
	},
	"39": {
		"ID": 39,
		"Exp": 1800,
		"Energy": 100,
		"ArenaBuffID": 215,
		"PVPBuffID": 215
	},
	"40": {
		"ID": 40,
		"Exp": 1900,
		"Energy": 100,
		"ArenaBuffID": 215,
		"PVPBuffID": 215
	},
	"41": {
		"ID": 41,
		"Exp": 2000,
		"Energy": 100,
		"ArenaBuffID": 215,
		"PVPBuffID": 215
	},
	"42": {
		"ID": 42,
		"Exp": 2100,
		"Energy": 100,
		"ArenaBuffID": 215,
		"PVPBuffID": 215
	},
	"43": {
		"ID": 43,
		"Exp": 2200,
		"Energy": 100,
		"ArenaBuffID": 215,
		"PVPBuffID": 215
	},
	"44": {
		"ID": 44,
		"Exp": 2300,
		"Energy": 100,
		"ArenaBuffID": 215,
		"PVPBuffID": 215
	},
	"45": {
		"ID": 45,
		"Exp": 2400,
		"Energy": 100,
		"ArenaBuffID": 215,
		"PVPBuffID": 215
	},
	"46": {
		"ID": 46,
		"Exp": 2500,
		"Energy": 100,
		"ArenaBuffID": 215,
		"PVPBuffID": 215
	},
	"47": {
		"ID": 47,
		"Exp": 2600,
		"Energy": 100,
		"ArenaBuffID": 215,
		"PVPBuffID": 215
	},
	"48": {
		"ID": 48,
		"Exp": 2700,
		"Energy": 100,
		"ArenaBuffID": 215,
		"PVPBuffID": 215
	},
	"49": {
		"ID": 49,
		"Exp": 2700,
		"Energy": 100,
		"ArenaBuffID": 215,
		"PVPBuffID": 215
	},
	"50": {
		"ID": 50,
		"Exp": 2700,
		"Energy": 100,
		"ArenaBuffID": 215,
		"PVPBuffID": 215
	},
	"51": {
		"ID": 51,
		"Exp": 2700,
		"Energy": 100,
		"ArenaBuffID": 215,
		"PVPBuffID": 215
	},
	"52": {
		"ID": 52,
		"Exp": 3400,
		"Energy": 100,
		"ArenaBuffID": 215,
		"PVPBuffID": 215
	},
	"53": {
		"ID": 53,
		"Exp": 3400,
		"Energy": 100,
		"ArenaBuffID": 215,
		"PVPBuffID": 215
	},
	"54": {
		"ID": 54,
		"Exp": 3400,
		"Energy": 100,
		"ArenaBuffID": 215,
		"PVPBuffID": 215
	},
	"55": {
		"ID": 55,
		"Exp": 4000,
		"Energy": 100,
		"ArenaBuffID": 215,
		"PVPBuffID": 215
	},
	"56": {
		"ID": 56,
		"Exp": 4000,
		"Energy": 100,
		"ArenaBuffID": 215,
		"PVPBuffID": 215
	},
	"57": {
		"ID": 57,
		"Exp": 4000,
		"Energy": 100,
		"ArenaBuffID": 215,
		"PVPBuffID": 215
	},
	"58": {
		"ID": 58,
		"Exp": 4000,
		"Energy": 100,
		"ArenaBuffID": 215,
		"PVPBuffID": 215
	},
	"59": {
		"ID": 59,
		"Exp": 4000,
		"Energy": 100,
		"ArenaBuffID": 215,
		"PVPBuffID": 215
	},
	"60": {
		"ID": 60,
		"Exp": 5000,
		"Energy": 100,
		"ArenaBuffID": 215,
		"PVPBuffID": 215
	},
	"61": {
		"ID": 61,
		"Exp": 5000,
		"Energy": 100,
		"ArenaBuffID": 215,
		"PVPBuffID": 215
	},
	"62": {
		"ID": 62,
		"Exp": 0,
		"Energy": 100,
		"ArenaBuffID": 215,
		"PVPBuffID": 215
	},
	"63": {
		"ID": 63,
		"Exp": 5000,
		"Energy": 100,
		"ArenaBuffID": 215,
		"PVPBuffID": 215
	},
	"64": {
		"ID": 64,
		"Exp": 5000,
		"Energy": 100,
		"ArenaBuffID": 215,
		"PVPBuffID": 215
	},
	"65": {
		"ID": 65,
		"Exp": 5500,
		"Energy": 100,
		"ArenaBuffID": 215,
		"PVPBuffID": 215
	},
	"66": {
		"ID": 66,
		"Exp": 5500,
		"Energy": 100,
		"ArenaBuffID": 215,
		"PVPBuffID": 215
	},
	"67": {
		"ID": 67,
		"Exp": 5500,
		"Energy": 100,
		"ArenaBuffID": 215,
		"PVPBuffID": 215
	},
	"68": {
		"ID": 68,
		"Exp": 5500,
		"Energy": 100,
		"ArenaBuffID": 215,
		"PVPBuffID": 215
	},
	"69": {
		"ID": 69,
		"Exp": 6000,
		"Energy": 100,
		"ArenaBuffID": 215,
		"PVPBuffID": 215
	},
	"70": {
		"ID": 70,
		"Exp": 0,
		"Energy": 100,
		"ArenaBuffID": 215,
		"PVPBuffID": 215
	}
}