{
	"11": {
		"ID": 11,
		"Name": "Season 1 Champion",
		"Desc": "Apex Arena Season 1 Champion Title. Effective until Season 2 Elimination Match begins.\n*Title will appear on name card and team and chat interfaces.",
		"Rarity": 4,
		"ResourceLocation": "UI/PlayerTitle_ABS/S1Title_1Image.png",
		"FrameLocation": "UI/PlayerTitle_ABS/Peakarena_S2_Bgline1.png",
		"Icon": "UI/Icon/Item_ABS/Peakarena_Title1.png",
		"EndTime": "2/23/2020 23:59:59"
	},
	"12": {
		"ID": 12,
		"Name": "Season 1 Runner-up",
		"Desc": "Apex Arena Season 1 Runner-up Title. Effective until Season 2 Elimination Match begins.\n*Title will appear on name card and team and chat interfaces.",
		"Rarity": 4,
		"ResourceLocation": "UI/PlayerTitle_ABS/S1Title_2Image.png",
		"FrameLocation": "UI/PlayerTitle_ABS/Peakarena_S2_Bgline2.png",
		"Icon": "UI/Icon/Item_ABS/Peakarena_Title2.png",
		"EndTime": "2/23/2020 23:59:59"
	},
	"13": {
		"ID": 13,
		"Name": "Season 1 Top 4",
		"Desc": "Apex Arena Season 1 Top 4 Title. Effective until Season 2 Elimination Match begins.\n*Title will appear on name card and team and chat interfaces.",
		"Rarity": 4,
		"ResourceLocation": "UI/PlayerTitle_ABS/S1Title_2Image.png",
		"FrameLocation": "UI/PlayerTitle_ABS/Peakarena_S2_Bgline2.png",
		"Icon": "UI/Icon/Item_ABS/Peakarena_Title2.png",
		"EndTime": "2/23/2020 23:59:59"
	},
	"14": {
		"ID": 14,
		"Name": "Season 1 Top 8",
		"Desc": "Apex Arena Season 1 Top 8 Title. Effective until Season 2 Elimination Match begins.\n*Title will appear on name card and team and chat interfaces.",
		"Rarity": 4,
		"ResourceLocation": "UI/PlayerTitle_ABS/S1Title_3Image.png",
		"FrameLocation": "UI/PlayerTitle_ABS/Peakarena_S2_Bgline3.png",
		"Icon": "UI/Icon/Item_ABS/Peakarena_Title3.png",
		"EndTime": "2/23/2020 23:59:59"
	},
	"15": {
		"ID": 15,
		"Name": "Season 1 Top 16",
		"Desc": "Apex Arena Season 1 Top 16 Title. Effective until Season 2 Elimination Match begins.\n*Title will appear on name card and team and chat interfaces.",
		"Rarity": 4,
		"ResourceLocation": "UI/PlayerTitle_ABS/S1Title_3Image.png",
		"FrameLocation": "UI/PlayerTitle_ABS/Peakarena_S2_Bgline3.png",
		"Icon": "UI/Icon/Item_ABS/Peakarena_Title3.png",
		"EndTime": "2/23/2020 23:59:59"
	},
	"16": {
		"ID": 16,
		"Name": "Season 1 Top 32",
		"Desc": "Apex Arena Season 1 Top 32 Title. Effective until Season 2 Elimination Match begins.\n*Title will appear on name card and team and chat interfaces.",
		"Rarity": 4,
		"ResourceLocation": "UI/PlayerTitle_ABS/S1Title_4Image.png",
		"FrameLocation": "UI/PlayerTitle_ABS/Peakarena_S2_Bgline4.png",
		"Icon": "UI/Icon/Item_ABS/Peakarena_Title4.png",
		"EndTime": "2/23/2020 23:59:59"
	},
	"17": {
		"ID": 17,
		"Name": "Season 1 Top 64",
		"Desc": "Apex Arena Season 1 Top 64 Title. Effective until Season 2 Elimination Match begins.\n*Title will appear on name card and team and chat interfaces.",
		"Rarity": 4,
		"ResourceLocation": "UI/PlayerTitle_ABS/S1Title_4Image.png",
		"FrameLocation": "UI/PlayerTitle_ABS/Peakarena_S2_Bgline4.png",
		"Icon": "UI/Icon/Item_ABS/Peakarena_Title4.png",
		"EndTime": "2/23/2020 23:59:59"
	},
	"18": {
		"ID": 18,
		"Name": "Season 1 Top 128",
		"Desc": "Apex Arena Season 1 Top 128 Title. Effective until Season 2 Elimination Match begins.\n*Title will appear on name card and team and chat interfaces.",
		"Rarity": 4,
		"ResourceLocation": "UI/PlayerTitle_ABS/S1Title_5Image.png",
		"FrameLocation": "UI/PlayerTitle_ABS/Peakarena_S2_Bgline5.png",
		"Icon": "UI/Icon/Item_ABS/Peakarena_Title5.png",
		"EndTime": "2/23/2020 23:59:59"
	},
	"19": {
		"ID": 19,
		"Name": "Season 1 Top 256",
		"Desc": "Apex Arena Season 1 Top 256 Title. Effective until Season 2 Elimination Match begins.\n*Title will appear on name card and team and chat interfaces.",
		"Rarity": 4,
		"ResourceLocation": "UI/PlayerTitle_ABS/S1Title_5Image.png",
		"FrameLocation": "UI/PlayerTitle_ABS/Peakarena_S2_Bgline5.png",
		"Icon": "UI/Icon/Item_ABS/Peakarena_Title5.png",
		"EndTime": "2/23/2020 23:59:59"
	},
	"21": {
		"ID": 21,
		"Name": "Season 2 Champion",
		"Desc": "Ultimate Arena Season 2 Champion Title. Effective until Season 3 Elimination Match. \n*Title will appear on name card, team, and chat interface.",
		"Rarity": 4,
		"ResourceLocation": "UI/PlayerTitle_ABS/S1Title_1Image.png",
		"FrameLocation": "UI/PlayerTitle_ABS/Peakarena_S2_Bgline1.png",
		"Icon": "UI/Icon/Item_ABS/Peakarena_S2_Title1.png",
		"EndTime": "12/31/2019 23:59:59"
	},
	"22": {
		"ID": 22,
		"Name": "Season 2 Runner-up",
		"Desc": "Ultimate Arena Season 2 Runner-up Title. Effective until Season 3 Elimination Match. \n*Title will appear on name card, team, and chat interface.",
		"Rarity": 4,
		"ResourceLocation": "UI/PlayerTitle_ABS/S1Title_2Image.png",
		"FrameLocation": "UI/PlayerTitle_ABS/Peakarena_S2_Bgline2.png",
		"Icon": "UI/Icon/Item_ABS/Peakarena_S2_Title2.png",
		"EndTime": "12/31/2019 23:59:59"
	},
	"23": {
		"ID": 23,
		"Name": "Season 2 Top 4",
		"Desc": "Ultimate Arena Season 2 Top 4 Title. Effective until Season 3 Elimination Match. \n*Title will appear on name card, team, and chat interface.",
		"Rarity": 4,
		"ResourceLocation": "UI/PlayerTitle_ABS/S1Title_3Image.png",
		"FrameLocation": "UI/PlayerTitle_ABS/Peakarena_S2_Bgline3.png",
		"Icon": "UI/Icon/Item_ABS/Peakarena_S2_Title2.png",
		"EndTime": "12/31/2019 23:59:59"
	},
	"24": {
		"ID": 24,
		"Name": "Season 2 Top 8",
		"Desc": "Ultimate Arena Season 2 Top 8 Title. Effective until Season 3 Elimination Match. \n*Title will appear on name card, team, and chat interface.",
		"Rarity": 4,
		"ResourceLocation": "UI/PlayerTitle_ABS/S1Title_4Image.png",
		"FrameLocation": "UI/PlayerTitle_ABS/Peakarena_S2_Bgline4.png",
		"Icon": "UI/Icon/Item_ABS/Peakarena_S2_Title3.png",
		"EndTime": "12/31/2019 23:59:59"
	},
	"25": {
		"ID": 25,
		"Name": "Season 2 Top 16",
		"Desc": "Ultimate Arena Season 2 Top 16 Title. Effective until Season 3 Elimination Match. \n*Title will appear on name card, team, and chat interface.",
		"Rarity": 4,
		"ResourceLocation": "UI/PlayerTitle_ABS/S1Title_5Image.png",
		"FrameLocation": "UI/PlayerTitle_ABS/Peakarena_S2_Bgline5.png",
		"Icon": "UI/Icon/Item_ABS/Peakarena_S2_Title3.png",
		"EndTime": "12/31/2019 23:59:59"
	},
	"26": {
		"ID": 26,
		"Name": "Season 2 Top 32",
		"Desc": "Ultimate Arena Season 2 Top 32 Title. Effective until Season 3 Elimination Match. \n*Title will appear on name card, team, and chat interface.",
		"Rarity": 4,
		"ResourceLocation": "UI/PlayerTitle_ABS/S1Title_6Image.png",
		"FrameLocation": "UI/PlayerTitle_ABS/Peakarena_S2_Bgline6.png",
		"Icon": "UI/Icon/Item_ABS/Peakarena_S2_Title4.png",
		"EndTime": "12/31/2019 23:59:59"
	},
	"27": {
		"ID": 27,
		"Name": "Season 2 Top 64",
		"Desc": "Ultimate Arena Season 2 Top 64 Title. Effective until Season 3 Elimination Match. \n*Title will appear on name card, team, and chat interface.",
		"Rarity": 4,
		"ResourceLocation": "UI/PlayerTitle_ABS/S1Title_7Image.png",
		"FrameLocation": "UI/PlayerTitle_ABS/Peakarena_S2_Bgline7.png",
		"Icon": "UI/Icon/Item_ABS/Peakarena_S2_Title4.png",
		"EndTime": "12/31/2019 23:59:59"
	},
	"28": {
		"ID": 28,
		"Name": "Season 2 Top 128",
		"Desc": "Ultimate Arena Season 2 Top 128 Title. Effective until Season 3 Elimination Match. \n*Title will appear on name card, team, and chat interface.",
		"Rarity": 4,
		"ResourceLocation": "UI/PlayerTitle_ABS/S1Title_8Image.png",
		"FrameLocation": "UI/PlayerTitle_ABS/Peakarena_S2_Bgline8.png",
		"Icon": "UI/Icon/Item_ABS/Peakarena_S2_Title5.png",
		"EndTime": "12/31/2019 23:59:59"
	},
	"29": {
		"ID": 29,
		"Name": "Season 2 Top 256",
		"Desc": "Ultimate Arena Season 2 Top 256 Title. Effective until Season 3 Elimination Match. \n*Title will appear on name card, team, and chat interface.",
		"Rarity": 4,
		"ResourceLocation": "UI/PlayerTitle_ABS/S1Title_9Image.png",
		"FrameLocation": "UI/PlayerTitle_ABS/Peakarena_S2_Bgline9.png",
		"Icon": "UI/Icon/Item_ABS/Peakarena_S2_Title5.png",
		"EndTime": "12/31/2019 23:59:59"
	},
	"31": {
		"ID": 31,
		"Name": "S3赛季冠军",
		"Desc": "巅峰竞技场S3赛季冠军称号。生效至S4赛季淘汰赛为止。\n*称号会在名片、组队、聊天界面中显示。",
		"Rarity": 4,
		"ResourceLocation": "UI/PlayerTitle_ABS/S1Title_1Image.png",
		"FrameLocation": "UI/PlayerTitle_ABS/Peakarena_S2_Bgline1.png",
		"Icon": "UI/Icon/Item_ABS/Peakarena_Title1.png",
		"EndTime": "3/27/2020 23:59:59"
	},
	"32": {
		"ID": 32,
		"Name": "S3赛季亚军",
		"Desc": "巅峰竞技场S3赛季亚军称号。生效至S4赛季淘汰赛为止。\n*称号会在名片、组队、聊天界面中显示。",
		"Rarity": 4,
		"ResourceLocation": "UI/PlayerTitle_ABS/S1Title_2Image.png",
		"FrameLocation": "UI/PlayerTitle_ABS/Peakarena_S2_Bgline2.png",
		"Icon": "UI/Icon/Item_ABS/Peakarena_Title2.png",
		"EndTime": "3/27/2020 23:59:59"
	},
	"33": {
		"ID": 33,
		"Name": "S3赛季4强",
		"Desc": "巅峰竞技场S3赛季4强称号。生效至S4赛季淘汰赛为止。\n*称号会在名片、组队、聊天界面中显示。",
		"Rarity": 4,
		"ResourceLocation": "UI/PlayerTitle_ABS/S1Title_3Image.png",
		"FrameLocation": "UI/PlayerTitle_ABS/Peakarena_S2_Bgline3.png",
		"Icon": "UI/Icon/Item_ABS/Peakarena_Title3.png",
		"EndTime": "3/27/2020 23:59:59"
	},
	"34": {
		"ID": 34,
		"Name": "S3赛季8强",
		"Desc": "巅峰竞技场S3赛季8强称号。生效至S4赛季淘汰赛为止。\n*称号会在名片、组队、聊天界面中显示。",
		"Rarity": 4,
		"ResourceLocation": "UI/PlayerTitle_ABS/S1Title_4Image.png",
		"FrameLocation": "UI/PlayerTitle_ABS/Peakarena_S2_Bgline4.png",
		"Icon": "UI/Icon/Item_ABS/Peakarena_Title4.png",
		"EndTime": "3/27/2020 23:59:59"
	},
	"35": {
		"ID": 35,
		"Name": "S3赛季16强",
		"Desc": "巅峰竞技场S3赛季16强称号。生效至S4赛季淘汰赛为止。\n*称号会在名片、组队、聊天界面中显示。",
		"Rarity": 4,
		"ResourceLocation": "UI/PlayerTitle_ABS/S1Title_5Image.png",
		"FrameLocation": "UI/PlayerTitle_ABS/Peakarena_S2_Bgline5.png",
		"Icon": "UI/Icon/Item_ABS/Peakarena_Title5.png",
		"EndTime": "3/27/2020 23:59:59"
	},
	"36": {
		"ID": 36,
		"Name": "S3赛季32强",
		"Desc": "巅峰竞技场S3赛季32强称号。生效至S4赛季淘汰赛为止。\n*称号会在名片、组队、聊天界面中显示。",
		"Rarity": 4,
		"ResourceLocation": "UI/PlayerTitle_ABS/S1Title_6Image.png",
		"FrameLocation": "UI/PlayerTitle_ABS/Peakarena_S2_Bgline6.png",
		"Icon": "UI/Icon/Item_ABS/Peakarena_Title6.png",
		"EndTime": "3/27/2020 23:59:59"
	},
	"37": {
		"ID": 37,
		"Name": "S3赛季64强",
		"Desc": "巅峰竞技场S3赛季64强称号。生效至S4赛季淘汰赛为止。\n*称号会在名片、组队、聊天界面中显示。",
		"Rarity": 4,
		"ResourceLocation": "UI/PlayerTitle_ABS/S1Title_7Image.png",
		"FrameLocation": "UI/PlayerTitle_ABS/Peakarena_S2_Bgline7.png",
		"Icon": "UI/Icon/Item_ABS/Peakarena_Title7.png",
		"EndTime": "3/27/2020 23:59:59"
	},
	"38": {
		"ID": 38,
		"Name": "S3赛季128强",
		"Desc": "巅峰竞技场S3赛季128强称号。生效至S4赛季淘汰赛为止。\n*称号会在名片、组队、聊天界面中显示。",
		"Rarity": 4,
		"ResourceLocation": "UI/PlayerTitle_ABS/S1Title_8Image.png",
		"FrameLocation": "UI/PlayerTitle_ABS/Peakarena_S2_Bgline8.png",
		"Icon": "UI/Icon/Item_ABS/Peakarena_Title8.png",
		"EndTime": "3/27/2020 23:59:59"
	},
	"39": {
		"ID": 39,
		"Name": "S3赛季256强",
		"Desc": "巅峰竞技场S3赛季256强称号。生效至S4赛季淘汰赛为止。\n*称号会在名片、组队、聊天界面中显示。",
		"Rarity": 4,
		"ResourceLocation": "UI/PlayerTitle_ABS/S1Title_9Image.png",
		"FrameLocation": "UI/PlayerTitle_ABS/Peakarena_S2_Bgline9.png",
		"Icon": "UI/Icon/Item_ABS/Peakarena_Title9.png",
		"EndTime": "3/27/2020 23:59:59"
	}
}