{
	"1": {
		"ID": 1,
		"Name": "Basic Training",
		"Resource": [
			"UI",
			"Icon",
			"Item_ABS",
			"Item_StarterPack.png"
		],
		"RoomID": 1,
		"RoomLevel": 1,
		"Techs": [
			101,
			102,
			103,
			105,
			104,
			106,
			108,
			107
		],
		"SkillTreeName": "InfantryST"
	},
	"2": {
		"ID": 2,
		"Name": "Advanced Training",
		"Resource": [
			"UI",
			"Icon",
			"Item_ABS",
			"Item_StarterPack.png"
		],
		"RoomID": 1,
		"RoomLevel": 5,
		"Techs": [
			109,
			111,
			110,
			114,
			112,
			113,
			117,
			115,
			116
		],
		"SkillTreeName": "InfantryATK"
	},
	"3": {
		"ID": 3,
		"Name": "Elite Training",
		"Resource": [
			"UI",
			"Icon",
			"Item_ABS",
			"Item_StarterPack.png"
		],
		"RoomID": 1,
		"RoomLevel": 8,
		"Techs": [
			118,
			119,
			120,
			121,
			122,
			123,
			126,
			125,
			124
		],
		"SkillTreeName": "InfantryDF"
	},
	"4": {
		"ID": 4,
		"Name": "Basic Training",
		"Resource": [
			"UI",
			"Icon",
			"Item_ABS",
			"Item_StarterPack.png"
		],
		"RoomID": 2,
		"RoomLevel": 1,
		"Techs": [
			201,
			202,
			203,
			206,
			205,
			204,
			207,
			208
		],
		"SkillTreeName": "SpearmanST"
	},
	"5": {
		"ID": 5,
		"Name": "Advanced Training",
		"Resource": [
			"UI",
			"Icon",
			"Item_ABS",
			"Item_StarterPack.png"
		],
		"RoomID": 2,
		"RoomLevel": 5,
		"Techs": [
			209,
			210,
			211,
			212,
			213,
			214,
			216,
			215
		],
		"SkillTreeName": "SpearmanATK"
	},
	"6": {
		"ID": 6,
		"Name": "Elite Training",
		"Resource": [
			"UI",
			"Icon",
			"Item_ABS",
			"Item_StarterPack.png"
		],
		"RoomID": 2,
		"RoomLevel": 8,
		"Techs": [
			217,
			219,
			218,
			220,
			222,
			221,
			223,
			224
		],
		"SkillTreeName": "SpearmanDF"
	},
	"7": {
		"ID": 7,
		"Name": "Basic Training",
		"Resource": [
			"UI",
			"Icon",
			"Item_ABS",
			"Item_StarterPack.png"
		],
		"RoomID": 3,
		"RoomLevel": 1,
		"Techs": [
			301,
			302,
			303,
			306,
			305,
			304,
			307,
			308
		],
		"SkillTreeName": "CavalrymanST"
	},
	"8": {
		"ID": 8,
		"Name": "Advanced Training",
		"Resource": [
			"UI",
			"Icon",
			"Item_ABS",
			"Item_StarterPack.png"
		],
		"RoomID": 3,
		"RoomLevel": 5,
		"Techs": [
			309,
			311,
			310,
			312,
			313,
			314,
			316,
			315
		],
		"SkillTreeName": "CavalrymanATK"
	},
	"9": {
		"ID": 9,
		"Name": "Elite Training",
		"Resource": [
			"UI",
			"Icon",
			"Item_ABS",
			"Item_StarterPack.png"
		],
		"RoomID": 3,
		"RoomLevel": 8,
		"Techs": [
			317,
			318,
			319,
			320,
			321,
			322,
			323,
			324,
			325
		],
		"SkillTreeName": "CavalrymanDF"
	},
	"10": {
		"ID": 10,
		"Name": "Basic Training",
		"Resource": [
			"UI",
			"Icon",
			"Item_ABS",
			"Item_StarterPack.png"
		],
		"RoomID": 4,
		"RoomLevel": 1,
		"Techs": [
			401,
			402,
			405,
			403,
			404,
			406,
			407,
			409,
			410,
			408
		],
		"SkillTreeName": "SailorST"
	},
	"11": {
		"ID": 11,
		"Name": "Advanced Training",
		"Resource": [
			"UI",
			"Icon",
			"Item_ABS",
			"Item_StarterPack.png"
		],
		"RoomID": 4,
		"RoomLevel": 5,
		"Techs": [
			411,
			413,
			412,
			414,
			415,
			416,
			417,
			418,
			419
		],
		"SkillTreeName": "SailorATK"
	},
	"12": {
		"ID": 12,
		"Name": "Elite Training",
		"Resource": [
			"UI",
			"Icon",
			"Item_ABS",
			"Item_StarterPack.png"
		],
		"RoomID": 4,
		"RoomLevel": 8,
		"Techs": [
			420,
			422,
			421,
			424,
			423,
			425,
			426,
			427,
			428,
			429
		],
		"SkillTreeName": "SailorDF"
	},
	"13": {
		"ID": 13,
		"Name": "Basic Training",
		"Resource": [
			"UI",
			"Icon",
			"Item_ABS",
			"Item_StarterPack.png"
		],
		"RoomID": 5,
		"RoomLevel": 1,
		"Techs": [
			501,
			504,
			502,
			503,
			505,
			506,
			507,
			508
		],
		"SkillTreeName": "ArcherST"
	},
	"14": {
		"ID": 14,
		"Name": "Advanced Training",
		"Resource": [
			"UI",
			"Icon",
			"Item_ABS",
			"Item_StarterPack.png"
		],
		"RoomID": 5,
		"RoomLevel": 5,
		"Techs": [
			509,
			511,
			510,
			514,
			512,
			513,
			515,
			516
		],
		"SkillTreeName": "ArcherATK"
	},
	"15": {
		"ID": 15,
		"Name": "Advanced Training 2",
		"Resource": [
			"UI",
			"Icon",
			"Item_ABS",
			"Item_StarterPack.png"
		],
		"RoomID": 5,
		"RoomLevel": 5,
		"Techs": [
			517,
			518,
			522,
			519,
			520,
			523,
			521,
			524
		],
		"SkillTreeName": "ArcherST2"
	},
	"16": {
		"ID": 16,
		"Name": "Elite Training",
		"Resource": [
			"UI",
			"Icon",
			"Item_ABS",
			"Item_StarterPack.png"
		],
		"RoomID": 5,
		"RoomLevel": 8,
		"Techs": [
			527,
			526,
			525,
			528,
			529,
			531,
			530,
			532
		],
		"SkillTreeName": "ArcherDF"
	},
	"17": {
		"ID": 17,
		"Name": "Basic Training",
		"Resource": [
			"UI",
			"Icon",
			"Item_ABS",
			"Item_StarterPack.png"
		],
		"RoomID": 6,
		"RoomLevel": 1,
		"Techs": [
			601,
			603,
			605,
			602,
			606,
			604,
			608,
			609,
			607
		],
		"SkillTreeName": "MonkST"
	},
	"18": {
		"ID": 18,
		"Name": "Advanced Training",
		"Resource": [
			"UI",
			"Icon",
			"Item_ABS",
			"Item_StarterPack.png"
		],
		"RoomID": 6,
		"RoomLevel": 5,
		"Techs": [
			610,
			611,
			614,
			612,
			613,
			615,
			617,
			616
		],
		"SkillTreeName": "MonkST2"
	},
	"19": {
		"ID": 19,
		"Name": "Advanced Training 2",
		"Resource": [
			"UI",
			"Icon",
			"Item_ABS",
			"Item_StarterPack.png"
		],
		"RoomID": 6,
		"RoomLevel": 5,
		"Techs": [
			618,
			620,
			621,
			619,
			623,
			622,
			624,
			625
		],
		"SkillTreeName": "MonkATK"
	},
	"20": {
		"ID": 20,
		"Name": "Elite Training",
		"Resource": [
			"UI",
			"Icon",
			"Item_ABS",
			"Item_StarterPack.png"
		],
		"RoomID": 6,
		"RoomLevel": 8,
		"Techs": [
			627,
			626,
			630,
			628,
			629,
			631,
			633,
			634
		],
		"SkillTreeName": "MonkDF"
	},
	"21": {
		"ID": 21,
		"Name": "Elite Upgrade 2",
		"Resource": [
			"UI",
			"Icon",
			"Item_ABS",
			"Item_StarterPack.png"
		],
		"RoomID": 1,
		"RoomLevel": 12,
		"Techs": [
			127,
			128,
			129,
			130,
			131,
			132,
			133
		],
		"SkillTreeName": "InfantryST2"
	},
	"22": {
		"ID": 22,
		"Name": "Elite Upgrade 2",
		"Resource": [
			"UI",
			"Icon",
			"Item_ABS",
			"Item_StarterPack.png"
		],
		"RoomID": 2,
		"RoomLevel": 12,
		"Techs": [
			227,
			225,
			226,
			229,
			228,
			230,
			231
		],
		"SkillTreeName": "SpearmanST2"
	},
	"23": {
		"ID": 23,
		"Name": "Elite Upgrade 2",
		"Resource": [
			"UI",
			"Icon",
			"Item_ABS",
			"Item_StarterPack.png"
		],
		"RoomID": 3,
		"RoomLevel": 12,
		"Techs": [
			328,
			326,
			327,
			329,
			330,
			331,
			332
		],
		"SkillTreeName": "CavalrymanST2"
	},
	"24": {
		"ID": 24,
		"Name": "Elite Upgrade 2",
		"Resource": [
			"UI",
			"Icon",
			"Item_ABS",
			"Item_StarterPack.png"
		],
		"RoomID": 4,
		"RoomLevel": 12,
		"Techs": [
			430,
			431,
			433,
			432,
			434,
			435,
			436
		],
		"SkillTreeName": "SailorST2"
	},
	"25": {
		"ID": 25,
		"Name": "Elite Upgrade 2",
		"Resource": [
			"UI",
			"Icon",
			"Item_ABS",
			"Item_StarterPack.png"
		],
		"RoomID": 5,
		"RoomLevel": 12,
		"Techs": [
			533,
			535,
			534,
			536,
			537,
			538,
			539
		],
		"SkillTreeName": "ArcherST3"
	},
	"26": {
		"ID": 26,
		"Name": "Elite Upgrade 2",
		"Resource": [
			"UI",
			"Icon",
			"Item_ABS",
			"Item_StarterPack.png"
		],
		"RoomID": 6,
		"RoomLevel": 12,
		"Techs": [
			635,
			637,
			636,
			639,
			638,
			640,
			642,
			641,
			643
		],
		"SkillTreeName": "MonkST3"
	}
}