{
	"1": {
		"ID": 1,
		"GroupId": 1,
		"Score": 100,
		"Name": "Phase 1",
		"RewardList": [
			{
				"GoodsType": "GoodsType_Item",
				"Id": 1012,
				"Count": 15
			},
			{
				"GoodsType": "GoodsType_Item",
				"Id": 3003,
				"Count": 1
			},
			{
				"GoodsType": "GoodsType_Item",
				"Id": 3100,
				"Count": 1
			},
			{
				"GoodsType": "GoodsType_Item",
				"Id": 3002,
				"Count": 2
			}
		],
		"RewardDisplayCount": 3
	},
	"2": {
		"ID": 2,
		"GroupId": 1,
		"Score": 200,
		"Name": "Phase 2",
		"RewardList": [
			{
				"GoodsType": "GoodsType_Item",
				"Id": 1012,
				"Count": 20
			},
			{
				"GoodsType": "GoodsType_Item",
				"Id": 3003,
				"Count": 2
			},
			{
				"GoodsType": "GoodsType_Item",
				"Id": 3101,
				"Count": 1
			},
			{
				"GoodsType": "GoodsType_Item",
				"Id": 3002,
				"Count": 5
			}
		],
		"RewardDisplayCount": 3
	},
	"3": {
		"ID": 3,
		"GroupId": 1,
		"Score": 500,
		"Name": "Phase 3",
		"RewardList": [
			{
				"GoodsType": "GoodsType_Item",
				"Id": 1012,
				"Count": 20
			},
			{
				"GoodsType": "GoodsType_Item",
				"Id": 3003,
				"Count": 3
			},
			{
				"GoodsType": "GoodsType_Item",
				"Id": 3101,
				"Count": 2
			},
			{
				"GoodsType": "GoodsType_Item",
				"Id": 3003,
				"Count": 1
			}
		],
		"RewardDisplayCount": 3
	},
	"4": {
		"ID": 4,
		"GroupId": 1,
		"Score": 1000,
		"Name": "Phase 4",
		"RewardList": [
			{
				"GoodsType": "GoodsType_Item",
				"Id": 1012,
				"Count": 20
			},
			{
				"GoodsType": "GoodsType_Item",
				"Id": 3003,
				"Count": 4
			},
			{
				"GoodsType": "GoodsType_Item",
				"Id": 3101,
				"Count": 3
			},
			{
				"GoodsType": "GoodsType_Item",
				"Id": 3003,
				"Count": 2
			}
		],
		"RewardDisplayCount": 3
	},
	"5": {
		"ID": 5,
		"GroupId": 1,
		"Score": 2000,
		"Name": "Phase 5",
		"RewardList": [
			{
				"GoodsType": "GoodsType_Item",
				"Id": 1025,
				"Count": 15
			},
			{
				"GoodsType": "GoodsType_Item",
				"Id": 3003,
				"Count": 1
			},
			{
				"GoodsType": "GoodsType_Item",
				"Id": 3100,
				"Count": 1
			},
			{
				"GoodsType": "GoodsType_Item",
				"Id": 3002,
				"Count": 2
			}
		],
		"RewardDisplayCount": 3
	},
	"6": {
		"ID": 6,
		"GroupId": 2,
		"Score": 100,
		"Name": "Phase 1",
		"RewardList": [
			{
				"GoodsType": "GoodsType_Item",
				"Id": 1020,
				"Count": 15
			},
			{
				"GoodsType": "GoodsType_Item",
				"Id": 3002,
				"Count": 3
			},
			{
				"GoodsType": "GoodsType_Item",
				"Id": 3100,
				"Count": 1
			},
			{
				"GoodsType": "GoodsType_Item",
				"Id": 3002,
				"Count": 1
			}
		],
		"RewardDisplayCount": 3
	},
	"7": {
		"ID": 7,
		"GroupId": 2,
		"Score": 200,
		"Name": "Phase 2",
		"RewardList": [
			{
				"GoodsType": "GoodsType_Item",
				"Id": 1020,
				"Count": 15
			},
			{
				"GoodsType": "GoodsType_Item",
				"Id": 3003,
				"Count": 1
			},
			{
				"GoodsType": "GoodsType_Item",
				"Id": 3100,
				"Count": 1
			},
			{
				"GoodsType": "GoodsType_Item",
				"Id": 3002,
				"Count": 2
			}
		],
		"RewardDisplayCount": 3
	},
	"8": {
		"ID": 8,
		"GroupId": 2,
		"Score": 500,
		"Name": "Phase 3",
		"RewardList": [
			{
				"GoodsType": "GoodsType_Item",
				"Id": 1020,
				"Count": 20
			},
			{
				"GoodsType": "GoodsType_Item",
				"Id": 3003,
				"Count": 2
			},
			{
				"GoodsType": "GoodsType_Item",
				"Id": 3101,
				"Count": 1
			},
			{
				"GoodsType": "GoodsType_Item",
				"Id": 3002,
				"Count": 5
			}
		],
		"RewardDisplayCount": 3
	},
	"9": {
		"ID": 9,
		"GroupId": 2,
		"Score": 1000,
		"Name": "Phase 4",
		"RewardList": [
			{
				"GoodsType": "GoodsType_Item",
				"Id": 1020,
				"Count": 20
			},
			{
				"GoodsType": "GoodsType_Item",
				"Id": 3003,
				"Count": 3
			},
			{
				"GoodsType": "GoodsType_Item",
				"Id": 3101,
				"Count": 2
			},
			{
				"GoodsType": "GoodsType_Item",
				"Id": 3003,
				"Count": 1
			}
		],
		"RewardDisplayCount": 3
	},
	"10": {
		"ID": 10,
		"GroupId": 2,
		"Score": 2000,
		"Name": "Phase 5",
		"RewardList": [
			{
				"GoodsType": "GoodsType_Item",
				"Id": 1009,
				"Count": 15
			},
			{
				"GoodsType": "GoodsType_Item",
				"Id": 3003,
				"Count": 1
			},
			{
				"GoodsType": "GoodsType_Item",
				"Id": 3100,
				"Count": 1
			},
			{
				"GoodsType": "GoodsType_Item",
				"Id": 3002,
				"Count": 2
			}
		],
		"RewardDisplayCount": 3
	},
	"11": {
		"ID": 11,
		"GroupId": 3,
		"Score": 70000,
		"Name": "Phase 47",
		"RewardList": [
			{
				"GoodsType": "GoodsType_Crystal",
				"Id": 0,
				"Count": 50
			}
		],
		"RewardDisplayCount": 3
	},
	"12": {
		"ID": 12,
		"GroupId": 3,
		"Score": 67500,
		"Name": "Phase 46",
		"RewardList": [
			{
				"GoodsType": "GoodsType_Gold",
				"Id": 0,
				"Count": 100000
			}
		],
		"RewardDisplayCount": 3
	},
	"13": {
		"ID": 13,
		"GroupId": 3,
		"Score": 65000,
		"Name": "Phase 45",
		"RewardList": [
			{
				"GoodsType": "GoodsType_Crystal",
				"Id": 0,
				"Count": 50
			}
		],
		"RewardDisplayCount": 3
	},
	"14": {
		"ID": 14,
		"GroupId": 3,
		"Score": 62500,
		"Name": "Phase 44",
		"RewardList": [
			{
				"GoodsType": "GoodsType_Item",
				"Id": 4026,
				"Count": 1
			}
		],
		"RewardDisplayCount": 3
	},
	"15": {
		"ID": 15,
		"GroupId": 3,
		"Score": 60000,
		"Name": "Phase 43",
		"RewardList": [
			{
				"GoodsType": "GoodsType_BrillianceMithralStone",
				"Id": 0,
				"Count": 100
			}
		],
		"RewardDisplayCount": 3
	},
	"16": {
		"ID": 16,
		"GroupId": 3,
		"Score": 57500,
		"Name": "Phase 42",
		"RewardList": [
			{
				"GoodsType": "GoodsType_Item",
				"Id": 3203,
				"Count": 5
			}
		],
		"RewardDisplayCount": 3
	},
	"17": {
		"ID": 17,
		"GroupId": 3,
		"Score": 55000,
		"Name": "Phase 41",
		"RewardList": [
			{
				"GoodsType": "GoodsType_Crystal",
				"Id": 0,
				"Count": 50
			}
		],
		"RewardDisplayCount": 3
	},
	"18": {
		"ID": 18,
		"GroupId": 3,
		"Score": 52500,
		"Name": "Phase 40",
		"RewardList": [
			{
				"GoodsType": "GoodsType_Item",
				"Id": 4001,
				"Count": 1
			}
		],
		"RewardDisplayCount": 3
	},
	"19": {
		"ID": 19,
		"GroupId": 3,
		"Score": 50000,
		"Name": "Phase 39",
		"RewardList": [
			{
				"GoodsType": "GoodsType_Gold",
				"Id": 0,
				"Count": 100000
			}
		],
		"RewardDisplayCount": 3
	},
	"20": {
		"ID": 20,
		"GroupId": 3,
		"Score": 47500,
		"Name": "Phase 38",
		"RewardList": [
			{
				"GoodsType": "GoodsType_Item",
				"Id": 4013,
				"Count": 1
			}
		],
		"RewardDisplayCount": 3
	},
	"21": {
		"ID": 21,
		"GroupId": 3,
		"Score": 45000,
		"Name": "Phase 37",
		"RewardList": [
			{
				"GoodsType": "GoodsType_Crystal",
				"Id": 0,
				"Count": 30
			}
		],
		"RewardDisplayCount": 3
	},
	"22": {
		"ID": 22,
		"GroupId": 3,
		"Score": 42500,
		"Name": "Phase 36",
		"RewardList": [
			{
				"GoodsType": "GoodsType_Item",
				"Id": 3005,
				"Count": 5
			}
		],
		"RewardDisplayCount": 3
	},
	"23": {
		"ID": 23,
		"GroupId": 3,
		"Score": 40000,
		"Name": "Phase 35",
		"RewardList": [
			{
				"GoodsType": "GoodsType_BrillianceMithralStone",
				"Id": 0,
				"Count": 100
			}
		],
		"RewardDisplayCount": 3
	},
	"24": {
		"ID": 24,
		"GroupId": 3,
		"Score": 37500,
		"Name": "Phase 34",
		"RewardList": [
			{
				"GoodsType": "GoodsType_Item",
				"Id": 4012,
				"Count": 1
			}
		],
		"RewardDisplayCount": 3
	},
	"25": {
		"ID": 25,
		"GroupId": 3,
		"Score": 35000,
		"Name": "Phase 33",
		"RewardList": [
			{
				"GoodsType": "GoodsType_Crystal",
				"Id": 0,
				"Count": 30
			}
		],
		"RewardDisplayCount": 3
	},
	"26": {
		"ID": 26,
		"GroupId": 3,
		"Score": 32500,
		"Name": "Phase 32",
		"RewardList": [
			{
				"GoodsType": "GoodsType_Item",
				"Id": 4026,
				"Count": 1
			}
		],
		"RewardDisplayCount": 3
	},
	"27": {
		"ID": 27,
		"GroupId": 3,
		"Score": 30000,
		"Name": "Phase 31",
		"RewardList": [
			{
				"GoodsType": "GoodsType_Item",
				"Id": 3202,
				"Count": 8
			}
		],
		"RewardDisplayCount": 3
	},
	"28": {
		"ID": 28,
		"GroupId": 3,
		"Score": 27500,
		"Name": "Phase 30",
		"RewardList": [
			{
				"GoodsType": "GoodsType_Gold",
				"Id": 0,
				"Count": 50000
			}
		],
		"RewardDisplayCount": 3
	},
	"29": {
		"ID": 29,
		"GroupId": 3,
		"Score": 25000,
		"Name": "Phase 29",
		"RewardList": [
			{
				"GoodsType": "GoodsType_Crystal",
				"Id": 0,
				"Count": 30
			}
		],
		"RewardDisplayCount": 3
	},
	"30": {
		"ID": 30,
		"GroupId": 3,
		"Score": 22500,
		"Name": "Phase 28",
		"RewardList": [
			{
				"GoodsType": "GoodsType_Item",
				"Id": 6012,
				"Count": 6
			},
			{
				"GoodsType": "GoodsType_Item",
				"Id": 6015,
				"Count": 6
			},
			{
				"GoodsType": "GoodsType_Item",
				"Id": 6018,
				"Count": 6
			}
		],
		"RewardDisplayCount": 3
	},
	"31": {
		"ID": 31,
		"GroupId": 3,
		"Score": 20000,
		"Name": "Phase 27",
		"RewardList": [
			{
				"GoodsType": "GoodsType_Item",
				"Id": 1009,
				"Count": 20
			}
		],
		"RewardDisplayCount": 3
	},
	"32": {
		"ID": 32,
		"GroupId": 3,
		"Score": 18000,
		"Name": "Phase 26",
		"RewardList": [
			{
				"GoodsType": "GoodsType_Item",
				"Id": 4001,
				"Count": 1
			}
		],
		"RewardDisplayCount": 3
	},
	"33": {
		"ID": 33,
		"GroupId": 3,
		"Score": 16000,
		"Name": "Phase 25",
		"RewardList": [
			{
				"GoodsType": "GoodsType_Crystal",
				"Id": 0,
				"Count": 30
			}
		],
		"RewardDisplayCount": 3
	},
	"34": {
		"ID": 34,
		"GroupId": 3,
		"Score": 14000,
		"Name": "Phase 24",
		"RewardList": [
			{
				"GoodsType": "GoodsType_Item",
				"Id": 6003,
				"Count": 6
			},
			{
				"GoodsType": "GoodsType_Item",
				"Id": 6006,
				"Count": 6
			},
			{
				"GoodsType": "GoodsType_Item",
				"Id": 6009,
				"Count": 6
			}
		],
		"RewardDisplayCount": 3
	},
	"35": {
		"ID": 35,
		"GroupId": 3,
		"Score": 12000,
		"Name": "Phase 23",
		"RewardList": [
			{
				"GoodsType": "GoodsType_Equipment",
				"Id": 304,
				"Count": 2
			}
		],
		"RewardDisplayCount": 3
	},
	"36": {
		"ID": 36,
		"GroupId": 3,
		"Score": 11000,
		"Name": "Phase 22",
		"RewardList": [
			{
				"GoodsType": "GoodsType_Item",
				"Id": 1009,
				"Count": 20
			}
		],
		"RewardDisplayCount": 3
	},
	"37": {
		"ID": 37,
		"GroupId": 3,
		"Score": 10000,
		"Name": "Phase 21",
		"RewardList": [
			{
				"GoodsType": "GoodsType_Crystal",
				"Id": 0,
				"Count": 20
			}
		],
		"RewardDisplayCount": 3
	},
	"38": {
		"ID": 38,
		"GroupId": 3,
		"Score": 9000,
		"Name": "Phase 20",
		"RewardList": [
			{
				"GoodsType": "GoodsType_Gold",
				"Id": 0,
				"Count": 50000
			}
		],
		"RewardDisplayCount": 3
	},
	"39": {
		"ID": 39,
		"GroupId": 3,
		"Score": 8000,
		"Name": "Phase 19",
		"RewardList": [
			{
				"GoodsType": "GoodsType_Item",
				"Id": 4001,
				"Count": 1
			}
		],
		"RewardDisplayCount": 3
	},
	"40": {
		"ID": 40,
		"GroupId": 3,
		"Score": 7000,
		"Name": "Phase 18",
		"RewardList": [
			{
				"GoodsType": "GoodsType_Item",
				"Id": 4012,
				"Count": 1
			}
		],
		"RewardDisplayCount": 3
	},
	"41": {
		"ID": 41,
		"GroupId": 3,
		"Score": 6000,
		"Name": "Phase 17",
		"RewardList": [
			{
				"GoodsType": "GoodsType_Crystal",
				"Id": 0,
				"Count": 20
			}
		],
		"RewardDisplayCount": 3
	},
	"42": {
		"ID": 42,
		"GroupId": 3,
		"Score": 5500,
		"Name": "Phase 16",
		"RewardList": [
			{
				"GoodsType": "GoodsType_Item",
				"Id": 3202,
				"Count": 5
			}
		],
		"RewardDisplayCount": 3
	},
	"43": {
		"ID": 43,
		"GroupId": 3,
		"Score": 5000,
		"Name": "Phase 15",
		"RewardList": [
			{
				"GoodsType": "GoodsType_Item",
				"Id": 6011,
				"Count": 8
			},
			{
				"GoodsType": "GoodsType_Item",
				"Id": 6014,
				"Count": 8
			},
			{
				"GoodsType": "GoodsType_Item",
				"Id": 6017,
				"Count": 8
			}
		],
		"RewardDisplayCount": 3
	},
	"44": {
		"ID": 44,
		"GroupId": 3,
		"Score": 4500,
		"Name": "Phase 14",
		"RewardList": [
			{
				"GoodsType": "GoodsType_Equipment",
				"Id": 303,
				"Count": 5
			}
		],
		"RewardDisplayCount": 3
	},
	"45": {
		"ID": 45,
		"GroupId": 3,
		"Score": 4000,
		"Name": "Phase 13",
		"RewardList": [
			{
				"GoodsType": "GoodsType_Crystal",
				"Id": 0,
				"Count": 20
			}
		],
		"RewardDisplayCount": 3
	},
	"46": {
		"ID": 46,
		"GroupId": 3,
		"Score": 3500,
		"Name": "Phase 12",
		"RewardList": [
			{
				"GoodsType": "GoodsType_Item",
				"Id": 3201,
				"Count": 12
			}
		],
		"RewardDisplayCount": 3
	},
	"47": {
		"ID": 47,
		"GroupId": 3,
		"Score": 3000,
		"Name": "Phase 11",
		"RewardList": [
			{
				"GoodsType": "GoodsType_Gold",
				"Id": 0,
				"Count": 30000
			}
		],
		"RewardDisplayCount": 3
	},
	"48": {
		"ID": 48,
		"GroupId": 3,
		"Score": 2500,
		"Name": "Phase 10",
		"RewardList": [
			{
				"GoodsType": "GoodsType_Item",
				"Id": 4001,
				"Count": 1
			}
		],
		"RewardDisplayCount": 3
	},
	"49": {
		"ID": 49,
		"GroupId": 3,
		"Score": 2000,
		"Name": "Phase 9",
		"RewardList": [
			{
				"GoodsType": "GoodsType_Crystal",
				"Id": 0,
				"Count": 10
			}
		],
		"RewardDisplayCount": 3
	},
	"50": {
		"ID": 50,
		"GroupId": 3,
		"Score": 1500,
		"Name": "Phase 8",
		"RewardList": [
			{
				"GoodsType": "GoodsType_Item",
				"Id": 1009,
				"Count": 20
			}
		],
		"RewardDisplayCount": 3
	},
	"51": {
		"ID": 51,
		"GroupId": 3,
		"Score": 1000,
		"Name": "Phase 7",
		"RewardList": [
			{
				"GoodsType": "GoodsType_Item",
				"Id": 6002,
				"Count": 8
			},
			{
				"GoodsType": "GoodsType_Item",
				"Id": 6005,
				"Count": 8
			},
			{
				"GoodsType": "GoodsType_Item",
				"Id": 6008,
				"Count": 8
			}
		],
		"RewardDisplayCount": 3
	},
	"52": {
		"ID": 52,
		"GroupId": 3,
		"Score": 700,
		"Name": "Phase 6",
		"RewardList": [
			{
				"GoodsType": "GoodsType_Item",
				"Id": 3503,
				"Count": 1
			}
		],
		"RewardDisplayCount": 3
	},
	"53": {
		"ID": 53,
		"GroupId": 3,
		"Score": 500,
		"Name": "Phase 5",
		"RewardList": [
			{
				"GoodsType": "GoodsType_Crystal",
				"Id": 0,
				"Count": 10
			}
		],
		"RewardDisplayCount": 3
	},
	"54": {
		"ID": 54,
		"GroupId": 3,
		"Score": 400,
		"Name": "Phase 4",
		"RewardList": [
			{
				"GoodsType": "GoodsType_Item",
				"Id": 3201,
				"Count": 8
			}
		],
		"RewardDisplayCount": 3
	},
	"55": {
		"ID": 55,
		"GroupId": 3,
		"Score": 300,
		"Name": "Phase 3",
		"RewardList": [
			{
				"GoodsType": "GoodsType_Item",
				"Id": 4001,
				"Count": 1
			}
		],
		"RewardDisplayCount": 3
	},
	"56": {
		"ID": 56,
		"GroupId": 3,
		"Score": 200,
		"Name": "Phase 2",
		"RewardList": [
			{
				"GoodsType": "GoodsType_Gold",
				"Id": 0,
				"Count": 20000
			}
		],
		"RewardDisplayCount": 3
	},
	"57": {
		"ID": 57,
		"GroupId": 3,
		"Score": 100,
		"Name": "Phase 1",
		"RewardList": [
			{
				"GoodsType": "GoodsType_Crystal",
				"Id": 0,
				"Count": 10
			}
		],
		"RewardDisplayCount": 3
	},
	"58": {
		"ID": 58,
		"GroupId": 4,
		"Score": 70000,
		"Name": "Phase 47",
		"RewardList": [
			{
				"GoodsType": "GoodsType_Crystal",
				"Id": 0,
				"Count": 50
			}
		],
		"RewardDisplayCount": 3
	},
	"59": {
		"ID": 59,
		"GroupId": 4,
		"Score": 67500,
		"Name": "Phase 46",
		"RewardList": [
			{
				"GoodsType": "GoodsType_Gold",
				"Id": 0,
				"Count": 100000
			}
		],
		"RewardDisplayCount": 3
	},
	"60": {
		"ID": 60,
		"GroupId": 4,
		"Score": 65000,
		"Name": "Phase 45",
		"RewardList": [
			{
				"GoodsType": "GoodsType_Crystal",
				"Id": 0,
				"Count": 50
			}
		],
		"RewardDisplayCount": 3
	},
	"61": {
		"ID": 61,
		"GroupId": 4,
		"Score": 62500,
		"Name": "Phase 44",
		"RewardList": [
			{
				"GoodsType": "GoodsType_Item",
				"Id": 4026,
				"Count": 1
			}
		],
		"RewardDisplayCount": 3
	},
	"62": {
		"ID": 62,
		"GroupId": 4,
		"Score": 60000,
		"Name": "Phase 43",
		"RewardList": [
			{
				"GoodsType": "GoodsType_BrillianceMithralStone",
				"Id": 0,
				"Count": 100
			}
		],
		"RewardDisplayCount": 3
	},
	"63": {
		"ID": 63,
		"GroupId": 4,
		"Score": 57500,
		"Name": "Phase 42",
		"RewardList": [
			{
				"GoodsType": "GoodsType_Item",
				"Id": 3203,
				"Count": 5
			}
		],
		"RewardDisplayCount": 3
	},
	"64": {
		"ID": 64,
		"GroupId": 4,
		"Score": 55000,
		"Name": "Phase 41",
		"RewardList": [
			{
				"GoodsType": "GoodsType_Crystal",
				"Id": 0,
				"Count": 50
			}
		],
		"RewardDisplayCount": 3
	},
	"65": {
		"ID": 65,
		"GroupId": 4,
		"Score": 52500,
		"Name": "Phase 40",
		"RewardList": [
			{
				"GoodsType": "GoodsType_Item",
				"Id": 4001,
				"Count": 1
			}
		],
		"RewardDisplayCount": 3
	},
	"66": {
		"ID": 66,
		"GroupId": 4,
		"Score": 50000,
		"Name": "Phase 39",
		"RewardList": [
			{
				"GoodsType": "GoodsType_Gold",
				"Id": 0,
				"Count": 100000
			}
		],
		"RewardDisplayCount": 3
	},
	"67": {
		"ID": 67,
		"GroupId": 4,
		"Score": 47500,
		"Name": "Phase 38",
		"RewardList": [
			{
				"GoodsType": "GoodsType_Item",
				"Id": 4013,
				"Count": 1
			}
		],
		"RewardDisplayCount": 3
	},
	"68": {
		"ID": 68,
		"GroupId": 4,
		"Score": 45000,
		"Name": "Phase 37",
		"RewardList": [
			{
				"GoodsType": "GoodsType_Crystal",
				"Id": 0,
				"Count": 30
			}
		],
		"RewardDisplayCount": 3
	},
	"69": {
		"ID": 69,
		"GroupId": 4,
		"Score": 42500,
		"Name": "Phase 36",
		"RewardList": [
			{
				"GoodsType": "GoodsType_Item",
				"Id": 3009,
				"Count": 1
			}
		],
		"RewardDisplayCount": 3
	},
	"70": {
		"ID": 70,
		"GroupId": 4,
		"Score": 40000,
		"Name": "Phase 35",
		"RewardList": [
			{
				"GoodsType": "GoodsType_BrillianceMithralStone",
				"Id": 0,
				"Count": 100
			}
		],
		"RewardDisplayCount": 3
	},
	"71": {
		"ID": 71,
		"GroupId": 4,
		"Score": 37500,
		"Name": "Phase 34",
		"RewardList": [
			{
				"GoodsType": "GoodsType_Item",
				"Id": 4012,
				"Count": 1
			}
		],
		"RewardDisplayCount": 3
	},
	"72": {
		"ID": 72,
		"GroupId": 4,
		"Score": 35000,
		"Name": "Phase 33",
		"RewardList": [
			{
				"GoodsType": "GoodsType_Crystal",
				"Id": 0,
				"Count": 30
			}
		],
		"RewardDisplayCount": 3
	},
	"73": {
		"ID": 73,
		"GroupId": 4,
		"Score": 32500,
		"Name": "Phase 32",
		"RewardList": [
			{
				"GoodsType": "GoodsType_Item",
				"Id": 4026,
				"Count": 1
			}
		],
		"RewardDisplayCount": 3
	},
	"74": {
		"ID": 74,
		"GroupId": 4,
		"Score": 30000,
		"Name": "Phase 31",
		"RewardList": [
			{
				"GoodsType": "GoodsType_HeroSkin",
				"Id": 3301,
				"Count": 1
			}
		],
		"RewardDisplayCount": 3
	},
	"75": {
		"ID": 75,
		"GroupId": 4,
		"Score": 27500,
		"Name": "Phase 30",
		"RewardList": [
			{
				"GoodsType": "GoodsType_Gold",
				"Id": 0,
				"Count": 50000
			}
		],
		"RewardDisplayCount": 3
	},
	"76": {
		"ID": 76,
		"GroupId": 4,
		"Score": 25000,
		"Name": "Phase 29",
		"RewardList": [
			{
				"GoodsType": "GoodsType_Crystal",
				"Id": 0,
				"Count": 30
			}
		],
		"RewardDisplayCount": 3
	},
	"77": {
		"ID": 77,
		"GroupId": 4,
		"Score": 22500,
		"Name": "Phase 28",
		"RewardList": [
			{
				"GoodsType": "GoodsType_Item",
				"Id": 6012,
				"Count": 6
			},
			{
				"GoodsType": "GoodsType_Item",
				"Id": 6015,
				"Count": 6
			},
			{
				"GoodsType": "GoodsType_Item",
				"Id": 6018,
				"Count": 6
			}
		],
		"RewardDisplayCount": 3
	},
	"78": {
		"ID": 78,
		"GroupId": 4,
		"Score": 20000,
		"Name": "Phase 27",
		"RewardList": [
			{
				"GoodsType": "GoodsType_Item",
				"Id": 4001,
				"Count": 1
			}
		],
		"RewardDisplayCount": 3
	},
	"79": {
		"ID": 79,
		"GroupId": 4,
		"Score": 18000,
		"Name": "Phase 26",
		"RewardList": [
			{
				"GoodsType": "GoodsType_Item",
				"Id": 1039,
				"Count": 20
			}
		],
		"RewardDisplayCount": 3
	},
	"80": {
		"ID": 80,
		"GroupId": 4,
		"Score": 16000,
		"Name": "Phase 25",
		"RewardList": [
			{
				"GoodsType": "GoodsType_Crystal",
				"Id": 0,
				"Count": 30
			}
		],
		"RewardDisplayCount": 3
	},
	"81": {
		"ID": 81,
		"GroupId": 4,
		"Score": 14000,
		"Name": "Phase 24",
		"RewardList": [
			{
				"GoodsType": "GoodsType_Item",
				"Id": 6003,
				"Count": 6
			},
			{
				"GoodsType": "GoodsType_Item",
				"Id": 6006,
				"Count": 6
			},
			{
				"GoodsType": "GoodsType_Item",
				"Id": 6009,
				"Count": 6
			}
		],
		"RewardDisplayCount": 3
	},
	"82": {
		"ID": 82,
		"GroupId": 4,
		"Score": 12000,
		"Name": "Phase 23",
		"RewardList": [
			{
				"GoodsType": "GoodsType_Equipment",
				"Id": 304,
				"Count": 2
			}
		],
		"RewardDisplayCount": 3
	},
	"83": {
		"ID": 83,
		"GroupId": 4,
		"Score": 11000,
		"Name": "Phase 22",
		"RewardList": [
			{
				"GoodsType": "GoodsType_Item",
				"Id": 3202,
				"Count": 8
			}
		],
		"RewardDisplayCount": 3
	},
	"84": {
		"ID": 84,
		"GroupId": 4,
		"Score": 10000,
		"Name": "Phase 21",
		"RewardList": [
			{
				"GoodsType": "GoodsType_Crystal",
				"Id": 0,
				"Count": 20
			}
		],
		"RewardDisplayCount": 3
	},
	"85": {
		"ID": 85,
		"GroupId": 4,
		"Score": 9000,
		"Name": "Phase 20",
		"RewardList": [
			{
				"GoodsType": "GoodsType_Gold",
				"Id": 0,
				"Count": 50000
			}
		],
		"RewardDisplayCount": 3
	},
	"86": {
		"ID": 86,
		"GroupId": 4,
		"Score": 8000,
		"Name": "Phase 19",
		"RewardList": [
			{
				"GoodsType": "GoodsType_Item",
				"Id": 4001,
				"Count": 1
			}
		],
		"RewardDisplayCount": 3
	},
	"87": {
		"ID": 87,
		"GroupId": 4,
		"Score": 7000,
		"Name": "Phase 18",
		"RewardList": [
			{
				"GoodsType": "GoodsType_Item",
				"Id": 4012,
				"Count": 1
			}
		],
		"RewardDisplayCount": 3
	},
	"88": {
		"ID": 88,
		"GroupId": 4,
		"Score": 6000,
		"Name": "Phase 17",
		"RewardList": [
			{
				"GoodsType": "GoodsType_Crystal",
				"Id": 0,
				"Count": 20
			}
		],
		"RewardDisplayCount": 3
	},
	"89": {
		"ID": 89,
		"GroupId": 4,
		"Score": 5500,
		"Name": "Phase 16",
		"RewardList": [
			{
				"GoodsType": "GoodsType_Item",
				"Id": 1039,
				"Count": 20
			}
		],
		"RewardDisplayCount": 3
	},
	"90": {
		"ID": 90,
		"GroupId": 4,
		"Score": 5000,
		"Name": "Phase 15",
		"RewardList": [
			{
				"GoodsType": "GoodsType_Item",
				"Id": 6011,
				"Count": 8
			},
			{
				"GoodsType": "GoodsType_Item",
				"Id": 6014,
				"Count": 8
			},
			{
				"GoodsType": "GoodsType_Item",
				"Id": 6017,
				"Count": 8
			}
		],
		"RewardDisplayCount": 3
	},
	"91": {
		"ID": 91,
		"GroupId": 4,
		"Score": 4500,
		"Name": "Phase 14",
		"RewardList": [
			{
				"GoodsType": "GoodsType_Equipment",
				"Id": 303,
				"Count": 5
			}
		],
		"RewardDisplayCount": 3
	},
	"92": {
		"ID": 92,
		"GroupId": 4,
		"Score": 4000,
		"Name": "Phase 13",
		"RewardList": [
			{
				"GoodsType": "GoodsType_Crystal",
				"Id": 0,
				"Count": 20
			}
		],
		"RewardDisplayCount": 3
	},
	"93": {
		"ID": 93,
		"GroupId": 4,
		"Score": 3500,
		"Name": "Phase 12",
		"RewardList": [
			{
				"GoodsType": "GoodsType_Item",
				"Id": 3201,
				"Count": 12
			}
		],
		"RewardDisplayCount": 3
	},
	"94": {
		"ID": 94,
		"GroupId": 4,
		"Score": 3000,
		"Name": "Phase 11",
		"RewardList": [
			{
				"GoodsType": "GoodsType_Gold",
				"Id": 0,
				"Count": 30000
			}
		],
		"RewardDisplayCount": 3
	},
	"95": {
		"ID": 95,
		"GroupId": 4,
		"Score": 2500,
		"Name": "Phase 10",
		"RewardList": [
			{
				"GoodsType": "GoodsType_Item",
				"Id": 4001,
				"Count": 1
			}
		],
		"RewardDisplayCount": 3
	},
	"96": {
		"ID": 96,
		"GroupId": 4,
		"Score": 2000,
		"Name": "Phase 9",
		"RewardList": [
			{
				"GoodsType": "GoodsType_Crystal",
				"Id": 0,
				"Count": 10
			}
		],
		"RewardDisplayCount": 3
	},
	"97": {
		"ID": 97,
		"GroupId": 4,
		"Score": 1500,
		"Name": "Phase 8",
		"RewardList": [
			{
				"GoodsType": "GoodsType_Item",
				"Id": 1039,
				"Count": 10
			}
		],
		"RewardDisplayCount": 3
	},
	"98": {
		"ID": 98,
		"GroupId": 4,
		"Score": 1000,
		"Name": "Phase 7",
		"RewardList": [
			{
				"GoodsType": "GoodsType_Item",
				"Id": 6002,
				"Count": 8
			},
			{
				"GoodsType": "GoodsType_Item",
				"Id": 6005,
				"Count": 8
			},
			{
				"GoodsType": "GoodsType_Item",
				"Id": 6008,
				"Count": 8
			}
		],
		"RewardDisplayCount": 3
	},
	"99": {
		"ID": 99,
		"GroupId": 4,
		"Score": 700,
		"Name": "Phase 6",
		"RewardList": [
			{
				"GoodsType": "GoodsType_Item",
				"Id": 3503,
				"Count": 1
			}
		],
		"RewardDisplayCount": 3
	},
	"100": {
		"ID": 100,
		"GroupId": 4,
		"Score": 500,
		"Name": "Phase 5",
		"RewardList": [
			{
				"GoodsType": "GoodsType_Crystal",
				"Id": 0,
				"Count": 10
			}
		],
		"RewardDisplayCount": 3
	},
	"101": {
		"ID": 101,
		"GroupId": 4,
		"Score": 400,
		"Name": "Phase 4",
		"RewardList": [
			{
				"GoodsType": "GoodsType_Item",
				"Id": 3201,
				"Count": 8
			}
		],
		"RewardDisplayCount": 3
	},
	"102": {
		"ID": 102,
		"GroupId": 4,
		"Score": 300,
		"Name": "Phase 3",
		"RewardList": [
			{
				"GoodsType": "GoodsType_Item",
				"Id": 4001,
				"Count": 1
			}
		],
		"RewardDisplayCount": 3
	},
	"103": {
		"ID": 103,
		"GroupId": 4,
		"Score": 200,
		"Name": "Phase 2",
		"RewardList": [
			{
				"GoodsType": "GoodsType_Gold",
				"Id": 0,
				"Count": 20000
			}
		],
		"RewardDisplayCount": 3
	},
	"104": {
		"ID": 104,
		"GroupId": 4,
		"Score": 100,
		"Name": "Phase 1",
		"RewardList": [
			{
				"GoodsType": "GoodsType_Crystal",
				"Id": 0,
				"Count": 10
			}
		],
		"RewardDisplayCount": 3
	},
	"105": {
		"ID": 105,
		"GroupId": 5,
		"Score": 90000,
		"Name": "Phase 47",
		"RewardList": [
			{
				"GoodsType": "GoodsType_Crystal",
				"Id": 0,
				"Count": 50
			}
		],
		"RewardDisplayCount": 3
	},
	"106": {
		"ID": 106,
		"GroupId": 5,
		"Score": 85000,
		"Name": "Phase 46",
		"RewardList": [
			{
				"GoodsType": "GoodsType_Gold",
				"Id": 0,
				"Count": 200000
			}
		],
		"RewardDisplayCount": 3
	},
	"107": {
		"ID": 107,
		"GroupId": 5,
		"Score": 81000,
		"Name": "Phase 45",
		"RewardList": [
			{
				"GoodsType": "GoodsType_Crystal",
				"Id": 0,
				"Count": 50
			}
		],
		"RewardDisplayCount": 3
	},
	"108": {
		"ID": 108,
		"GroupId": 5,
		"Score": 77000,
		"Name": "Phase 44",
		"RewardList": [
			{
				"GoodsType": "GoodsType_Item",
				"Id": 4026,
				"Count": 1
			}
		],
		"RewardDisplayCount": 3
	},
	"109": {
		"ID": 109,
		"GroupId": 5,
		"Score": 73000,
		"Name": "Phase 43",
		"RewardList": [
			{
				"GoodsType": "GoodsType_BrillianceMithralStone",
				"Id": 0,
				"Count": 100
			}
		],
		"RewardDisplayCount": 3
	},
	"110": {
		"ID": 110,
		"GroupId": 5,
		"Score": 69000,
		"Name": "Phase 42",
		"RewardList": [
			{
				"GoodsType": "GoodsType_Item",
				"Id": 3203,
				"Count": 5
			}
		],
		"RewardDisplayCount": 3
	},
	"111": {
		"ID": 111,
		"GroupId": 5,
		"Score": 65500,
		"Name": "Phase 41",
		"RewardList": [
			{
				"GoodsType": "GoodsType_Crystal",
				"Id": 0,
				"Count": 50
			}
		],
		"RewardDisplayCount": 3
	},
	"112": {
		"ID": 112,
		"GroupId": 5,
		"Score": 62000,
		"Name": "Phase 40",
		"RewardList": [
			{
				"GoodsType": "GoodsType_Item",
				"Id": 4001,
				"Count": 1
			}
		],
		"RewardDisplayCount": 3
	},
	"113": {
		"ID": 113,
		"GroupId": 5,
		"Score": 58500,
		"Name": "Phase 39",
		"RewardList": [
			{
				"GoodsType": "GoodsType_Gold",
				"Id": 0,
				"Count": 100000
			}
		],
		"RewardDisplayCount": 3
	},
	"114": {
		"ID": 114,
		"GroupId": 5,
		"Score": 55000,
		"Name": "Phase 38",
		"RewardList": [
			{
				"GoodsType": "GoodsType_Item",
				"Id": 4013,
				"Count": 1
			}
		],
		"RewardDisplayCount": 3
	},
	"115": {
		"ID": 115,
		"GroupId": 5,
		"Score": 51500,
		"Name": "Phase 37",
		"RewardList": [
			{
				"GoodsType": "GoodsType_Crystal",
				"Id": 0,
				"Count": 30
			}
		],
		"RewardDisplayCount": 3
	},
	"116": {
		"ID": 116,
		"GroupId": 5,
		"Score": 48000,
		"Name": "Phase 36",
		"RewardList": [
			{
				"GoodsType": "GoodsType_Item",
				"Id": 3009,
				"Count": 1
			}
		],
		"RewardDisplayCount": 3
	},
	"117": {
		"ID": 117,
		"GroupId": 5,
		"Score": 45000,
		"Name": "Phase 35",
		"RewardList": [
			{
				"GoodsType": "GoodsType_BrillianceMithralStone",
				"Id": 0,
				"Count": 100
			}
		],
		"RewardDisplayCount": 3
	},
	"118": {
		"ID": 118,
		"GroupId": 5,
		"Score": 42000,
		"Name": "Phase 34",
		"RewardList": [
			{
				"GoodsType": "GoodsType_Item",
				"Id": 4012,
				"Count": 1
			}
		],
		"RewardDisplayCount": 3
	},
	"119": {
		"ID": 119,
		"GroupId": 5,
		"Score": 39000,
		"Name": "Phase 33",
		"RewardList": [
			{
				"GoodsType": "GoodsType_Crystal",
				"Id": 0,
				"Count": 30
			}
		],
		"RewardDisplayCount": 3
	},
	"120": {
		"ID": 120,
		"GroupId": 5,
		"Score": 36000,
		"Name": "Phase 32",
		"RewardList": [
			{
				"GoodsType": "GoodsType_Item",
				"Id": 4026,
				"Count": 1
			}
		],
		"RewardDisplayCount": 3
	},
	"121": {
		"ID": 121,
		"GroupId": 5,
		"Score": 33000,
		"Name": "Phase 31",
		"RewardList": [
			{
				"GoodsType": "GoodsType_HeroSkin",
				"Id": 102,
				"Count": 1
			}
		],
		"RewardDisplayCount": 3
	},
	"122": {
		"ID": 122,
		"GroupId": 5,
		"Score": 30000,
		"Name": "Phase 30",
		"RewardList": [
			{
				"GoodsType": "GoodsType_Gold",
				"Id": 0,
				"Count": 50000
			}
		],
		"RewardDisplayCount": 3
	},
	"123": {
		"ID": 123,
		"GroupId": 5,
		"Score": 27000,
		"Name": "Phase 29",
		"RewardList": [
			{
				"GoodsType": "GoodsType_Crystal",
				"Id": 0,
				"Count": 30
			}
		],
		"RewardDisplayCount": 3
	},
	"124": {
		"ID": 124,
		"GroupId": 5,
		"Score": 24500,
		"Name": "Phase 28",
		"RewardList": [
			{
				"GoodsType": "GoodsType_Item",
				"Id": 6012,
				"Count": 6
			},
			{
				"GoodsType": "GoodsType_Item",
				"Id": 6015,
				"Count": 6
			},
			{
				"GoodsType": "GoodsType_Item",
				"Id": 6018,
				"Count": 6
			}
		],
		"RewardDisplayCount": 3
	},
	"125": {
		"ID": 125,
		"GroupId": 5,
		"Score": 22000,
		"Name": "Phase 27",
		"RewardList": [
			{
				"GoodsType": "GoodsType_Item",
				"Id": 4001,
				"Count": 1
			}
		],
		"RewardDisplayCount": 3
	},
	"126": {
		"ID": 126,
		"GroupId": 5,
		"Score": 19500,
		"Name": "Phase 26",
		"RewardList": [
			{
				"GoodsType": "GoodsType_Item",
				"Id": 1038,
				"Count": 20
			}
		],
		"RewardDisplayCount": 3
	},
	"127": {
		"ID": 127,
		"GroupId": 5,
		"Score": 17000,
		"Name": "Phase 25",
		"RewardList": [
			{
				"GoodsType": "GoodsType_Crystal",
				"Id": 0,
				"Count": 30
			}
		],
		"RewardDisplayCount": 3
	},
	"128": {
		"ID": 128,
		"GroupId": 5,
		"Score": 15000,
		"Name": "Phase 24",
		"RewardList": [
			{
				"GoodsType": "GoodsType_Item",
				"Id": 6003,
				"Count": 6
			},
			{
				"GoodsType": "GoodsType_Item",
				"Id": 6006,
				"Count": 6
			},
			{
				"GoodsType": "GoodsType_Item",
				"Id": 6009,
				"Count": 6
			}
		],
		"RewardDisplayCount": 3
	},
	"129": {
		"ID": 129,
		"GroupId": 5,
		"Score": 13000,
		"Name": "Phase 23",
		"RewardList": [
			{
				"GoodsType": "GoodsType_Equipment",
				"Id": 304,
				"Count": 2
			}
		],
		"RewardDisplayCount": 3
	},
	"130": {
		"ID": 130,
		"GroupId": 5,
		"Score": 11500,
		"Name": "Phase 22",
		"RewardList": [
			{
				"GoodsType": "GoodsType_Item",
				"Id": 3202,
				"Count": 8
			}
		],
		"RewardDisplayCount": 3
	},
	"131": {
		"ID": 131,
		"GroupId": 5,
		"Score": 10000,
		"Name": "Phase 21",
		"RewardList": [
			{
				"GoodsType": "GoodsType_Crystal",
				"Id": 0,
				"Count": 20
			}
		],
		"RewardDisplayCount": 3
	},
	"132": {
		"ID": 132,
		"GroupId": 5,
		"Score": 9000,
		"Name": "Phase 20",
		"RewardList": [
			{
				"GoodsType": "GoodsType_Gold",
				"Id": 0,
				"Count": 50000
			}
		],
		"RewardDisplayCount": 3
	},
	"133": {
		"ID": 133,
		"GroupId": 5,
		"Score": 8000,
		"Name": "Phase 19",
		"RewardList": [
			{
				"GoodsType": "GoodsType_Item",
				"Id": 4001,
				"Count": 1
			}
		],
		"RewardDisplayCount": 3
	},
	"134": {
		"ID": 134,
		"GroupId": 5,
		"Score": 7000,
		"Name": "Phase 18",
		"RewardList": [
			{
				"GoodsType": "GoodsType_Item",
				"Id": 4012,
				"Count": 1
			}
		],
		"RewardDisplayCount": 3
	},
	"135": {
		"ID": 135,
		"GroupId": 5,
		"Score": 6000,
		"Name": "Phase 17",
		"RewardList": [
			{
				"GoodsType": "GoodsType_Crystal",
				"Id": 0,
				"Count": 20
			}
		],
		"RewardDisplayCount": 3
	},
	"136": {
		"ID": 136,
		"GroupId": 5,
		"Score": 5500,
		"Name": "Phase 16",
		"RewardList": [
			{
				"GoodsType": "GoodsType_Item",
				"Id": 1038,
				"Count": 20
			}
		],
		"RewardDisplayCount": 3
	},
	"137": {
		"ID": 137,
		"GroupId": 5,
		"Score": 5000,
		"Name": "Phase 15",
		"RewardList": [
			{
				"GoodsType": "GoodsType_Item",
				"Id": 6011,
				"Count": 8
			},
			{
				"GoodsType": "GoodsType_Item",
				"Id": 6014,
				"Count": 8
			},
			{
				"GoodsType": "GoodsType_Item",
				"Id": 6017,
				"Count": 8
			}
		],
		"RewardDisplayCount": 3
	},
	"138": {
		"ID": 138,
		"GroupId": 5,
		"Score": 4500,
		"Name": "Phase 14",
		"RewardList": [
			{
				"GoodsType": "GoodsType_Equipment",
				"Id": 303,
				"Count": 5
			}
		],
		"RewardDisplayCount": 3
	},
	"139": {
		"ID": 139,
		"GroupId": 5,
		"Score": 4000,
		"Name": "Phase 13",
		"RewardList": [
			{
				"GoodsType": "GoodsType_Crystal",
				"Id": 0,
				"Count": 20
			}
		],
		"RewardDisplayCount": 3
	},
	"140": {
		"ID": 140,
		"GroupId": 5,
		"Score": 3500,
		"Name": "Phase 12",
		"RewardList": [
			{
				"GoodsType": "GoodsType_Item",
				"Id": 3201,
				"Count": 12
			}
		],
		"RewardDisplayCount": 3
	},
	"141": {
		"ID": 141,
		"GroupId": 5,
		"Score": 3000,
		"Name": "Phase 11",
		"RewardList": [
			{
				"GoodsType": "GoodsType_Gold",
				"Id": 0,
				"Count": 30000
			}
		],
		"RewardDisplayCount": 3
	},
	"142": {
		"ID": 142,
		"GroupId": 5,
		"Score": 2500,
		"Name": "Phase 10",
		"RewardList": [
			{
				"GoodsType": "GoodsType_Item",
				"Id": 4001,
				"Count": 1
			}
		],
		"RewardDisplayCount": 3
	},
	"143": {
		"ID": 143,
		"GroupId": 5,
		"Score": 2000,
		"Name": "Phase 9",
		"RewardList": [
			{
				"GoodsType": "GoodsType_Crystal",
				"Id": 0,
				"Count": 10
			}
		],
		"RewardDisplayCount": 3
	},
	"144": {
		"ID": 144,
		"GroupId": 5,
		"Score": 1500,
		"Name": "Phase 8",
		"RewardList": [
			{
				"GoodsType": "GoodsType_Item",
				"Id": 1038,
				"Count": 20
			}
		],
		"RewardDisplayCount": 3
	},
	"145": {
		"ID": 145,
		"GroupId": 5,
		"Score": 1000,
		"Name": "Phase 7",
		"RewardList": [
			{
				"GoodsType": "GoodsType_Item",
				"Id": 6002,
				"Count": 8
			},
			{
				"GoodsType": "GoodsType_Item",
				"Id": 6005,
				"Count": 8
			},
			{
				"GoodsType": "GoodsType_Item",
				"Id": 6008,
				"Count": 8
			}
		],
		"RewardDisplayCount": 3
	},
	"146": {
		"ID": 146,
		"GroupId": 5,
		"Score": 700,
		"Name": "Phase 6",
		"RewardList": [
			{
				"GoodsType": "GoodsType_Item",
				"Id": 3503,
				"Count": 1
			}
		],
		"RewardDisplayCount": 3
	},
	"147": {
		"ID": 147,
		"GroupId": 5,
		"Score": 500,
		"Name": "Phase 5",
		"RewardList": [
			{
				"GoodsType": "GoodsType_Crystal",
				"Id": 0,
				"Count": 10
			}
		],
		"RewardDisplayCount": 3
	},
	"148": {
		"ID": 148,
		"GroupId": 5,
		"Score": 400,
		"Name": "Phase 4",
		"RewardList": [
			{
				"GoodsType": "GoodsType_Item",
				"Id": 3201,
				"Count": 8
			}
		],
		"RewardDisplayCount": 3
	},
	"149": {
		"ID": 149,
		"GroupId": 5,
		"Score": 300,
		"Name": "Phase 3",
		"RewardList": [
			{
				"GoodsType": "GoodsType_Item",
				"Id": 4001,
				"Count": 1
			}
		],
		"RewardDisplayCount": 3
	},
	"150": {
		"ID": 150,
		"GroupId": 5,
		"Score": 200,
		"Name": "Phase 2",
		"RewardList": [
			{
				"GoodsType": "GoodsType_Gold",
				"Id": 0,
				"Count": 20000
			}
		],
		"RewardDisplayCount": 3
	},
	"151": {
		"ID": 151,
		"GroupId": 5,
		"Score": 100,
		"Name": "Phase 1",
		"RewardList": [
			{
				"GoodsType": "GoodsType_Crystal",
				"Id": 0,
				"Count": 10
			}
		],
		"RewardDisplayCount": 3
	},
	"152": {
		"ID": 152,
		"GroupId": 6,
		"Score": 70000,
		"Name": "Phase 47",
		"RewardList": [
			{
				"GoodsType": "GoodsType_Crystal",
				"Id": 0,
				"Count": 50
			}
		],
		"RewardDisplayCount": 3
	},
	"153": {
		"ID": 153,
		"GroupId": 6,
		"Score": 67500,
		"Name": "Phase 46",
		"RewardList": [
			{
				"GoodsType": "GoodsType_Gold",
				"Id": 0,
				"Count": 650000
			}
		],
		"RewardDisplayCount": 3
	},
	"154": {
		"ID": 154,
		"GroupId": 6,
		"Score": 65000,
		"Name": "Phase 45",
		"RewardList": [
			{
				"GoodsType": "GoodsType_Item",
				"Id": 4518,
				"Count": 2
			}
		],
		"RewardDisplayCount": 3
	},
	"155": {
		"ID": 155,
		"GroupId": 6,
		"Score": 62500,
		"Name": "Phase 44",
		"RewardList": [
			{
				"GoodsType": "GoodsType_Item",
				"Id": 4026,
				"Count": 1
			}
		],
		"RewardDisplayCount": 3
	},
	"156": {
		"ID": 156,
		"GroupId": 6,
		"Score": 60000,
		"Name": "Phase 43",
		"RewardList": [
			{
				"GoodsType": "GoodsType_BrillianceMithralStone",
				"Id": 0,
				"Count": 100
			}
		],
		"RewardDisplayCount": 3
	},
	"157": {
		"ID": 157,
		"GroupId": 6,
		"Score": 57500,
		"Name": "Phase 42",
		"RewardList": [
			{
				"GoodsType": "GoodsType_Item",
				"Id": 3203,
				"Count": 8
			}
		],
		"RewardDisplayCount": 3
	},
	"158": {
		"ID": 158,
		"GroupId": 6,
		"Score": 55000,
		"Name": "Phase 41",
		"RewardList": [
			{
				"GoodsType": "GoodsType_Crystal",
				"Id": 0,
				"Count": 30
			}
		],
		"RewardDisplayCount": 3
	},
	"159": {
		"ID": 159,
		"GroupId": 6,
		"Score": 52500,
		"Name": "Phase 40",
		"RewardList": [
			{
				"GoodsType": "GoodsType_Item",
				"Id": 4001,
				"Count": 1
			}
		],
		"RewardDisplayCount": 3
	},
	"160": {
		"ID": 160,
		"GroupId": 6,
		"Score": 50000,
		"Name": "Phase 39",
		"RewardList": [
			{
				"GoodsType": "GoodsType_Gold",
				"Id": 0,
				"Count": 500000
			}
		],
		"RewardDisplayCount": 3
	},
	"161": {
		"ID": 161,
		"GroupId": 6,
		"Score": 47500,
		"Name": "Phase 38",
		"RewardList": [
			{
				"GoodsType": "GoodsType_Item",
				"Id": 4013,
				"Count": 1
			}
		],
		"RewardDisplayCount": 3
	},
	"162": {
		"ID": 162,
		"GroupId": 6,
		"Score": 45000,
		"Name": "Phase 37",
		"RewardList": [
			{
				"GoodsType": "GoodsType_Item",
				"Id": 1009,
				"Count": 20
			}
		],
		"RewardDisplayCount": 3
	},
	"163": {
		"ID": 163,
		"GroupId": 6,
		"Score": 42500,
		"Name": "Phase 36",
		"RewardList": [
			{
				"GoodsType": "GoodsType_Item",
				"Id": 4518,
				"Count": 2
			}
		],
		"RewardDisplayCount": 3
	},
	"164": {
		"ID": 164,
		"GroupId": 6,
		"Score": 40000,
		"Name": "Phase 35",
		"RewardList": [
			{
				"GoodsType": "GoodsType_BrillianceMithralStone",
				"Id": 0,
				"Count": 100
			}
		],
		"RewardDisplayCount": 3
	},
	"165": {
		"ID": 165,
		"GroupId": 6,
		"Score": 37500,
		"Name": "Phase 34",
		"RewardList": [
			{
				"GoodsType": "GoodsType_Item",
				"Id": 4517,
				"Count": 3
			}
		],
		"RewardDisplayCount": 3
	},
	"166": {
		"ID": 166,
		"GroupId": 6,
		"Score": 35000,
		"Name": "Phase 33",
		"RewardList": [
			{
				"GoodsType": "GoodsType_Item",
				"Id": 4026,
				"Count": 1
			}
		],
		"RewardDisplayCount": 3
	},
	"167": {
		"ID": 167,
		"GroupId": 6,
		"Score": 32500,
		"Name": "Phase 32",
		"RewardList": [
			{
				"GoodsType": "GoodsType_Item",
				"Id": 4516,
				"Count": 4
			}
		],
		"RewardDisplayCount": 3
	},
	"168": {
		"ID": 168,
		"GroupId": 6,
		"Score": 30000,
		"Name": "Phase 31",
		"RewardList": [
			{
				"GoodsType": "GoodsType_Item",
				"Id": 4515,
				"Count": 4
			}
		],
		"RewardDisplayCount": 3
	},
	"169": {
		"ID": 169,
		"GroupId": 6,
		"Score": 27500,
		"Name": "Phase 30",
		"RewardList": [
			{
				"GoodsType": "GoodsType_Gold",
				"Id": 0,
				"Count": 350000
			}
		],
		"RewardDisplayCount": 3
	},
	"170": {
		"ID": 170,
		"GroupId": 6,
		"Score": 25000,
		"Name": "Phase 29",
		"RewardList": [
			{
				"GoodsType": "GoodsType_Crystal",
				"Id": 0,
				"Count": 30
			}
		],
		"RewardDisplayCount": 3
	},
	"171": {
		"ID": 171,
		"GroupId": 6,
		"Score": 22500,
		"Name": "Phase 28",
		"RewardList": [
			{
				"GoodsType": "GoodsType_Item",
				"Id": 4517,
				"Count": 2
			}
		],
		"RewardDisplayCount": 3
	},
	"172": {
		"ID": 172,
		"GroupId": 6,
		"Score": 20000,
		"Name": "Phase 27",
		"RewardList": [
			{
				"GoodsType": "GoodsType_Item",
				"Id": 4001,
				"Count": 1
			}
		],
		"RewardDisplayCount": 3
	},
	"173": {
		"ID": 173,
		"GroupId": 6,
		"Score": 18000,
		"Name": "Phase 26",
		"RewardList": [
			{
				"GoodsType": "GoodsType_Item",
				"Id": 4516,
				"Count": 3
			}
		],
		"RewardDisplayCount": 3
	},
	"174": {
		"ID": 174,
		"GroupId": 6,
		"Score": 16000,
		"Name": "Phase 25",
		"RewardList": [
			{
				"GoodsType": "GoodsType_Item",
				"Id": 1009,
				"Count": 20
			}
		],
		"RewardDisplayCount": 3
	},
	"175": {
		"ID": 175,
		"GroupId": 6,
		"Score": 14000,
		"Name": "Phase 24",
		"RewardList": [
			{
				"GoodsType": "GoodsType_Item",
				"Id": 4515,
				"Count": 3
			}
		],
		"RewardDisplayCount": 3
	},
	"176": {
		"ID": 176,
		"GroupId": 6,
		"Score": 12000,
		"Name": "Phase 23",
		"RewardList": [
			{
				"GoodsType": "GoodsType_Item",
				"Id": 3203,
				"Count": 5
			}
		],
		"RewardDisplayCount": 3
	},
	"177": {
		"ID": 177,
		"GroupId": 6,
		"Score": 11000,
		"Name": "Phase 22",
		"RewardList": [
			{
				"GoodsType": "GoodsType_Crystal",
				"Id": 0,
				"Count": 20
			}
		],
		"RewardDisplayCount": 3
	},
	"178": {
		"ID": 178,
		"GroupId": 6,
		"Score": 10000,
		"Name": "Phase 21",
		"RewardList": [
			{
				"GoodsType": "GoodsType_Equipment",
				"Id": 304,
				"Count": 2
			}
		],
		"RewardDisplayCount": 3
	},
	"179": {
		"ID": 179,
		"GroupId": 6,
		"Score": 9000,
		"Name": "Phase 20",
		"RewardList": [
			{
				"GoodsType": "GoodsType_Gold",
				"Id": 0,
				"Count": 250000
			}
		],
		"RewardDisplayCount": 3
	},
	"180": {
		"ID": 180,
		"GroupId": 6,
		"Score": 8000,
		"Name": "Phase 19",
		"RewardList": [
			{
				"GoodsType": "GoodsType_Item",
				"Id": 4001,
				"Count": 1
			}
		],
		"RewardDisplayCount": 3
	},
	"181": {
		"ID": 181,
		"GroupId": 6,
		"Score": 7000,
		"Name": "Phase 18",
		"RewardList": [
			{
				"GoodsType": "GoodsType_Item",
				"Id": 6012,
				"Count": 6
			},
			{
				"GoodsType": "GoodsType_Item",
				"Id": 6015,
				"Count": 6
			},
			{
				"GoodsType": "GoodsType_Item",
				"Id": 6018,
				"Count": 6
			}
		],
		"RewardDisplayCount": 3
	},
	"182": {
		"ID": 182,
		"GroupId": 6,
		"Score": 6000,
		"Name": "Phase 17",
		"RewardList": [
			{
				"GoodsType": "GoodsType_Crystal",
				"Id": 0,
				"Count": 20
			}
		],
		"RewardDisplayCount": 3
	},
	"183": {
		"ID": 183,
		"GroupId": 6,
		"Score": 5500,
		"Name": "Phase 16",
		"RewardList": [
			{
				"GoodsType": "GoodsType_Item",
				"Id": 4012,
				"Count": 1
			}
		],
		"RewardDisplayCount": 3
	},
	"184": {
		"ID": 184,
		"GroupId": 6,
		"Score": 5000,
		"Name": "Phase 15",
		"RewardList": [
			{
				"GoodsType": "GoodsType_Item",
				"Id": 6003,
				"Count": 6
			},
			{
				"GoodsType": "GoodsType_Item",
				"Id": 6006,
				"Count": 6
			},
			{
				"GoodsType": "GoodsType_Item",
				"Id": 6009,
				"Count": 6
			}
		],
		"RewardDisplayCount": 3
	},
	"185": {
		"ID": 185,
		"GroupId": 6,
		"Score": 4500,
		"Name": "Phase 14",
		"RewardList": [
			{
				"GoodsType": "GoodsType_Item",
				"Id": 3202,
				"Count": 8
			}
		],
		"RewardDisplayCount": 3
	},
	"186": {
		"ID": 186,
		"GroupId": 6,
		"Score": 4000,
		"Name": "Phase 13",
		"RewardList": [
			{
				"GoodsType": "GoodsType_Item",
				"Id": 6011,
				"Count": 8
			},
			{
				"GoodsType": "GoodsType_Item",
				"Id": 6014,
				"Count": 8
			},
			{
				"GoodsType": "GoodsType_Item",
				"Id": 6017,
				"Count": 8
			}
		],
		"RewardDisplayCount": 3
	},
	"187": {
		"ID": 187,
		"GroupId": 6,
		"Score": 3500,
		"Name": "Phase 12",
		"RewardList": [
			{
				"GoodsType": "GoodsType_Equipment",
				"Id": 303,
				"Count": 5
			}
		],
		"RewardDisplayCount": 3
	},
	"188": {
		"ID": 188,
		"GroupId": 6,
		"Score": 3000,
		"Name": "Phase 11",
		"RewardList": [
			{
				"GoodsType": "GoodsType_Gold",
				"Id": 0,
				"Count": 150000
			}
		],
		"RewardDisplayCount": 3
	},
	"189": {
		"ID": 189,
		"GroupId": 6,
		"Score": 2500,
		"Name": "Phase 10",
		"RewardList": [
			{
				"GoodsType": "GoodsType_Item",
				"Id": 4001,
				"Count": 1
			}
		],
		"RewardDisplayCount": 3
	},
	"190": {
		"ID": 190,
		"GroupId": 6,
		"Score": 2000,
		"Name": "Phase 9",
		"RewardList": [
			{
				"GoodsType": "GoodsType_Item",
				"Id": 1009,
				"Count": 20
			}
		],
		"RewardDisplayCount": 3
	},
	"191": {
		"ID": 191,
		"GroupId": 6,
		"Score": 1500,
		"Name": "Phase 8",
		"RewardList": [
			{
				"GoodsType": "GoodsType_Item",
				"Id": 3201,
				"Count": 12
			}
		],
		"RewardDisplayCount": 3
	},
	"192": {
		"ID": 192,
		"GroupId": 6,
		"Score": 1000,
		"Name": "Phase 7",
		"RewardList": [
			{
				"GoodsType": "GoodsType_Item",
				"Id": 6002,
				"Count": 8
			},
			{
				"GoodsType": "GoodsType_Item",
				"Id": 6005,
				"Count": 8
			},
			{
				"GoodsType": "GoodsType_Item",
				"Id": 6008,
				"Count": 8
			}
		],
		"RewardDisplayCount": 3
	},
	"193": {
		"ID": 193,
		"GroupId": 6,
		"Score": 700,
		"Name": "Phase 6",
		"RewardList": [
			{
				"GoodsType": "GoodsType_Item",
				"Id": 3503,
				"Count": 1
			}
		],
		"RewardDisplayCount": 3
	},
	"194": {
		"ID": 194,
		"GroupId": 6,
		"Score": 500,
		"Name": "Phase 5",
		"RewardList": [
			{
				"GoodsType": "GoodsType_Crystal",
				"Id": 0,
				"Count": 10
			}
		],
		"RewardDisplayCount": 3
	},
	"195": {
		"ID": 195,
		"GroupId": 6,
		"Score": 400,
		"Name": "Phase 4",
		"RewardList": [
			{
				"GoodsType": "GoodsType_Item",
				"Id": 3201,
				"Count": 8
			}
		],
		"RewardDisplayCount": 3
	},
	"196": {
		"ID": 196,
		"GroupId": 6,
		"Score": 300,
		"Name": "Phase 3",
		"RewardList": [
			{
				"GoodsType": "GoodsType_Item",
				"Id": 4001,
				"Count": 1
			}
		],
		"RewardDisplayCount": 3
	},
	"197": {
		"ID": 197,
		"GroupId": 6,
		"Score": 200,
		"Name": "Phase 2",
		"RewardList": [
			{
				"GoodsType": "GoodsType_Gold",
				"Id": 0,
				"Count": 100000
			}
		],
		"RewardDisplayCount": 3
	},
	"198": {
		"ID": 198,
		"GroupId": 6,
		"Score": 100,
		"Name": "Phase 1",
		"RewardList": [
			{
				"GoodsType": "GoodsType_Crystal",
				"Id": 0,
				"Count": 10
			}
		],
		"RewardDisplayCount": 3
	},
	"199": {
		"ID": 199,
		"GroupId": 7,
		"Score": 90000,
		"Name": "Phase 47",
		"RewardList": [
			{
				"GoodsType": "GoodsType_Crystal",
				"Id": 0,
				"Count": 50
			}
		],
		"RewardDisplayCount": 3
	},
	"200": {
		"ID": 200,
		"GroupId": 7,
		"Score": 85000,
		"Name": "Phase 46",
		"RewardList": [
			{
				"GoodsType": "GoodsType_Gold",
				"Id": 0,
				"Count": 650000
			}
		],
		"RewardDisplayCount": 3
	},
	"201": {
		"ID": 201,
		"GroupId": 7,
		"Score": 81000,
		"Name": "Phase 45",
		"RewardList": [
			{
				"GoodsType": "GoodsType_Item",
				"Id": 1086,
				"Count": 50
			}
		],
		"RewardDisplayCount": 3
	},
	"202": {
		"ID": 202,
		"GroupId": 7,
		"Score": 77000,
		"Name": "Phase 44",
		"RewardList": [
			{
				"GoodsType": "GoodsType_Item",
				"Id": 4021,
				"Count": 1
			}
		],
		"RewardDisplayCount": 3
	},
	"203": {
		"ID": 203,
		"GroupId": 7,
		"Score": 73000,
		"Name": "Phase 43",
		"RewardList": [
			{
				"GoodsType": "GoodsType_BrillianceMithralStone",
				"Id": 0,
				"Count": 100
			}
		],
		"RewardDisplayCount": 3
	},
	"204": {
		"ID": 204,
		"GroupId": 7,
		"Score": 69000,
		"Name": "Phase 42",
		"RewardList": [
			{
				"GoodsType": "GoodsType_Item",
				"Id": 3203,
				"Count": 10
			}
		],
		"RewardDisplayCount": 3
	},
	"205": {
		"ID": 205,
		"GroupId": 7,
		"Score": 65500,
		"Name": "Phase 41",
		"RewardList": [
			{
				"GoodsType": "GoodsType_Crystal",
				"Id": 0,
				"Count": 40
			}
		],
		"RewardDisplayCount": 3
	},
	"206": {
		"ID": 206,
		"GroupId": 7,
		"Score": 62000,
		"Name": "Phase 40",
		"RewardList": [
			{
				"GoodsType": "GoodsType_Item",
				"Id": 4516,
				"Count": 3
			}
		],
		"RewardDisplayCount": 3
	},
	"207": {
		"ID": 207,
		"GroupId": 7,
		"Score": 58500,
		"Name": "Phase 39",
		"RewardList": [
			{
				"GoodsType": "GoodsType_Gold",
				"Id": 0,
				"Count": 500000
			}
		],
		"RewardDisplayCount": 3
	},
	"208": {
		"ID": 208,
		"GroupId": 7,
		"Score": 55000,
		"Name": "Phase 38",
		"RewardList": [
			{
				"GoodsType": "GoodsType_Item",
				"Id": 4013,
				"Count": 1
			}
		],
		"RewardDisplayCount": 3
	},
	"209": {
		"ID": 209,
		"GroupId": 7,
		"Score": 51500,
		"Name": "Phase 37",
		"RewardList": [
			{
				"GoodsType": "GoodsType_Item",
				"Id": 1086,
				"Count": 40
			}
		],
		"RewardDisplayCount": 3
	},
	"210": {
		"ID": 210,
		"GroupId": 7,
		"Score": 48000,
		"Name": "Phase 36",
		"RewardList": [
			{
				"GoodsType": "GoodsType_Item",
				"Id": 3009,
				"Count": 1
			}
		],
		"RewardDisplayCount": 3
	},
	"211": {
		"ID": 211,
		"GroupId": 7,
		"Score": 45000,
		"Name": "Phase 35",
		"RewardDisplayCount": 3
	},
	"212": {
		"ID": 212,
		"GroupId": 7,
		"Score": 42000,
		"Name": "Phase 34",
		"RewardList": [
			{
				"GoodsType": "GoodsType_BrillianceMithralStone",
				"Id": 0,
				"Count": 100
			}
		],
		"RewardDisplayCount": 3
	},
	"213": {
		"ID": 213,
		"GroupId": 7,
		"Score": 39000,
		"Name": "Phase 33",
		"RewardList": [
			{
				"GoodsType": "GoodsType_Item",
				"Id": 3203,
				"Count": 5
			}
		],
		"RewardDisplayCount": 3
	},
	"214": {
		"ID": 214,
		"GroupId": 7,
		"Score": 36000,
		"Name": "Phase 32",
		"RewardList": [
			{
				"GoodsType": "GoodsType_Item",
				"Id": 4023,
				"Count": 1
			}
		],
		"RewardDisplayCount": 3
	},
	"215": {
		"ID": 215,
		"GroupId": 7,
		"Score": 33000,
		"Name": "Phase 31",
		"RewardList": [
			{
				"GoodsType": "GoodsType_Item",
				"Id": 4515,
				"Count": 3
			}
		],
		"RewardDisplayCount": 3
	},
	"216": {
		"ID": 216,
		"GroupId": 7,
		"Score": 30000,
		"Name": "Phase 30",
		"RewardList": [
			{
				"GoodsType": "GoodsType_Gold",
				"Id": 0,
				"Count": 350000
			}
		],
		"RewardDisplayCount": 3
	},
	"217": {
		"ID": 217,
		"GroupId": 7,
		"Score": 27000,
		"Name": "Phase 29",
		"RewardList": [
			{
				"GoodsType": "GoodsType_Crystal",
				"Id": 0,
				"Count": 30
			}
		],
		"RewardDisplayCount": 3
	},
	"218": {
		"ID": 218,
		"GroupId": 7,
		"Score": 24500,
		"Name": "Phase 28",
		"RewardList": [
			{
				"GoodsType": "GoodsType_Item",
				"Id": 4525,
				"Count": 3
			}
		],
		"RewardDisplayCount": 3
	},
	"219": {
		"ID": 219,
		"GroupId": 7,
		"Score": 22000,
		"Name": "Phase 27",
		"RewardList": [
			{
				"GoodsType": "GoodsType_Item",
				"Id": 4001,
				"Count": 1
			}
		],
		"RewardDisplayCount": 3
	},
	"220": {
		"ID": 220,
		"GroupId": 7,
		"Score": 19500,
		"Name": "Phase 26",
		"RewardList": [
			{
				"GoodsType": "GoodsType_Item",
				"Id": 1086,
				"Count": 30
			}
		],
		"RewardDisplayCount": 3
	},
	"221": {
		"ID": 221,
		"GroupId": 7,
		"Score": 17000,
		"Name": "Phase 25",
		"RewardList": [
			{
				"GoodsType": "GoodsType_Item",
				"Id": 4517,
				"Count": 3
			}
		],
		"RewardDisplayCount": 3
	},
	"222": {
		"ID": 222,
		"GroupId": 7,
		"Score": 15000,
		"Name": "Phase 24",
		"RewardList": [
			{
				"GoodsType": "GoodsType_Item",
				"Id": 4516,
				"Count": 3
			}
		],
		"RewardDisplayCount": 3
	},
	"223": {
		"ID": 223,
		"GroupId": 7,
		"Score": 13000,
		"Name": "Phase 23",
		"RewardList": [
			{
				"GoodsType": "GoodsType_Item",
				"Id": 3203,
				"Count": 5
			}
		],
		"RewardDisplayCount": 3
	},
	"224": {
		"ID": 224,
		"GroupId": 7,
		"Score": 11500,
		"Name": "Phase 22",
		"RewardList": [
			{
				"GoodsType": "GoodsType_Crystal",
				"Id": 0,
				"Count": 30
			}
		],
		"RewardDisplayCount": 3
	},
	"225": {
		"ID": 225,
		"GroupId": 7,
		"Score": 10000,
		"Name": "Phase 21",
		"RewardList": [
			{
				"GoodsType": "GoodsType_Item",
				"Id": 1086,
				"Count": 20
			}
		],
		"RewardDisplayCount": 3
	},
	"226": {
		"ID": 226,
		"GroupId": 7,
		"Score": 9000,
		"Name": "Phase 20",
		"RewardList": [
			{
				"GoodsType": "GoodsType_Gold",
				"Id": 0,
				"Count": 250000
			}
		],
		"RewardDisplayCount": 3
	},
	"227": {
		"ID": 227,
		"GroupId": 7,
		"Score": 8000,
		"Name": "Phase 19",
		"RewardList": [
			{
				"GoodsType": "GoodsType_Item",
				"Id": 4515,
				"Count": 3
			}
		],
		"RewardDisplayCount": 3
	},
	"228": {
		"ID": 228,
		"GroupId": 7,
		"Score": 7000,
		"Name": "Phase 18",
		"RewardList": [
			{
				"GoodsType": "GoodsType_Item",
				"Id": 4022,
				"Count": 1
			}
		],
		"RewardDisplayCount": 3
	},
	"229": {
		"ID": 229,
		"GroupId": 7,
		"Score": 6000,
		"Name": "Phase 17",
		"RewardList": [
			{
				"GoodsType": "GoodsType_Item",
				"Id": 1086,
				"Count": 20
			}
		],
		"RewardDisplayCount": 3
	},
	"230": {
		"ID": 230,
		"GroupId": 7,
		"Score": 5500,
		"Name": "Phase 16",
		"RewardList": [
			{
				"GoodsType": "GoodsType_Equipment",
				"Id": 304,
				"Count": 3
			}
		],
		"RewardDisplayCount": 3
	},
	"231": {
		"ID": 231,
		"GroupId": 7,
		"Score": 5000,
		"Name": "Phase 15",
		"RewardList": [
			{
				"GoodsType": "GoodsType_Item",
				"Id": 4001,
				"Count": 1
			}
		],
		"RewardDisplayCount": 3
	},
	"232": {
		"ID": 232,
		"GroupId": 7,
		"Score": 4500,
		"Name": "Phase 14",
		"RewardList": [
			{
				"GoodsType": "GoodsType_Item",
				"Id": 4012,
				"Count": 1
			}
		],
		"RewardDisplayCount": 3
	},
	"233": {
		"ID": 233,
		"GroupId": 7,
		"Score": 4000,
		"Name": "Phase 13",
		"RewardList": [
			{
				"GoodsType": "GoodsType_Item",
				"Id": 1086,
				"Count": 20
			}
		],
		"RewardDisplayCount": 3
	},
	"234": {
		"ID": 234,
		"GroupId": 7,
		"Score": 3500,
		"Name": "Phase 12",
		"RewardList": [
			{
				"GoodsType": "GoodsType_Item",
				"Id": 6012,
				"Count": 6
			},
			{
				"GoodsType": "GoodsType_Item",
				"Id": 6015,
				"Count": 6
			},
			{
				"GoodsType": "GoodsType_Item",
				"Id": 6018,
				"Count": 6
			}
		],
		"RewardDisplayCount": 3
	},
	"235": {
		"ID": 235,
		"GroupId": 7,
		"Score": 3000,
		"Name": "Phase 11",
		"RewardList": [
			{
				"GoodsType": "GoodsType_Gold",
				"Id": 0,
				"Count": 150000
			}
		],
		"RewardDisplayCount": 3
	},
	"236": {
		"ID": 236,
		"GroupId": 7,
		"Score": 2500,
		"Name": "Phase 10",
		"RewardList": [
			{
				"GoodsType": "GoodsType_Item",
				"Id": 3202,
				"Count": 8
			}
		],
		"RewardDisplayCount": 3
	},
	"237": {
		"ID": 237,
		"GroupId": 7,
		"Score": 2000,
		"Name": "Phase 9",
		"RewardList": [
			{
				"GoodsType": "GoodsType_Item",
				"Id": 1086,
				"Count": 20
			}
		],
		"RewardDisplayCount": 3
	},
	"238": {
		"ID": 238,
		"GroupId": 7,
		"Score": 1500,
		"Name": "Phase 8",
		"RewardList": [
			{
				"GoodsType": "GoodsType_Item",
				"Id": 3201,
				"Count": 12
			}
		],
		"RewardDisplayCount": 3
	},
	"239": {
		"ID": 239,
		"GroupId": 7,
		"Score": 1000,
		"Name": "Phase 7",
		"RewardList": [
			{
				"GoodsType": "GoodsType_Item",
				"Id": 6003,
				"Count": 6
			},
			{
				"GoodsType": "GoodsType_Item",
				"Id": 6006,
				"Count": 6
			},
			{
				"GoodsType": "GoodsType_Item",
				"Id": 6009,
				"Count": 6
			}
		],
		"RewardDisplayCount": 3
	},
	"240": {
		"ID": 240,
		"GroupId": 7,
		"Score": 700,
		"Name": "Phase 6",
		"RewardList": [
			{
				"GoodsType": "GoodsType_Item",
				"Id": 3503,
				"Count": 1
			}
		],
		"RewardDisplayCount": 3
	},
	"241": {
		"ID": 241,
		"GroupId": 7,
		"Score": 500,
		"Name": "Phase 5",
		"RewardList": [
			{
				"GoodsType": "GoodsType_Crystal",
				"Id": 0,
				"Count": 20
			}
		],
		"RewardDisplayCount": 3
	},
	"242": {
		"ID": 242,
		"GroupId": 7,
		"Score": 400,
		"Name": "Phase 4",
		"RewardList": [
			{
				"GoodsType": "GoodsType_Item",
				"Id": 1086,
				"Count": 10
			}
		],
		"RewardDisplayCount": 3
	},
	"243": {
		"ID": 243,
		"GroupId": 7,
		"Score": 300,
		"Name": "Phase 3",
		"RewardList": [
			{
				"GoodsType": "GoodsType_Item",
				"Id": 4001,
				"Count": 1
			}
		],
		"RewardDisplayCount": 3
	},
	"244": {
		"ID": 244,
		"GroupId": 7,
		"Score": 200,
		"Name": "Phase 2",
		"RewardList": [
			{
				"GoodsType": "GoodsType_Gold",
				"Id": 0,
				"Count": 100000
			}
		],
		"RewardDisplayCount": 3
	},
	"245": {
		"ID": 245,
		"GroupId": 7,
		"Score": 100,
		"Name": "Phase 1",
		"RewardList": [
			{
				"GoodsType": "GoodsType_Crystal",
				"Id": 0,
				"Count": 10
			}
		],
		"RewardDisplayCount": 3
	}
}